0 10 110.614 
1 78 166.911 
2 16 92.6614 
3 136 97.2222 
4 13 101.242 
5 2 63.0037 
6 98 77.3108 
7 37 90.3335 
8 111 90.2002 
9 87 78.0082 
10 149 104.877 
11 5 72.0887 
12 8 95.7108 
13 76 132.68 
14 151 79.7547 
15 139 103.143 
16 51 82.9267 
17 252 90.5841 
18 89 100.278 
19 164 140.341 
20 79 84.2212 
21 41 79.0999 
22 21 69.9128 
23 67 89.1472 
24 63 94.3774 
25 144 88.5392 
26 12 93.0605 
27 14 105.521 
28 208 122.527 
29 218 85.136 
30 26 112.804 
31 19 84.802 
32 180 72.0481 
33 14 126.081 
34 449 127.498 
35 283 126.094 
36 225 127.164 
37 80 88.9487 
38 234 91.7601 
39 23 131.901 
40 33 59.6152 
41 7 80.2159 
42 138 94.167 
43 265 90.5498 
44 251 127.362 
45 7 79.5187 
46 50 123.378 
47 162 115.457 
48 17 86.6074 
49 2 63.0938 
50 228 92.0188 
51 28 90.9318 
52 433 275.335 
53 134 72.3155 
54 114 124.57 
55 47 132.207 
56 206 106.788 
57 283 89.7483 
58 21 122.682 
59 472 83.4379 
60 139 137.997 
61 40 87.1219 
62 43 112.694 
63 37 138.175 
64 27 80.7265 
65 36 124.028 
66 104 110.736 
67 41 110.739 
68 94 124.14 
69 18 91.4756 
70 21 102.186 
71 163 63.0938 
72 7 128.818 
73 64 84.0545 
74 134 86.9044 
75 12 89.1411 
76 209 124.52 
77 96 89.0634 
78 29 72.1696 
79 236 139.719 
80 22 54.6048 
81 10 92.9235 
82 121 90.0984 
83 5 101.911 
84 47 130.03 
85 223 90.6803 
86 0 60.8449 
87 83 138.077 
88 54 112.218 
89 50 69.5189 
90 3 84.1006 
91 137 163.803 
92 57 152.17 
93 15 79.5555 
94 93 91.2124 
95 164 83.8144 
96 41 93.8109 
97 31 88.6486 
98 178 92.0832 
99 4 100.475 
100 90 119.561 
101 195 153.426 
102 251 125.883 
103 147 85.4375 
104 74 90.4434 
105 33 84.1938 
106 21 106.587 
107 179 93.583 
108 102 118.416 
109 111 59.0295 
110 26 121.099 
111 132 94.6452 
112 12 125.942 
113 211 96.9934 
114 197 91.9083 
115 228 131.746 
116 128 125.405 
117 34 72.9352 
118 20 90.4404 
119 5 79.2432 
120 163 85.8759 
121 23 73.085 
122 82 116.67 
123 85 87.7621 
124 47 91.4273 
125 32 122.64 
126 131 114.954 
127 13 163.922 
128 38 92.0967 
129 128 80.1668 
130 72 101.016 
131 71 131.273 
132 117 90.5755 
133 24 78.0199 
134 20 95.2606 
135 371 121.209 
136 55 84.2015 
137 117 75.8891 
138 213 131.108 
139 4 79.1399 
140 0 69.6865 
141 41 150.747 
142 44 112.104 
143 39 102.474 
144 259 74.1875 
145 45 91.2026 
146 122 109.65 
147 102 88.2724 
148 322 102.871 
149 42 100.992 
150 35 83.4432 
151 7 83.5366 
152 155 160.63 
153 27 127.41 
154 3 66.5956 
155 121 89.2851 
156 3 78.8517 
157 251 60.0051 
158 232 85.8039 
159 56 117.759 
160 23 98.3795 
161 30 125.43 
162 41 123.752 
163 17 92.6843 
164 217 121.495 
165 40 86.2173 
166 76 84.8014 
167 284 118.817 
168 43 116.339 
169 16 63.0622 
170 230 86.0242 
171 8 79.7891 
172 37 93.0531 
173 14 81.2467 
174 13 98.842 
175 166 119.146 
176 269 118.791 
177 146 84.5577 
178 207 149.1 
179 3 71.7199 
180 20 63.8173 
181 36 112.823 
182 180 98.4688 
183 400 83.0596 
184 5 87.1824 
185 136 89.0362 
186 19 107.735 
187 244 79.621 
188 21 82.9368 
189 5 89.9677 
190 331 89.3884 
191 18 87.8855 
192 40 94.2275 
193 1 86.6768 
194 4 87.6138 
195 65 66.3585 
196 53 114.026 
197 76 121.161 
198 70 95.0267 
199 366 135.312 
200 89 122.86 
201 63 147.888 
202 3 59.0295 
203 135 89.2125 
204 76 88.8523 
205 54 117.233 
206 33 89.6242 
207 51 85.8245 
208 74 128.544 
209 128 74.6884 
210 119 93.0212 
211 160 123.629 
212 60 125.737 
213 75 90.9291 
214 35 70.704 
215 91 98.3222 
216 42 118.174 
217 77 130.762 
218 121 88.0103 
219 44 62.9185 
220 29 108.892 
221 18 80.3949 
222 10 97.7039 
223 21 88.7972 
224 43 85.9927 
225 19 91.5062 
226 98 127.522 
227 3 93.7217 
228 11 86.0422 
229 165 90.0167 
230 86 86.014 
231 3 115.92 
232 65 88.8683 
233 177 164.261 
234 44 142.124 
235 13 93.8742 
236 63 92.1073 
237 18 94.3586 
238 17 79.6229 
239 5 85.9906 
240 514 91.1636 
241 114 114.914 
242 153 100.518 
243 28 102.927 
244 277 229.707 
245 13 88.0454 
246 43 65.7598 
247 18 113.261 
248 379 91.2414 
249 105 117.223 
250 33 86.4891 
251 37 91.1284 
252 195 118.742 
253 109 159.034 
254 36 90.1181 
255 4 87.4949 
256 8 90.9611 
257 262 86.9246 
258 219 104.533 
259 2 109.703 
260 21 125.029 
261 166 117.443 
262 33 59.8595 
263 163 71.9523 
264 29 92.9452 
265 81 121.487 
266 441 90.4176 
267 42 80.6659 
268 443 92.0407 
269 8 84.6646 
270 189 79.6341 
271 278 88.7071 
272 17 69.8948 
273 50 67.147 
274 188 93.2488 
275 228 137.601 
276 37 107.499 
277 245 90.8103 
278 11 81.5128 
279 63 124.318 
280 59 71.8091 
281 199 115.28 
282 114 81.2957 
283 4 96.2352 
284 69 97.1334 
285 85 90.9398 
286 128 84.7705 
287 46 83.4399 
288 30 120.467 
289 36 106.202 
290 58 111.063 
291 68 111.131 
292 65 79.5493 
293 87 87.6769 
294 256 86.9335 
295 582 125.474 
296 117 88.3772 
297 247 116.309 
298 119 90.0581 
299 112 67.026 
300 9 154.152 
301 80 86.4824 
302 32 90.268 
303 27 88.9776 
304 9 82.0804 
305 2 86.0452 
306 95 87.9859 
307 36 86.1572 
308 390 91.1394 
309 233 88.8361 
310 365 113.182 
311 14 120.288 
312 235 133.344 
313 349 114.155 
314 12 116.31 
315 121 60.7369 
316 154 97.5805 
317 128 109.856 
318 67 64.0847 
319 36 70.3108 
320 4 122.377 
321 83 93.2274 
322 40 108.611 
323 176 82.2277 
324 112 134.66 
325 100 137.711 
326 4 59.0295 
327 6 83.7101 
328 151 89.7669 
329 5 78.1501 
330 25 112.666 
331 48 117.791 
332 183 91.2112 
333 2 92.4774 
334 25 84.9042 
335 111 156.713 
336 3 86.8977 
337 190 90.9483 
338 124 87.9387 
339 347 117.405 
340 33 115.368 
341 0 59.7516 
342 87 81.5825 
343 232 84.6218 
344 162 89.6538 
345 80 91.1755 
346 183 113.266 
347 3 143.891 
348 147 87.8041 
349 142 92.46 
350 181 87.537 
351 20 67.1557 
352 190 94.0305 
353 68 108.99 
354 205 90.1136 
355 13 73.3274 
356 88 111.041 
357 7 120.321 
358 102 79.8743 
359 93 86.1216 
360 0 59.6691 
361 43 91.6185 
362 242 156.748 
363 16 75.8924 
364 7 121.889 
365 209 121.825 
366 45 75.4185 
367 11 134.211 
368 205 89.0139 
369 34 92.348 
370 74 92.0967 
371 88 89.4892 
372 48 114.664 
373 125 88.9287 
374 6 90.2708 
375 17 104.044 
376 416 142.846 
377 86 90.2678 
378 69 92.9235 
379 11 121.305 
380 421 86.7973 
381 82 98.5271 
382 25 95.9212 
383 11 84.3391 
384 25 108.565 
385 105 90.9483 
386 57 131.003 
387 25 105.232 
388 25 72.0962 
389 12 122.452 
390 366 165.755 
391 31 130.933 
392 61 116.079 
393 96 107.499 
394 54 101.776 
395 30 121.428 
396 5 101.783 
397 317 65.1855 
398 10 91.5253 
399 83 123.207 
400 285 86.9314 
401 223 86.01 
402 14 120.778 
403 112 160.651 
404 6 74.7576 
405 71 141.466 
406 83 92.2185 
407 73 91.7363 
408 29 77.0894 
409 6 78.9421 
410 113 92.9637 
411 77 90.9123 
412 136 93.621 
413 60 114.222 
414 54 121.553 
415 15 77.6304 
416 22 117.471 
417 120 118.215 
418 37 97.2547 
419 84 125.254 
420 153 116.6 
421 9 106.531 
422 111 111.536 
423 80 134.054 
424 15 116.01 
425 72 122.211 
426 21 70.0353 
427 34 108.44 
428 397 128.757 
429 17 120.123 
430 4 59.0295 
431 48 171.908 
432 39 109.4 
433 10 76.0355 
434 14 132.21 
435 13 90.0623 
436 59 82.3719 
437 250 108.99 
438 14 120.452 
439 6 112.66 
440 9 74.7135 
441 338 131.166 
442 161 95.5479 
443 276 96.626 
444 29 91.0372 
445 39 85.4735 
446 84 89.9318 
447 130 130.553 
448 67 72.4886 
449 9 76.9896 
450 5 81.4975 
451 101 133.025 
452 56 86.4972 
453 132 123.505 
454 67 114.505 
455 239 155.232 
456 168 90.7414 
457 55 129.175 
458 209 167.415 
459 43 108.242 
460 26 91.5165 
461 239 91.6752 
462 44 132.474 
463 323 123.34 
464 100 192.97 
465 22 81.0669 
466 49 76.4896 
467 76 87.9822 
468 5 89.4933 
469 21 58.8139 
470 5 81.8982 
471 227 145.148 
472 156 125.117 
473 158 89.4205 
474 60 131.482 
475 0 69.5365 
476 15 72.0633 
477 30 125.156 
478 56 93.162 
479 50 103.517 
480 5 110.808 
481 8 96.9888 
482 195 125.031 
483 258 85.7831 
484 3 60.8524 
485 125 120.278 
486 136 115.421 
487 276 180.44 
488 39 94.1849 
489 244 124.447 
490 219 167.004 
491 25 116.401 
492 6 86.5289 
493 121 91.1704 
494 23 88.0672 
495 52 91.7082 
496 191 123.657 
497 13 105.935 
498 95 103.955 
499 75 114.326 
500 111 137.837 
501 15 110.686 
502 12 109.501 
503 108 92.9668 
504 88 79.9328 
505 3 59.028 
506 31 120.07 
507 174 88.8718 
508 4 86.6249 
509 187 84.6183 
510 11 69.9173 
511 313 127.577 
512 368 131.413 
513 800 124.898 
514 122 79.6214 
515 19 135.306 
516 196 74.2229 
517 100 82.9829 
518 49 90.7414 
519 1 59.028 
520 115 105.176 
521 111 112.826 
522 121 94.9187 
523 228 114.337 
524 26 110.675 
525 13 71.8865 
526 48 90.725 
527 113 124.178 
528 25 116.32 
529 162 86.107 
530 35 94.225 
531 125 87.7382 
532 10 74.1777 
533 100 89.8667 
534 52 85.7347 
535 461 104.046 
536 73 150.832 
537 89 104.444 
538 1 79.1858 
539 17 116.72 
540 64 125.752 
541 102 148.283 
542 488 167.556 
543 119 110.888 
544 187 83.9096 
545 393 168.56 
546 88 92.6695 
547 56 138.461 
548 27 59.0295 
549 10 89.0168 
550 83 126.409 
551 8 105.557 
552 251 91.8386 
553 48 85.5684 
554 128 86.2974 
555 158 148.887 
556 108 121.066 
557 183 94.4028 
558 39 89.5898 
559 3 87.392 
560 18 78.2105 
561 0 59.028 
562 28 119.795 
563 13 126.536 
564 26 79.074 
565 40 72.6631 
566 28 84.6401 
567 25 79.0523 
568 98 92.9614 
569 31 111.338 
570 62 89.1207 
571 84 80.463 
572 275 161.509 
573 5 59.1096 
574 13 77.6642 
575 31 79.7129 
576 34 117.952 
577 151 135.017 
578 62 105.573 
579 12 87.7551 
580 183 168.494 
581 146 86.3908 
582 43 97.0358 
583 0 63.0757 
584 8 83.0407 
585 899 135.452 
586 114 90.3581 
587 261 75.3735 
588 17 90.4106 
589 7 87.0994 
590 143 59.7275 
591 119 94.1297 
592 131 94.3904 
593 65 92.0472 
594 23 137.156 
595 23 63.4913 
596 74 79.9503 
597 30 86.0407 
598 5 88.2141 
599 30 92.2725 
600 21 64.2865 
601 49 106.887 
602 81 89.7361 
603 29 132.918 
604 190 108.042 
605 94 130.554 
606 12 91.6788 
607 94 90.4482 
608 96 76.1427 
609 29 100.606 
610 20 111.123 
611 61 129.04 
612 166 167.324 
613 88 58.9335 
614 208 117.46 
615 131 106.407 
616 25 84.0506 
617 16 104.486 
618 128 105.286 
619 179 112.881 
620 153 122.239 
621 124 91.0964 
622 22 81.5935 
623 19 80.898 
624 134 87.8315 
625 179 91.2487 
626 21 111.601 
627 226 86.3848 
628 0 63.0998 
629 122 93.0613 
630 143 153.455 
631 0 74.4153 
632 74 130.976 
633 14 102.998 
634 62 69.6659 
635 10 81.1942 
636 212 77.5482 
637 126 81.1942 
638 15 60.8584 
639 21 80.9569 
640 8 59.7636 
641 42 84.4367 
642 111 92.9614 
643 23 85.3667 
644 85 84.9999 
645 22 132.791 
646 147 92.2185 
647 320 128.404 
648 265 83.0744 
649 34 94.4274 
650 25 112.953 
651 70 137.125 
652 105 130.365 
653 77 156.847 
654 183 59.3584 
655 32 79.6024 
656 49 128.589 
657 184 88.4647 
658 272 87.8675 
659 171 90.498 
660 514 86.0048 
661 81 79.7881 
662 78 121.63 
663 27 85.9888 
664 32 91.3853 
665 36 85.3423 
666 30 67.4113 
667 44 134.981 
668 12 93.7678 
669 145 120.309 
670 72 69.8813 
671 40 89.8128 
672 27 89.2361 
673 0 79.4933 
674 10 73.2254 
675 1193 150.623 
676 31 86.5313 
677 4 76.2998 
678 358 107.158 
679 16 69.8228 
680 25 135.833 
681 49 86.9015 
682 1 63.0998 
683 9 74.311 
684 144 87.4312 
685 16 87.6865 
686 44 132.051 
687 193 85.6499 
688 147 78.6982 
689 1 72.1007 
690 30 112.783 
691 122 144.886 
692 109 69.7375 
693 1 69.613 
694 168 84.923 
695 41 83.9452 
696 0 82.5096 
697 30 88.8974 
698 359 110.897 
699 62 68.4937 
700 13 88.4082 
701 240 89.4415 
702 300 127.993 
703 30 125.432 
704 249 86.2035 
705 46 79.6229 
706 20 108.733 
707 47 82.2936 
708 6 85.2314 
709 16 74.0606 
710 11 72.1022 
711 21 166.788 
712 12 67.9059 
713 39 133.034 
714 61 112.122 
715 87 90.7565 
716 33 92.5969 
717 4 90.8612 
718 93 116.594 
719 22 107.638 
720 323 86.0716 
721 9 84.8799 
722 27 78.0146 
723 147 121.391 
724 9 69.9173 
725 12 122.581 
726 83 127.527 
727 87 88.8135 
728 208 116.102 
729 2 84.0314 
730 85 75.6136 
731 139 112.277 
732 186 134.38 
733 192 123.228 
734 74 80.5784 
735 116 113.859 
736 255 157.358 
737 0 67.4473 
738 34 95.2582 
739 391 84.4499 
740 40 123.482 
741 40 76.1128 
742 17 121.242 
743 1 137.861 
744 31 110.586 
745 41 105.994 
746 13 59.9337 
747 62 92.1444 
748 4 136.986 
749 229 79.2963 
750 592 90.3072 
751 52 123.223 
752 78 100.677 
753 12 62.4443 
754 33 93.9401 
755 38 121.132 
756 527 121.107 
757 72 116.497 
758 23 89.3389 
759 117 160.941 
760 328 125.604 
761 148 94.05 
762 473 115.712 
763 205 73.0067 
764 33 90.8562 
765 16 88.3508 
766 43 90.8799 
767 224 104.193 
768 110 112.784 
769 21 89.8025 
770 200 85.9727 
771 28 69.685 
772 93 90.0461 
773 59 90.7403 
774 217 147.482 
775 220 218.011 
776 288 92.9016 
777 46 90.6445 
778 27 93.2488 
779 26 119.714 
780 53 69.5052 
781 2 82.9094 
782 5 90.8164 
783 300 83.7877 
784 9 83.9947 
785 395 120.874 
786 6 77.2711 
787 333 130.569 
788 37 125.013 
789 41 69.5366 
790 61 90.774 
791 28 95.3493 
792 341 109.485 
793 11 94.1297 
794 14 76.2821 
795 20 126.536 
796 478 124.121 
797 55 124.329 
798 47 73.9899 
799 9 123.137 
800 241 117.623 
801 134 197.77 
802 8 82.8636 
803 216 109.818 
804 30 90.8832 
805 34 128.774 
806 15 137.931 
807 9 112.467 
808 137 81.3526 
809 4 126.231 
810 362 96.0646 
811 18 60.4272 
812 140 72.0286 
813 72 117.549 
814 21 180.427 
815 12 83.6906 
816 63 112.534 
817 23 133.675 
818 2 103.2 
819 22 72.7707 
820 31 121.233 
821 87 186.569 
822 26 67.0052 
823 174 69.031 
824 0 88.2857 
825 176 91.762 
826 596 120.701 
827 56 91.7458 
828 49 92.2659 
829 49 115.554 
830 7 86.1977 
831 0 58.956 
832 62 87.0151 
833 42 63.0998 
834 13 135.952 
835 187 120.957 
836 76 115.689 
837 20 116.403 
838 13 77.5339 
839 20 74.6485 
840 73 122.375 
841 198 160.855 
842 11 81.0172 
843 3 113.571 
844 149 91.7649 
845 89 68.0939 
846 165 86.3107 
847 38 108.802 
848 273 122.295 
849 145 91.6238 
850 326 90.1738 
851 29 69.9173 
852 40 67.0582 
853 70 130.171 
854 221 152.086 
855 19 97.8464 
856 46 95.1137 
857 24 80.8511 
858 230 135.384 
859 344 106.888 
860 285 103.693 
861 147 59.0465 
862 704 151.415 
863 85 87.9054 
864 9 105.733 
865 38 88.9914 
866 13 87.3558 
867 51 109.054 
868 39 89.5665 
869 184 84.1021 
870 34 124.015 
871 192 138.794 
872 79 161.285 
873 102 91.6567 
874 19 95.8311 
875 16 91.0048 
876 94 86.7839 
877 42 90.7163 
878 42 80.617 
879 40 105.041 
880 12 84.3447 
881 216 180.475 
882 312 88.7511 
883 345 121.096 
884 46 90.8356 
885 108 85.8241 
886 151 92.9601 
887 25 104.444 
888 46 146.798 
889 46 89.4377 
890 13 101.724 
891 38 100.884 
892 8 121.434 
893 6 86.9122 
894 23 79.125 
895 137 90.9318 
896 71 94.1297 
897 82 106.741 
898 62 85.9027 
899 8 80.7803 
900 55 137.392 
901 21 97.9213 
902 29 59.0295 
903 117 98.8304 
904 204 113.103 
905 282 178.05 
906 142 87.6138 
907 4 92.0211 
908 32 92.604 
909 63 83.8041 
910 8 129.582 
911 104 79.4416 
912 206 113.331 
913 61 116.678 
914 113 88.8828 
915 149 175.948 
916 99 90.2002 
917 293 89.6613 
918 25 121.468 
919 83 132.779 
920 147 97.3236 
921 182 134.524 
922 119 87.7845 
923 28 98.0986 
924 94 87.8711 
925 233 155.624 
926 273 93.0866 
927 24 108.762 
928 0 58.8139 
929 17 60.8584 
930 48 122.515 
931 377 112.362 
932 10 120.424 
933 339 114.198 
934 124 71.3176 
935 45 63.0262 
936 12 76.3509 
937 22 86.4355 
938 75 110.912 
939 7 97.3317 
940 292 101.671 
941 109 88.9685 
942 6 81.3721 
943 212 87.838 
944 132 122.937 
945 159 87.6351 
946 85 115.283 
947 162 115.889 
948 38 59.0235 
949 97 92.4583 
950 350 98.7618 
951 87 150.766 
952 137 78.1664 
953 37 160.652 
954 30 87.5882 
955 26 123.958 
956 83 92.7447 
957 60 88.7855 
958 8 82.4079 
959 6 80.617 
960 197 124.798 
961 124 93.1968 
962 43 73.2055 
963 204 75.8265 
964 182 91.5707 
965 32 109.795 
966 22 90.6039 
967 118 119.714 
968 6 77.0432 
969 34 110.131 
970 62 78.8618 
971 30 93.014 
972 115 102.871 
973 40 88.5927 
974 201 91.2675 
975 26 122.995 
976 44 110.991 
977 81 120.131 
978 79 93.5088 
979 31 89.5938 
980 39 123.324 
981 67 90.2197 
982 119 89.7908 
983 6 154.07 
984 59 93.8884 
985 19 83.0974 
986 37 87.7367 
987 52 88.6921 
988 213 97.4388 
989 25 86.1572 
990 108 169.649 
991 220 129.501 
992 29 89.6689 
993 176 57.5295 
994 353 114.009 
995 496 72.1972 
996 201 105.846 
997 57 100.13 
998 163 91.7296 
999 125 92.2175 
1000 43 69.5905 
1001 366 118.027 
1002 225 66.3731 
1003 69 90.0656 
1004 183 91.1121 
1005 1 113.444 
1006 29 87.3618 
1007 21 120.356 
1008 8 90.3699 
1009 43 76.1725 
1010 103 86.003 
1011 113 93.3854 
1012 19 78.7367 
1013 109 69.8948 
1014 779 127.179 
1015 107 126.815 
1016 531 118.886 
1017 29 83.723 
1018 200 166.593 
1019 61 69.1488 
1020 323 201.895 
1021 226 83.3457 
1022 125 94.12 
1023 188 92.483 
1024 36 79.4072 
1025 34 91.6654 
1026 3 59.0235 
1027 10 120.529 
1028 9 225.967 
1029 109 91.834 
1030 25 110.718 
1031 23 89.5156 
1032 28 91.9328 
1033 70 164.921 
1034 46 87.3031 
1035 50 92.8523 
1036 14 130.445 
1037 203 118.991 
1038 11 69.028 
1039 114 134.192 
1040 37 87.2545 
1041 196 110.239 
1042 186 85.9089 
1043 6 62.6686 
1044 110 134.741 
1045 32 131.666 
1046 98 114.889 
1047 52 84.9132 
1048 30 123.252 
1049 61 107.614 
1050 45 175.057 
1051 62 113.351 
1052 71 85.5885 
1053 142 88.8283 
1054 10 116.94 
1055 52 89.9922 
1056 35 128.994 
1057 10 76.0892 
1058 96 90.827 
1059 87 104.729 
1060 47 120.952 
1061 116 69.9128 
1062 102 84.3633 
1063 26 92.167 
1064 128 109.206 
1065 78 123.406 
1066 33 81.3232 
1067 46 126.118 
1068 35 79.9383 
1069 158 98.8304 
1070 1 77.2883 
1071 85 131.151 
1072 32 79.8391 
1073 81 172.442 
1074 61 132.36 
1075 217 84.5392 
1076 1 58.956 
1077 0 69.6865 
1078 25 68.5964 
1079 124 177.071 
1080 72 60.6055 
1081 22 90.5782 
1082 10 69.03 
1083 118 116.251 
1084 18 59.0295 
1085 87 125.795 
1086 125 91.2302 
1087 13 81.8644 
1088 67 86.0452 
1089 19 90.195 
1090 60 90.8763 
1091 87 91.4207 
1092 37 122.228 
1093 17 72.2358 
1094 8 63.0998 
1095 37 83.5696 
1096 127 177.091 
1097 25 73.1002 
1098 163 125.235 
1099 61 92.8511 
1100 17 69.9188 
1101 20 76.7212 
1102 81 90.8595 
1103 10 84.4294 
1104 63 103.078 
1105 133 125.446 
1106 194 150.476 
1107 31 73.2998 
1108 28 90.3072 
1109 20 85.7613 
1110 203 88.6045 
1111 95 137.72 
1112 71 83.6875 
1113 48 83.2228 
1114 43 89.4678 
1115 201 163.63 
1116 0 92.9637 
1117 28 89.2051 
1118 163 127.81 
1119 475 162.685 
1120 5 78.2181 
1121 54 85.606 
1122 74 90.6879 
1123 25 86.0375 
1124 81 79.8019 
1125 5 83.773 
1126 42 134.012 
1127 134 128.046 
1128 91 89.4517 
1129 84 107.3 
1130 82 84.9847 
1131 44 90.7166 
1132 39 102.798 
1133 50 97.0358 
1134 154 90.0167 
1135 12 88.8345 
1136 27 109.009 
1137 291 83.6892 
1138 60 88.1231 
1139 67 160.316 
1140 259 83.2211 
1141 231 109.675 
1142 26 118.132 
1143 81 112.262 
1144 206 126.572 
1145 512 127.588 
1146 93 118.229 
1147 128 109.068 
1148 312 87.3756 
1149 68 100.091 
1150 5 124.747 
1151 14 90.1012 
1152 9 90.2723 
1153 35 92.8165 
1154 17 79.0985 
1155 216 88.4762 
1156 0 59.6436 
1157 6 71.8709 
1158 144 206.466 
1159 68 110.477 
1160 32 106.591 
1161 53 78.0311 
1162 121 82.6868 
1163 44 97.2332 
1164 169 81.0669 
1165 9 72.4627 
1166 132 85.1796 
1167 116 135.489 
1168 9 82.3911 
1169 60 131.367 
1170 155 92.9706 
1171 91 118.927 
1172 518 112.697 
1173 102 116.903 
1174 63 89.8667 
1175 350 106.586 
1176 232 87.7127 
1177 15 89.548 
1178 447 131.843 
1179 187 131.953 
1180 17 114.64 
1181 13 133.523 
1182 49 88.0867 
1183 52 107.082 
1184 60 107.872 
1185 10 78.2396 
1186 113 87.6839 
1187 24 88.0834 
1188 65 67.3948 
1189 9 85.2117 
1190 369 124.842 
1191 103 88.0627 
1192 168 137.119 
1193 139 114.801 
1194 4 118.344 
1195 14 59.7651 
1196 33 100.572 
1197 62 109.724 
1198 67 122.927 
1199 17 76.0939 
1200 58 110.505 
1201 61 71.1775 
1202 334 119.878 
1203 128 87.6198 
1204 14 109.25 
1205 238 114.616 
1206 392 126.698 
1207 120 128.156 
1208 204 93.7217 
1209 106 89.9168 
1210 120 133.437 
1211 244 85.074 
1212 110 84.4128 
1213 148 81.2467 
1214 10 91.0077 
1215 94 96.8261 
1216 60 135.742 
1217 99 113.879 
1218 60 82.2279 
1219 6 87.8095 
1220 11 87.8941 
1221 21 73.4525 
1222 308 148.081 
1223 12 85.1137 
1224 281 172.417 
1225 130 92.6154 
1226 45 94.3656 
1227 163 90.3885 
1228 23 107.013 
1229 180 86.6209 
1230 220 112.355 
1231 107 85.5157 
1232 76 177.762 
1233 29 89.9388 
1234 468 123.207 
1235 29 109.55 
1236 96 199.137 
1237 90 89.2361 
1238 29 81.1903 
1239 218 92.1444 
1240 393 115.793 
1241 279 103.588 
1242 30 161.646 
1243 40 88.6647 
1244 95 83.1992 
1245 161 118.55 
1246 20 98.8783 
1247 34 106.58 
1248 9 127.41 
1249 509 155.578 
1250 6 82.3976 
1251 27 90.0581 
1252 18 79.5988 
1253 54 75.3593 
1254 106 159.964 
1255 13 133.635 
1256 38 109.278 
1257 5 69.8948 
1258 117 166.354 
1259 37 87.9509 
1260 40 89.696 
1261 97 108.723 
1262 67 117.835 
1263 204 88.4528 
1264 229 78.7328 
1265 21 88.7877 
1266 14 117.774 
1267 37 77.5295 
1268 48 84.1379 
1269 201 85.3399 
1270 135 90.9479 
1271 79 95.2075 
1272 85 150.36 
1273 65 79.6587 
1274 5 59.7591 
1275 6 87.6033 
1276 61 67.4113 
1277 90 97.0752 
1278 163 129.496 
1279 27 120.264 
1280 22 63.0863 
1281 51 146.321 
1282 83 106.986 
1283 5 75.6122 
1284 23 113.518 
1285 30 113.505 
1286 56 135.024 
1287 20 68.1865 
1288 33 121.604 
1289 4 58.992 
1290 59 124.567 
1291 47 92.9751 
1292 9 116.303 
1293 9 69.8948 
1294 152 94.167 
1295 100 108.601 
1296 502 109.574 
1297 51 118.18 
1298 168 88.8614 
1299 8 75.7158 
1300 372 116.863 
1301 468 128.575 
1302 3 60.2632 
1303 66 89.2305 
1304 44 89.4392 
1305 81 88.5887 
1306 14 83.7679 
1307 101 123.752 
1308 52 84.4368 
1309 224 143.151 
1310 49 84.0804 
1311 77 92.8761 
1312 37 79.9142 
1313 62 90.2002 
1314 147 134.363 
1315 91 85.379 
1316 353 148.894 
1317 249 130.594 
1318 74 88.0492 
1319 26 91.0088 
1320 39 134.511 
1321 74 125.796 
1322 159 87.9054 
1323 51 111.215 
1324 18 88.6928 
1325 0 59.7651 
1326 143 165.751 
1327 166 114.938 
1328 73 78.6144 
1329 35 90.8311 
1330 57 80.8593 
1331 260 117.631 
1332 4 64.9753 
1333 67 103.312 
1334 122 116.356 
1335 207 100.521 
1336 92 115.778 
1337 158 135.964 
1338 134 136.614 
1339 30 124.796 
1340 45 78.1785 
1341 11 84.6094 
1342 33 66.8229 
1343 10 85.4189 
1344 17 79.3149 
1345 72 125.4 
1346 7 59.6152 
1347 297 115.335 
1348 67 90.2672 
1349 43 69.6805 
1350 6 86.3621 
1351 19 122.024 
1352 62 93.3056 
1353 374 147.074 
1354 104 84.0056 
1355 56 117.832 
1356 154 86.01 
1357 102 84.992 
1358 180 91.7601 
1359 136 132.408 
1360 178 71.6195 
1361 288 89.141 
1362 220 93.4855 
1363 50 80.6574 
1364 63 112.174 
1365 75 137.466 
1366 140 131.893 
1367 5 69.673 
1368 60 96.4154 
1369 242 104.695 
1370 46 128.434 
1371 12 71.2489 
1372 180 121.67 
1373 159 161.477 
1374 15 86.5357 
1375 219 107.499 
1376 54 87.254 
1377 46 120.285 
1378 384 169.031 
1379 20 73.4336 
1380 93 87.422 
1381 140 166.37 
1382 220 68.6812 
1383 215 87.738 
1384 14 113.05 
1385 0 60.8209 
1386 10 101.918 
1387 13 76.1725 
1388 57 75.3735 
1389 125 131.216 
1390 78 87.0878 
1391 56 124.49 
1392 2 63.0863 
1393 18 84.0545 
1394 67 67.3528 
1395 25 82.5823 
1396 208 120.959 
1397 125 81.4978 
1398 174 145.268 
1399 31 95.3405 
1400 0 87.4293 
1401 22 72.1022 
1402 143 122.992 
1403 238 162.261 
1404 41 90.2678 
1405 110 87.3138 
1406 4 83.2661 
1407 442 128.936 
1408 117 121.784 
1409 283 157.975 
1410 40 103.487 
1411 157 107.141 
1412 64 80.1197 
1413 102 143.915 
1414 34 69.9188 
1415 47 98.2608 
1416 56 128.688 
1417 0 87.6037 
1418 82 109.63 
1419 67 134.5 
1420 52 106.555 
1421 20 84.8072 
1422 78 97.9541 
1423 6 87.0383 
1424 163 117.925 
1425 174 118.169 
1426 196 133.721 
1427 12 105.077 
1428 86 154.805 
1429 8 90.1523 
1430 371 88.3764 
1431 114 88.8345 
1432 75 159.05 
1433 34 106.269 
1434 40 91.5831 
1435 84 100.385 
1436 138 135.6 
1437 16 77.903 
1438 110 88.4494 
1439 64 97.636 
1440 0 71.6192 
1441 235 116.851 
1442 31 79.7175 
1443 2 81.9003 
1444 931 123.938 
1445 212 108.894 
1446 95 84.4353 
1447 7 84.8846 
1448 276 86.5473 
1449 23 114.343 
1450 190 173.538 
1451 363 80.6393 
1452 6 87.7835 
1453 4 103.827 
1454 1 79.5988 
1455 74 85.2515 
1456 8 98.0657 
1457 77 78.6479 
1458 3 103.209 
1459 373 102.289 
1460 171 126.285 
1461 18 121.513 
1462 26 95.1036 
1463 343 94.5373 
1464 43 82.4271 
1465 165 87.6635 
1466 22 115.824 
1467 196 82.7553 
1468 14 113.622 
1469 20 118.19 
1470 281 91.6378 
1471 191 113.05 
1472 23 96.3743 
1473 7 177.31 
1474 242 250.255 
1475 54 113.908 
1476 20 152.255 
1477 61 88.929 
1478 181 181.817 
1479 12 127.428 
1480 8 111.573 
1481 51 92.0188 
1482 172 87.6425 
1483 336 101.858 
1484 96 91.7082 
1485 269 124.277 
1486 54 123.878 
1487 108 99.5527 
1488 136 78.9529 
1489 2 78.2482 
1490 409 87.6954 
1491 26 78.703 
1492 36 82.6134 
1493 180 78.7449 
1494 216 87.7373 
1495 51 117.745 
1496 83 85.6597 
1497 16 89.0739 
1498 120 79.6772 
1499 148 126.266 
1500 110 71.507 
1501 9 88.6397 
1502 25 112.779 
1503 141 137.716 
1504 121 90.7997 
1505 15 127.044 
1506 74 90.957 
1507 156 208.383 
1508 4 92.8733 
1509 218 71.3836 
1510 31 60.8584 
1511 126 92.9033 
1512 126 103.106 
1513 34 74.6278 
1514 91 89.0844 
1515 13 80.9126 
1516 106 123.443 
1517 196 150.847 
1518 313 111.883 
1519 218 88.7433 
1520 60 117.525 
1521 88 111.43 
1522 47 86.0732 
1523 74 85.6165 
1524 14 78.9079 
1525 49 112.079 
1526 56 112.554 
1527 251 77.8375 
1528 158 116.673 
1529 62 88.3124 
1530 120 89.5713 
1531 28 74.781 
1532 17 96.4379 
1533 11 73.6458 
1534 82 91.9993 
1535 91 79.6214 
1536 52 83.7813 
1537 25 108.798 
1538 100 86.0325 
1539 96 89.8107 
1540 20 118.188 
1541 68 77.0333 
1542 177 92.8733 
1543 119 85.6909 
1544 38 71.8493 
1545 11 112.523 
1546 155 131.751 
1547 27 122.34 
1548 43 114.877 
1549 92 76.4611 
1550 59 88.8345 
1551 163 91.1043 
1552 50 118.228 
1553 14 70.5096 
1554 65 94.3691 
1555 3 60.7369 
1556 12 62.9185 
1557 77 155.918 
1558 19 107.236 
1559 152 82.4592 
1560 170 88.7096 
1561 16 98.7975 
1562 50 131.361 
1563 91 108.144 
1564 142 136.561 
1565 427 127.132 
1566 25 87.6138 
1567 29 87.6666 
1568 94 130.352 
1569 92 85.7056 
1570 82 109.342 
1571 14 88.3238 
1572 87 76.3954 
1573 9 99.2582 
1574 155 92.5114 
1575 4 85.3251 
1576 7 90.9799 
1577 135 120.523 
1578 116 103.118 
1579 157 163.249 
1580 172 112.131 
1581 74 69.6865 
1582 239 85.3082 
1583 62 129.051 
1584 32 58.8482 
1585 275 160.973 
1586 16 89.6934 
1587 14 89.686 
1588 42 96.7091 
1589 31 111.476 
1590 10 84.5073 
1591 129 158.703 
1592 4 59.9337 
1593 63 64.9125 
1594 267 198.119 
1595 100 93.583 
1596 0 59.7411 
1597 4 97.5148 
1598 47 133.171 
1599 77 95.3306 
1600 54 181.799 
1601 32 88.815 
1602 318 161.282 
1603 183 117.313 
1604 302 119.754 
1605 14 60.8584 
1606 83 88.7264 
1607 417 78.9507 
1608 15 78.1714 
1609 228 95.4228 
1610 67 70.8533 
1611 70 94.3286 
1612 609 112.438 
1613 78 109.038 
1614 64 87.9321 
1615 150 127.12 
1616 20 95.1409 
1617 158 114.567 
1618 8 77.0239 
1619 20 125.49 
1620 170 119.309 
1621 53 104.256 
1622 22 85.156 
1623 54 110.614 
1624 93 138.293 
1625 113 95.7202 
1626 42 94.0305 
1627 22 126.779 
1628 104 86.6472 
1629 7 92.9601 
1630 35 130.121 
1631 0 59.016 
1632 17 93.0321 
1633 27 89.8888 
1634 181 129.114 
1635 20 109.795 
1636 476 118.699 
1637 344 85.4337 
1638 40 123.949 
1639 25 91.4612 
1640 94 83.5203 
1641 190 90.3509 
1642 24 83.8991 
1643 104 88.1627 
1644 48 86.2531 
1645 152 132.285 
1646 31 59.0295 
1647 96 131.39 
1648 54 92.9841 
1649 229 85.2937 
1650 107 90.9859 
1651 139 88.8942 
1652 3 85.4911 
1653 124 89.0634 
1654 235 72.3968 
1655 235 151.111 
1656 45 111.852 
1657 35 97.332 
1658 173 126.2 
1659 41 115.542 
1660 18 98.0669 
1661 634 116.278 
1662 48 107.813 
1663 34 77.436 
1664 4 84.2754 
1665 160 89.9739 
1666 123 163.88 
1667 34 118.737 
1668 0 107.378 
1669 108 86.0704 
1670 22 84.5282 
1671 14 59.7591 
1672 81 84.8423 
1673 45 120.308 
1674 254 94.4774 
1675 25 85.9746 
1676 291 78.0303 
1677 22 88.3727 
1678 24 114.712 
1679 4 59.0295 
1680 108 119.177 
1681 92 114.049 
1682 15 84.9975 
1683 77 86.2012 
1684 99 77.1427 
1685 294 132.558 
1686 8 121.767 
1687 4 82.3031 
1688 362 86.582 
1689 103 94.4058 
1690 23 125.551 
1691 75 98.6629 
1692 33 109.348 
1693 36 120.278 
1694 112 132.517 
1695 114 116.716 
1696 137 158.138 
1697 12 122.832 
1698 167 87.7045 
1699 428 162.686 
1700 210 116.388 
1701 136 92.0909 
1702 9 89.6571 
1703 83 93.6598 
1704 118 79.9704 
1705 99 89.9806 
1706 47 114.927 
1707 58 115.928 
1708 34 84.8049 
1709 205 86.1196 
1710 29 82.6248 
1711 4 121.202 
1712 73 117.572 
1713 35 90.5547 
1714 22 126.906 
1715 32 87.9601 
1716 1 71.0857 
1717 19 60.8569 
1718 31 112.52 
1719 42 121.261 
1720 124 109.627 
1721 19 123.33 
1722 92 100.593 
1723 415 83.2796 
1724 10 106.098 
1725 117 82.2744 
1726 51 103.731 
1727 174 96.4074 
1728 175 84.5732 
1729 228 86.4891 
1730 83 110.189 
1731 1 78.8383 
1732 11 92.3772 
1733 15 58.7364 
1734 21 82.8804 
1735 119 89.4118 
1736 189 68.1865 
1737 141 93.2507 
1738 6 66.9112 
1739 61 135.858 
1740 16 96.8184 
1741 95 117.95 
1742 222 84.3705 
1743 20 83.2182 
1744 1 69.6324 
1745 134 165.61 
1746 25 79.0368 
1747 141 87.9572 
1748 74 81.6523 
1749 31 79.9518 
1750 71 79.9569 
1751 9 91.543 
1752 148 126.16 
1753 5 87.7063 
1754 20 80.6659 
1755 28 90.827 
1756 89 131.562 
1757 73 113.002 
1758 72 91.4078 
1759 93 88.6112 
1760 382 164.233 
1761 72 126.823 
1762 162 92.1159 
1763 3 69.3934 
1764 32 104.127 
1765 91 152.716 
1766 116 113.762 
1767 21 117.124 
1768 0 69.8948 
1769 180 86.1216 
1770 389 134.618 
1771 2 69.3042 
1772 53 116.043 
1773 149 166.663 
1774 75 118.37 
1775 93 83.487 
1776 128 152.3 
1777 71 90.6448 
1778 110 196.441 
1779 146 85.0429 
1780 7 86.0814 
1781 113 94.2612 
1782 146 88.9653 
1783 185 91.3751 
1784 307 117.555 
1785 52 85.3358 
1786 104 87.1835 
1787 13 80.1306 
1788 152 102.965 
1789 99 86.6746 
1790 33 92.0472 
1791 229 112.056 
1792 416 85.194 
1793 99 129.711 
1794 0 92.274 
1795 31 105.923 
1796 324 83.5748 
1797 37 123.003 
1798 113 112.907 
1799 54 80.2947 
1800 20 84.0938 
1801 101 90.326 
1802 169 101.405 
1803 105 71.2489 
1804 156 87.1327 
1805 139 136.755 
1806 16 115.385 
1807 221 84.4476 
1808 70 63.0938 
1809 45 115.653 
1810 25 89.9168 
1811 46 132.971 
1812 15 82.5784 
1813 325 88.2525 
1814 34 128.004 
1815 5 92.2364 
1816 132 120.562 
1817 10 83.7128 
1818 2 105.746 
1819 44 88.4149 
1820 62 89.6634 
1821 1 69.9128 
1822 5 108.296 
1823 126 248.921 
1824 224 204.344 
1825 266 158.18 
1826 45 79.5014 
1827 227 114.394 
1828 9 97.6857 
1829 72 90.7702 
1830 4 86.1147 
1831 24 90.7281 
1832 20 80.8324 
1833 51 99.4239 
1834 0 145.953 
1835 12 98.5496 
1836 26 89.2627 
1837 17 212.643 
1838 194 67.1557 
1839 129 138.6 
1840 366 87.0362 
1841 142 95.3689 
1842 13 104.254 
1843 106 125.853 
1844 197 83.9788 
1845 114 125.518 
1846 69 96.1181 
1847 227 111.403 
1848 128 123.276 
1849 185 85.0487 
1850 87 84.3153 
1851 51 79.5988 
1852 4 68.4489 
1853 122 89.4445 
1854 6 89.696 
1855 7 89.5634 
1856 128 122.388 
1857 989 155.419 
1858 158 88.0883 
1859 169 89.2245 
1860 118 119.457 
1861 30 60.8584 
1862 38 70.7472 
1863 254 88.3764 
1864 91 94.5852 
1865 129 92.8761 
1866 15 68.9867 
1867 101 92.268 
1868 12 121.607 
1869 33 89.7388 
1870 0 85.4728 
1871 126 120.979 
1872 632 162.368 
1873 34 80.1756 
1874 67 84.348 
1875 139 124.585 
1876 135 103.507 
1877 25 91.936 
1878 74 93.0125 
1879 219 63.0757 
1880 56 69.7973 
1881 125 79.6341 
1882 19 59.0295 
1883 40 169.132 
1884 72 90.0417 
1885 0 59.0295 
1886 34 124.072 
1887 35 115.583 
1888 64 79.9518 
1889 112 89.9922 
1890 3 83.376 
1891 74 89.6472 
1892 325 100.059 
1893 185 91.5553 
1894 116 123.177 
1895 260 90.4825 
1896 35 86.2682 
1897 53 128.954 
1898 111 85.4375 
1899 59 67.4113 
1900 87 88.3087 
1901 15 125.639 
1902 98 90.4177 
1903 165 160.328 
1904 49 69.4336 
1905 57 122.92 
1906 9 86.2472 
1907 43 87.8848 
1908 40 104.046 
1909 23 95.2626 
1910 108 171.369 
1911 103 125.002 
1912 189 154.698 
1913 16 93.6963 
1914 117 92.5599 
1915 2 62.1751 
1916 141 91.2169 
1917 168 68.1865 
1918 268 95.2075 
1919 64 84.0007 
1920 9 82.4801 
1921 177 88.5119 
1922 21 83.5788 
1923 21 104.819 
1924 50 138.76 
1925 6 184.382 
1926 25 52.0856 
1927 92 89.3396 
1928 183 86.5462 
1929 42 121.624 
1930 242 86.0509 
1931 50 91.7313 
1932 14 91.5544 
1933 44 76.6095 
1934 244 114.567 
1935 106 79.473 
1936 165 114.05 
1937 259 88.0117 
1938 140 76.4297 
1939 237 118.839 
1940 370 118.926 
1941 34 112.11 
1942 55 76.557 
1943 327 110.593 
1944 26 59.0295 
1945 35 90.8356 
1946 7 117.928 
1947 85 89.2051 
1948 112 88.452 
1949 113 87.8282 
1950 71 59.6915 
1951 13 127.588 
1952 210 157.077 
1953 65 94.549 
1954 208 89.7373 
1955 77 136.363 
1956 19 62.6168 
1957 5 111.672 
1958 456 120.188 
1959 240 89.6298 
1960 43 136.748 
1961 10 86.0894 
1962 75 86.8909 
1963 6 87.9202 
1964 63 90.9651 
1965 11 98.7485 
1966 298 124.927 
1967 155 193.18 
1968 130 89.8426 
1969 76 133.006 
1970 38 93.113 
1971 142 92.1148 
1972 199 114.358 
1973 324 166.33 
1974 143 84.3065 
1975 7 84.8989 
1976 53 89.5244 
1977 91 116.847 
1978 68 88.3449 
1979 98 88.4913 
1980 320 127.855 
1981 3 86.8955 
1982 76 88.1375 
1983 64 133.272 
1984 140 93.7726 
1985 98 68.0205 
1986 13 58.6893 
1987 46 124.373 
1988 21 99.9944 
1989 221 127.204 
1990 435 78.7328 
1991 57 89.3642 
1992 206 105.993 
1993 133 90.2438 
1994 67 122.365 
1995 18 116.044 
1996 83 96.294 
1997 18 113.697 
1998 46 115.916 
1999 176 131.969 
2000 40 93.873 
2001 29 111.418 
2002 121 125.896 
2003 271 82.5328 
2004 34 69.6625 
2005 9 88.0627 
2006 12 124.464 
2007 53 113.261 
2008 38 72.0782 
2009 118 86.3333 
2010 188 85.4829 
2011 14 101.375 
2012 189 132.702 
2013 239 114.567 
2014 59 96.1805 
2015 11 69.8453 
2016 63 128.716 
2017 23 84.4368 
2018 69 85.8759 
2019 86 164.617 
2020 84 88.3971 
2021 192 79.2332 
2022 143 109.515 
2023 15 85.6694 
2024 44 68.9703 
2025 55 79.4327 
2026 506 87.3383 
2027 18 89.6782 
2028 45 88.4167 
2029 7 63.0757 
2030 39 69.8228 
2031 258 111.197 
2032 2 79.9689 
2033 87 120.039 
2034 16 81.5935 
2035 66 132.768 
2036 79 112.094 
2037 73 75.6865 
2038 43 92.885 
2039 100 137.06 
2040 165 143.245 
2041 126 88.2722 
2042 167 77.9351 
2043 368 88.882 
2044 426 93.6319 
2045 6 79.9644 
2046 38 59.6152 
2047 38 107.836 
2048 32 111.688 
2049 64 78.6171 
2050 95 88.2163 
2051 64 90.9618 
2052 37 91.0917 
2053 45 133.775 
2054 39 79.0357 
2055 1 89.8915 
2056 162 91.2416 
2057 41 91.7442 
2058 155 88.7231 
2059 219 85.8191 
2060 88 81.8977 
2061 37 90.0237 
2062 51 201.374 
2063 7 106.673 
2064 25 125.524 
2065 34 113.999 
2066 68 108.327 
2067 44 88.5038 
2068 57 111.105 
2069 111 90.6448 
2070 14 123.319 
2071 53 91.9377 
2072 206 107.726 
2073 130 124.978 
2074 207 91.3649 
2075 33 118.905 
2076 122 86.1816 
2077 40 113.635 
2078 26 108.528 
2079 33 116.35 
2080 30 80.341 
2081 191 125.941 
2082 265 128.402 
2083 2 60.8584 
2084 11 112.787 
2085 674 91.3584 
2086 86 93.0005 
2087 3 67.1557 
2088 50 89.9697 
2089 212 89.9922 
2090 363 133.701 
2091 229 123.014 
2092 47 86.2174 
2093 49 76.5735 
2094 15 106.085 
2095 59 160.07 
2096 51 115.701 
2097 406 102.222 
2098 107 115.074 
2099 128 160.514 
2100 44 69.9598 
2101 47 78.5156 
2102 4 59.016 
2103 38 77.5566 
2104 174 92.1212 
2105 47 89.902 
2106 8 58.1763 
2107 81 126.951 
2108 169 87.8447 
2109 76 85.7121 
2110 306 135.883 
2111 102 164.842 
2112 45 77.8873 
2113 20 73.922 
2114 35 78.576 
2115 0 89.4859 
2116 41 79.5268 
2117 101 126.296 
2118 204 84.9374 
2119 20 86.5379 
2120 18 102.819 
2121 115 136.236 
2122 19 86.7737 
2123 21 109.496 
2124 238 119.997 
2125 35 79.4938 
2126 66 106.843 
2127 124 124.967 
2128 40 92.8137 
2129 64 90.0821 
2130 186 169.49 
2131 52 105.194 
2132 66 91.2929 
2133 12 103.651 
2134 6 84.0913 
2135 29 90.9113 
2136 95 146.753 
2137 37 110.675 
2138 93 96.0065 
2139 40 94.0905 
2140 54 174.134 
2141 21 107.3 
2142 160 91.1275 
2143 753 112.658 
2144 234 128.047 
2145 12 59.7651 
2146 40 79.1399 
2147 63 59.7516 
2148 25 72.748 
2149 287 209.95 
2150 92 90.975 
2151 55 149.141 
2152 28 79.6807 
2153 189 114.084 
2154 17 100.115 
2155 103 127.134 
2156 13 99.1771 
2157 6 131.7 
2158 70 131.417 
2159 58 132.663 
2160 135 71.1775 
2161 259 118.229 
2162 207 76.4228 
2163 611 126.469 
2164 53 116.578 
2165 46 79.5268 
2166 389 116.85 
2167 89 89.9375 
2168 20 115.524 
2169 16 90.7165 
2170 11 76.557 
2171 20 133.274 
2172 8 90.7225 
2173 55 87.4796 
2174 7 65.3558 
2175 194 86.1564 
2176 22 111.714 
2177 403 121.813 
2178 232 90.9652 
2179 22 91.5523 
2180 15 62.4087 
2181 184 93.1968 
2182 29 72.0782 
2183 2 82.0353 
2184 67 117.327 
2185 101 78.1746 
2186 0 69.9128 
2187 148 91.4658 
2188 180 148.314 
2189 58 137.01 
2190 9 88.7218 
2191 53 69.6865 
2192 207 122.761 
2193 59 79.8065 
2194 175 89.9358 
2195 37 142.679 
2196 50 151.112 
2197 124 87.263 
2198 90 80.1204 
2199 445 162.438 
2200 134 119.254 
2201 91 158.821 
2202 188 89.4445 
2203 72 122.775 
2204 14 67.5934 
2205 138 86.2729 
2206 69 88.0931 
2207 7 105.319 
2208 100 85.1455 
2209 242 112.464 
2210 159 84.4244 
2211 37 106.576 
2212 108 104.448 
2213 18 87.6793 
2214 24 83.7881 
2215 265 168.757 
2216 7 108.31 
2217 26 119.29 
2218 173 172.855 
2219 20 89.4121 
2220 15 74.5242 
2221 36 87.8154 
2222 50 79.8782 
2223 1 89.4236 
2224 128 92.8137 
2225 23 71.3901 
2226 59 93.6632 
2227 8 59.0295 
2228 64 133.137 
2229 221 118.569 
2230 0 58.9755 
2231 21 88.736 
2232 40 78.6799 
2233 201 91.4977 
2234 96 91.1218 
2235 42 131.361 
2236 21 118.885 
2237 20 68.9484 
2238 30 102.68 
2239 124 88.0627 
2240 6 93.5294 
2241 45 88.5587 
2242 32 81.3192 
2243 146 109.113 
2244 29 101.411 
2245 50 91.2122 
2246 108 123.08 
2247 97 96.7233 
2248 227 75.3854 
2249 64 133.656 
2250 47 95.0199 
2251 67 85.7728 
2252 94 87.9796 
2253 16 105.59 
2254 39 118.842 
2255 18 83.9554 
2256 62 86.3692 
2257 194 92.7735 
2258 141 87.2939 
2259 45 111.911 
2260 156 86.1439 
2261 18 123.437 
2262 139 163.147 
2263 102 78.4323 
2264 244 87.3478 
2265 95 138.431 
2266 65 88.3971 
2267 188 99.6638 
2268 626 81.5286 
2269 20 87.7063 
2270 45 97.0602 
2271 35 108.839 
2272 19 107.575 
2273 10 84.1959 
2274 53 85.2937 
2275 2 87.3591 
2276 23 90.2335 
2277 176 118.599 
2278 143 174.686 
2279 83 115.032 
2280 30 112.164 
2281 156 72.0782 
2282 108 84.0056 
2283 470 111.441 
2284 60 73.6656 
2285 111 67.4473 
2286 100 87.9791 
2287 284 87.6207 
2288 50 85.9464 
2289 311 120.087 
2290 45 91.0492 
2291 186 129.887 
2292 12 85.1404 
2293 384 125.022 
2294 9 109.219 
2295 0 59.7516 
2296 178 124.063 
2297 13 85.7731 
2298 79 85.5446 
2299 117 117.66 
2300 21 158.415 
2301 49 109.923 
2302 117 76.3221 
2303 93 128.416 
2304 3 87.5322 
2305 114 90.7972 
2306 995 121.91 
2307 12 76.5585 
2308 51 124.797 
2309 1 66.2565 
2310 91 82.9014 
2311 42 113.006 
2312 493 132.375 
2313 16 79.9328 
2314 166 92.0248 
2315 33 122.057 
2316 60 127.844 
2317 44 72.5725 
2318 7 82.327 
2319 15 86.7137 
2320 9 113.407 
2321 280 115.478 
2322 44 89.6862 
2323 481 104.876 
2324 39 127.117 
2325 10 96.682 
2326 35 92.9736 
2327 21 105.697 
2328 50 93.5348 
2329 13 77.9649 
2330 73 120.017 
2331 462 116.36 
2332 4 77.8554 
2333 82 110.407 
2334 44 92.7735 
2335 46 90.9953 
2336 219 98.6429 
2337 452 106.139 
2338 161 88.8828 
2339 68 136.755 
2340 282 134.229 
2341 586 138.598 
2342 7 78.2407 
2343 33 91.7734 
2344 9 88.1295 
2345 234 92.6282 
2346 126 130.681 
2347 8 79.8273 
2348 179 92.0967 
2349 88 131.895 
2350 14 80.1375 
2351 85 62.7635 
2352 135 93.4579 
2353 31 93.048 
2354 187 130.417 
2355 25 90.1398 
2356 19 116.551 
2357 8 88.3317 
2358 37 121.464 
2359 37 122.683 
2360 15 79.2866 
2361 63 76.9049 
2362 10 69.7032 
2363 75 83.9554 
2364 70 76.223 
2365 48 94.5373 
2366 475 84.376 
2367 98 79.5392 
2368 21 60.8584 
2369 97 79.8558 
2370 20 69.9053 
2371 218 89.632 
2372 103 120.854 
2373 61 86.0915 
2374 14 90.2655 
2375 83 94.0091 
2376 77 130.514 
2377 42 84.9813 
2378 7 86.6229 
2379 5 118.303 
2380 128 86.7716 
2381 18 59.028 
2382 170 97.3236 
2383 13 89.0634 
2384 2 72.1022 
2385 36 106.696 
2386 99 117.916 
2387 287 118.341 
2388 96 87.4916 
2389 61 125.393 
2390 162 85.4036 
2391 30 69.9188 
2392 40 85.7731 
2393 23 112.274 
2394 49 83.9659 
2395 46 88.9109 
2396 9 80.1703 
2397 1 69.649 
2398 17 112.192 
2399 41 88.9109 
2400 24 94.7792 
2401 21 111.806 
2402 169 92.9451 
2403 39 59.0295 
2404 44 132.871 
2405 32 114.2 
2406 1 107.734 
2407 10 76.0238 
2408 195 126.428 
2409 568 127.47 
2410 9 109.703 
2411 17 92.5146 
2412 184 161.511 
2413 52 101.678 
2414 87 89.6658 
2415 132 94.3656 
2416 135 90.6578 
2417 110 93.5664 
2418 90 90.725 
2419 13 87.8095 
2420 131 85.9089 
2421 139 128.852 
2422 163 120.195 
2423 130 87.3205 
2424 3 75.4657 
2425 296 82.4391 
2426 15 122.534 
2427 31 93.9501 
2428 152 82.8561 
2429 195 86.582 
2430 122 189.475 
2431 39 93.5222 
2432 35 94.8583 
2433 38 77.67 
2434 113 88.2795 
2435 111 159.759 
2436 9 114.883 
2437 47 76.4896 
2438 66 129.374 
2439 58 105.528 
2440 5 65.8563 
2441 418 169.229 
2442 157 79.0492 
2443 67 131.728 
2444 115 134.383 
2445 1 105.429 
2446 40 117.024 
2447 50 112.479 
2448 212 91.9377 
2449 34 76.605 
2450 104 117.281 
2451 189 114.791 
2452 52 90.0461 
2453 222 86.303 
2454 239 88.5987 
2455 74 131.677 
2456 130 111.796 
2457 24 109.805 
2458 57 89.621 
2459 118 130.492 
2460 1 85.9852 
2461 75 121.798 
2462 36 96.93 
2463 146 86.7028 
2464 13 58.8855 
2465 50 195.428 
2466 20 100.142 
2467 20 133.395 
2468 102 101.886 
2469 51 109.917 
2470 24 86.0595 
2471 207 91.6788 
2472 12 98.7544 
2473 459 112.505 
2474 362 86.4951 
2475 77 129.374 
2476 40 132.484 
2477 20 92.1779 
2478 39 134.619 
2479 184 85.9747 
2480 23 79.3532 
2481 86 67.2989 
2482 287 93.5707 
2483 10 107.794 
2484 1 86.0375 
2485 20 61.1117 
2486 1 59.6915 
2487 9 95.5088 
2488 14 78.3275 
2489 27 79.9328 
2490 0 59.016 
2491 125 127.551 
2492 9 86.5396 
2493 14 86.9469 
2494 59 69.673 
2495 74 110.09 
2496 82 83.361 
2497 114 87.4451 
2498 31 97.114 
2499 38 84.348 
2500 0 59.7636 
2501 272 114.009 
2502 15 104.518 
2503 21 76.5147 
2504 430 113.03 
2505 21 78.0849 
2506 121 86.4951 
2507 30 105.449 
2508 48 115.392 
2509 347 89.0668 
2510 176 126.825 
2511 54 92.4259 
2512 408 126.964 
2513 7 74.4925 
2514 115 91.856 
2515 4 165.992 
2516 232 116.883 
2517 323 185.278 
2518 4 86.9075 
2519 7 90.6205 
2520 46 123.768 
2521 133 84.7415 
2522 22 75.8924 
2523 17 88.1575 
2524 378 87.0878 
2525 13 91.2416 
2526 27 131.111 
2527 144 90.0167 
2528 143 68.9199 
2529 169 79.9463 
2530 48 99.6484 
2531 25 72.6028 
2532 122 96.5356 
2533 129 88.4082 
2534 294 110.212 
2535 171 88.3971 
2536 19 66.0895 
2537 119 93.9541 
2538 194 115.719 
2539 43 90.5438 
2540 5 88.2174 
2541 226 89.7543 
2542 0 60.8584 
2543 231 75.4694 
2544 72 74.7529 
2545 151 87.7175 
2546 1 59.0295 
2547 16 109.678 
2548 5 70.4209 
2549 7 124.294 
2550 69 113.693 
2551 11 94.2327 
2552 64 124.817 
2553 332 88.8638 
2554 29 64.2073 
2555 18 69.6865 
2556 51 87.1395 
2557 108 146.772 
2558 15 113.259 
2559 10 93.9058 
2560 23 94.0106 
2561 247 125.344 
2562 0 129.659 
2563 103 74.8257 
2564 6 103.66 
2565 190 207.524 
2566 40 126.677 
2567 67 138.597 
2568 59 106.389 
2569 252 132.5 
2570 227 98.2799 
2571 116 76.5975 
2572 0 59.7651 
2573 25 98.1911 
2574 10 125.036 
2575 122 88.1057 
2576 8 111.925 
2577 39 90.9618 
2578 23 129.588 
2579 207 88.8141 
2580 11 92.7232 
2581 17 67.1804 
2582 89 125.293 
2583 0 59.028 
2584 27 89.3231 
2585 10 126.219 
2586 344 217.213 
2587 5 66.722 
2588 79 130.615 
2589 103 85.1193 
2590 46 87.9523 
2591 58 85.869 
2592 116 146.606 
2593 17 82.051 
2594 8 59.7516 
2595 14 134.975 
2596 32 92.9841 
2597 21 134.59 
2598 103 90.1303 
2599 51 90.1738 
2600 176 218.974 
2601 0 60.8449 
2602 32 82.3699 
2603 28 97.924 
2604 228 103.177 
2605 124 72.1007 
2606 132 88.8321 
2607 314 109.609 
2608 84 145.383 
2609 302 123.413 
2610 27 78.3455 
2611 311 127.716 
2612 129 117.546 
2613 31 91.9225 
2614 25 133.075 
2615 112 82.1996 
2616 109 86.6551 
2617 85 90.6814 
2618 72 89.0148 
2619 16 119.062 
2620 228 83.1649 
2621 28 86.9317 
2622 134 132.796 
2623 231 94.6103 
2624 173 112.445 
2625 68 79.7891 
2626 130 89.2933 
2627 44 122.253 
2628 339 219.412 
2629 123 102.976 
2630 24 79.5032 
2631 414 127.744 
2632 217 117.888 
2633 25 76.1264 
2634 72 69.685 
2635 9 107.812 
2636 10 117.973 
2637 54 87.5882 
2638 636 121.614 
2639 218 125.759 
2640 84 117.424 
2641 142 93.0105 
2642 106 91.0386 
2643 214 104.355 
2644 97 130.725 
2645 50 94.3225 
2646 127 88.9375 
2647 202 166.279 
2648 7 82.9368 
2649 11 89.1843 
2650 48 74.3101 
2651 80 91.2004 
2652 8 90.3426 
2653 88 82.5716 
2654 9 84.2472 
2655 11 95.6416 
2656 108 89.5938 
2657 1 69.6865 
2658 123 133.343 
2659 151 91.04 
2660 73 120.718 
2661 218 86.4763 
2662 27 113.459 
2663 162 224.851 
2664 107 84.4353 
2665 13 74.0511 
2666 5 86.878 
2667 301 208.352 
2668 44 109.136 
2669 166 94.5627 
2670 28 82.3975 
2671 209 158.928 
2672 952 108.991 
2673 102 85.2594 
2674 65 90.2197 
2675 237 135.311 
2676 5 59.6208 
2677 54 79.9503 
2678 21 63.0998 
2679 50 77.076 
2680 50 109.207 
2681 17 117.006 
2682 5 92.4391 
2683 11 95.9132 
2684 203 119.295 
2685 128 117.451 
2686 264 105.299 
2687 111 83.3457 
2688 211 85.5675 
2689 142 122.476 
2690 182 203.415 
2691 31 85.2594 
2692 13 86.7128 
2693 45 128.494 
2694 9 112.214 
2695 34 94.9221 
2696 370 87.7305 
2697 242 106.051 
2698 15 81.3032 
2699 217 112.96 
2700 94 123.253 
2701 92 93.3432 
2702 111 106.228 
2703 44 115.352 
2704 13 94.1982 
2705 34 174.079 
2706 5 62.9185 
2707 183 119.361 
2708 11 85.7213 
2709 24 59.0295 
2710 221 95.6124 
2711 110 87.2545 
2712 67 171.482 
2713 12 76.6637 
2714 22 107.013 
2715 266 98.7922 
2716 85 98.5316 
2717 24 88.5587 
2718 70 84.5217 
2719 110 86.1572 
2720 199 92.7555 
2721 63 88.9209 
2722 101 89.3096 
2723 15 79.8743 
2724 28 85.7639 
2725 95 59.6436 
2726 129 79.5988 
2727 8 99.29 
2728 88 88.0492 
2729 0 71.9807 
2730 16 90.5536 
2731 78 86.7226 
2732 26 114.665 
2733 129 131.656 
2734 132 69.3236 
2735 228 165.878 
2736 50 92.8137 
2737 48 96.6417 
2738 158 113.406 
2739 121 124.927 
2740 189 115.066 
2741 112 79.1672 
2742 39 152.165 
2743 28 89.0732 
2744 39 85.4472 
2745 9 92.6348 
2746 11 105.194 
2747 19 96.682 
2748 63 127.802 
2749 194 84.392 
2750 181 84.4185 
2751 6 83.4709 
2752 49 124.848 
2753 54 104.122 
2754 16 80.525 
2755 107 93.0605 
2756 46 103.238 
2757 38 178.28 
2758 137 113.291 
2759 12 139.384 
2760 232 87.3478 
2761 214 79.8936 
2762 1 59.0295 
2763 296 119.168 
2764 349 130.494 
2765 238 92.4769 
2766 4 88.4884 
2767 86 69.6865 
2768 17 97.5152 
2769 69 107.962 
2770 73 91.045 
2771 17 111.228 
2772 5 88.4446 
2773 33 63.0983 
2774 50 112.617 
2775 28 60.8584 
2776 31 81.8178 
2777 17 81.1664 
2778 1 66.3898 
2779 36 182.699 
2780 34 97.2254 
2781 120 179.699 
2782 142 122.053 
2783 8 69.673 
2784 18 83.5788 
2785 93 88.2163 
2786 19 127.81 
2787 144 94.1342 
2788 565 129.281 
2789 18 59.7636 
2790 0 59.7651 
2791 7 117.385 
2792 331 89.9922 
2793 74 86.8744 
2794 89 74.6797 
2795 39 112.591 
2796 489 87.1773 
2797 3 82.2585 
2798 63 72.0782 
2799 171 94.0464 
2800 79 72.0286 
2801 0 60.8209 
2802 7 120.696 
2803 47 90.2756 
2804 14 84.7823 
2805 196 79.3073 
2806 14 89.7982 
2807 109 85.8589 
2808 47 119.897 
2809 44 121.82 
2810 33 110.537 
2811 64 79.2963 
2812 112 60.8584 
2813 10 71.4371 
2814 209 108.547 
2815 272 121.477 
2816 65 88.2342 
2817 38 109.963 
2818 16 88.3291 
2819 20 70.8639 
2820 141 162.188 
2821 52 65.4224 
2822 87 90.2197 
2823 251 108.44 
2824 112 129.606 
2825 6 82.0584 
2826 32 90.1061 
2827 37 87.8522 
2828 14 107.3 
2829 102 119.347 
2830 85 119.927 
2831 91 83.7846 
2832 2 66.0739 
2833 369 90.3072 
2834 62 87.1128 
2835 96 84.9999 
2836 41 88.7193 
2837 22 126.943 
2838 41 109.225 
2839 189 208.859 
2840 16 95.9726 
2841 5 84.3827 
2842 2 73.5866 
2843 86 86.0452 
2844 67 87.765 
2845 43 93.1576 
2846 219 90.2497 
2847 80 125.204 
2848 107 111.101 
2849 121 87.9192 
2850 66 83.2661 
2851 119 86.6249 
2852 76 63.0863 
2853 69 160.538 
2854 133 120.285 
2855 223 89.2662 
2856 24 121.759 
2857 93 108.167 
2858 35 92.1193 
2859 3 112.121 
2860 521 83.4715 
2861 61 92.7716 
2862 51 59.6436 
2863 175 87.9523 
2864 85 115.22 
2865 93 133.333 
2866 69 109.158 
2867 9 71.1775 
2868 41 111.319 
2869 309 88.7943 
2870 133 138.475 
2871 41 138.981 
2872 12 88.2977 
2873 282 86.0763 
2874 84 130.476 
2875 16 103.771 
2876 43 134.622 
2877 53 95.6195 
2878 481 100.829 
2879 0 58.992 
2880 286 86.954 
2881 22 86.6326 
2882 221 214.088 
2883 10 93.4532 
2884 185 119.115 
2885 7 85.5185 
2886 29 90.7163 
2887 44 60.7369 
2888 49 145.261 
2889 16 79.4725 
2890 17 88.9441 
2891 30 93.708 
2892 246 101.578 
2893 212 125.183 
2894 406 114.127 
2895 58 87.4095 
2896 141 93.2927 
2897 30 82.2744 
2898 316 84.5782 
2899 36 91.7541 
2900 26 95.942 
2901 51 89.2805 
2902 6 68.9346 
2903 27 89.2065 
2904 102 60.6055 
2905 37 71.5383 
2906 328 82.7974 
2907 187 87.407 
2908 116 69.9173 
2909 25 85.9441 
2910 39 72.0782 
2911 37 83.9241 
2912 64 131.176 
2913 266 125.131 
2914 105 117.34 
2915 38 84.9433 
2916 19 130.119 
2917 18 89.5999 
2918 51 108.192 
2919 33 99.7624 
2920 93 122.672 
2921 20 122.569 
2922 259 85.917 
2923 103 67.3753 
2924 116 87.6975 
2925 320 82.1935 
2926 341 202.068 
2927 117 110.114 
2928 19 121.261 
2929 19 94.0737 
2930 275 264.786 
2931 217 86.3124 
2932 365 172.094 
2933 34 79.0852 
2934 135 90.774 
2935 361 88.0747 
2936 52 83.5483 
2937 7 93.9021 
2938 20 87.23 
2939 103 107.306 
2940 34 79.5388 
2941 323 134.541 
2942 29 112.27 
2943 14 60.8584 
2944 42 91.792 
2945 301 97.3236 
2946 103 160.958 
2947 5 123.388 
2948 179 76.2748 
2949 20 91.8869 
2950 0 59.7651 
2951 41 125.631 
2952 34 115.783 
2953 48 92.464 
2954 223 64.9124 
2955 28 91.0573 
2956 34 94.0464 
2957 223 70.1141 
2958 10 120.537 
2959 16 136.279 
2960 64 98.1993 
2961 57 120.47 
2962 164 123.878 
2963 123 87.905 
2964 52 84.6366 
2965 45 113.611 
2966 244 122.777 
2967 26 117.36 
2968 2 80.0167 
2969 2 59.4288 
2970 71 76.605 
2971 1 59.0465 
2972 59 115.036 
2973 76 106.176 
2974 439 100.345 
2975 99 92.4714 
2976 41 83.4399 
2977 9 94.0665 
2978 287 89.6844 
2979 88 69.3042 
2980 52 69.9188 
2981 149 105.094 
2982 281 87.4796 
2983 382 209.814 
2984 153 125.723 
2985 5 87.7315 
2986 38 75.195 
2987 248 132.831 
2988 5 126.847 
2989 37 88.0627 
2990 94 88.5992 
2991 378 129.826 
2992 36 116.364 
2993 23 77.7602 
2994 110 126.131 
2995 10 80.4088 
2996 25 83.2337 
2997 108 115.527 
2998 43 90.8592 
2999 128 126.175 
3000 133 97.1664 
3001 36 78.4079 
3002 282 122.669 
3003 25 98.5715 
3004 249 125.997 
3005 21 94.4224 
3006 236 74.7066 
3007 84 130.109 
3008 8 124.046 
3009 283 107.471 
3010 10 87.6635 
3011 66 69.1488 
3012 92 115.098 
3013 69 72.7976 
3014 62 86.4972 
3015 160 119.769 
3016 250 79.0852 
3017 203 121.276 
3018 1 58.992 
3019 33 80.0695 
3020 115 171.462 
3021 266 124.275 
3022 115 85.5868 
3023 22 110.437 
3024 77 113.965 
3025 72 168.627 
3026 46 88.9109 
3027 195 91.7366 
3028 32 136.837 
3029 73 90.7702 
3030 0 59.711 
3031 26 95.3287 
3032 1 86.8492 
3033 118 130.043 
3034 0 58.9755 
3035 58 76.115 
3036 129 83.3309 
3037 112 94.5478 
3038 536 118.472 
3039 10 82.8955 
3040 177 121.576 
3041 39 141.703 
3042 25 116.227 
3043 116 91.0364 
3044 0 69.7689 
3045 33 81.3073 
3046 16 89.2125 
3047 46 85.5674 
3048 64 116.014 
3049 30 69.9188 
3050 24 110.878 
3051 304 104.003 
3052 12 103.443 
3053 96 88.0807 
3054 32 76.9312 
3055 10 114.188 
3056 5 69.9188 
3057 7 94.0948 
3058 175 90.3581 
3059 105 92.736 
3060 2 86.3971 
3061 225 135.351 
3062 2 78.5448 
3063 40 79.6587 
3064 80 161.968 
3065 27 123.892 
3066 10 86.2173 
3067 82 79.823 
3068 51 128.315 
3069 41 73.945 
3070 58 101.391 
3071 71 163.438 
3072 160 128.835 
3073 182 89.1411 
3074 79 60.8449 
3075 256 86.8798 
3076 163 131.549 
3077 117 125.332 
3078 100 91.6402 
3079 207 88.432 
3080 57 192.059 
3081 35 59.7411 
3082 50 104.445 
3083 45 69.6865 
3084 30 110.769 
3085 38 79.9503 
3086 24 59.7636 
3087 9 115.935 
3088 1 90.0736 
3089 216 163.375 
3090 143 122.825 
3091 39 97.3343 
3092 75 90.5547 
3093 61 89.6673 
3094 92 92.9736 
3095 142 86.003 
3096 62 85.5975 
3097 25 97.3592 
3098 16 87.5875 
3099 25 69.5802 
3100 14 92.1391 
3101 109 131.741 
3102 30 104.971 
3103 34 117.984 
3104 21 60.8344 
3105 45 135.77 
3106 43 128.299 
3107 117 133.086 
3108 124 91.9225 
3109 109 94.1297 
3110 39 122.145 
3111 50 98.1993 
3112 202 142.237 
3113 35 149.549 
3114 48 113.265 
3115 23 87.6517 
3116 22 86.0999 
3117 268 132.453 
3118 50 132.892 
3119 133 167.803 
3120 17 123.552 
3121 697 126.929 
3122 150 88.5498 
3123 345 85.508 
3124 62 112.87 
3125 137 122.576 
3126 164 78.7964 
3127 257 111.377 
3128 27 92.1059 
3129 68 90.698 
3130 184 126.562 
3131 114 69.5365 
3132 31 79.3609 
3133 57 88.6608 
3134 197 88.9978 
3135 9 85.5859 
3136 129 129.901 
3137 63 124.466 
3138 92 90.0623 
3139 42 82.3223 
3140 142 146.965 
3141 4 96.4379 
3142 168 90.1523 
terror=6156.89
l1pen=40.5014
l2pen=350.256
10 -8.73733 1.35762 2.20922 9.99891 8.19835 
F= 10* Cos[ (HH * (-62.8419)) ] -8.73733* Sin[ ( (DL)^(1/2)  +  ( Cos[ (DL * (-29.0335)) ] )^2 ) ] +1.35762* ( ( ( ( (DL)^(1/2) )^(1/2) ) ) ) +2.20922* ( Cos[ (1/(DL - (-29.0335))) ] ) +9.99891* ( ( ( ( Cos[ ( ( (HH * (-62.8419)) ) ) ] )^2 )^2 )^(1/2) ) +8.19835* ( (DL - (-29.0335)) )^(1/2) 
11 7 1 -62.8419 0 0 0 0 0 0 10 1 9 0 0 8 11 7 0 -29.0335 3 2 2 9 9 0 0 4 4 6 4 11 6 0 -29.0335 9 11 8 9 11 3 9 8 8 11 4 1 7 1 -62.8419 9 5 0 -29.0335 0 0 0 0 0 0 
0 0 2 1 0 0 0 0 0 0 0 0 0 0 2 0 0 0 2 1 0 0 0 0 0 0 2 0 0 0 0 0 0 2 1 0 0 0 0 0 0 0 0 0 0 0 0 0 2 1 0 0 2 1 0 0 0 0 0 0 
