0 78 71.6909 
1 102 30.2918 
2 65 89.4224 
3 177 28.0315 
4 43 90.0762 
5 30 232.118 
6 63 93.5601 
7 296 207.118 
8 12 46.2659 
9 381 118.982 
10 50 44.9204 
11 17 174.084 
12 8 26.7029 
13 179 110.275 
14 279 196.659 
15 208 88.1753 
16 185 146.645 
17 42 105.695 
18 47 56.9597 
19 98 64.8466 
20 2 83.4815 
21 71 82.4641 
22 182 222.438 
23 0 7.68923 
24 70 152.037 
25 44 67.5102 
26 55 182.181 
27 102 106.315 
28 125 58.3852 
29 37 163.094 
30 168 128.758 
31 129 107.31 
32 61 45.5836 
33 37 158.419 
34 33 188.345 
35 14 27.7503 
36 70 98.1304 
37 193 102.629 
38 39 29.788 
39 214 191.901 
40 11 140.739 
41 32 50.7507 
42 243 121.766 
43 6 55.3923 
44 73 94.7307 
45 22 23.7085 
46 169 146.246 
47 96 151.599 
48 51 82.3415 
49 70 152.385 
50 60 65.6528 
51 48 82.1892 
52 6 58.8528 
53 173 129.838 
54 290 158.823 
55 144 72.1971 
56 31 42.2804 
57 12 31.932 
58 8 146.901 
59 183 120.672 
60 179 139.269 
61 11 17.3813 
62 234 332.076 
63 47 69.4827 
64 507 217.472 
65 7 66.9335 
66 225 174.529 
67 103 111.536 
68 0 52.7875 
69 108 128.477 
70 3 31.341 
71 6 29.3142 
72 4 35.418 
73 77 52.9341 
74 64 152.044 
75 13 91.8056 
76 44 15.9504 
77 129 244.406 
78 66 47.6542 
79 13 82.8749 
80 156 91.4533 
81 175 135.198 
82 165 138.413 
83 19 90.1102 
84 43 79.267 
85 114 114.996 
86 250 145.475 
87 66 78.9405 
88 11 127.049 
89 35 59.0634 
90 271 252.061 
91 46 119.733 
92 225 120.304 
93 17 75.0326 
94 3 63.3488 
95 33 38.4611 
96 16 82.0524 
97 4 38.3247 
98 326 141.66 
99 7 99.2609 
100 173 115.819 
101 50 76.2468 
102 80 119.657 
103 30 58.6059 
104 92 58.1079 
105 44 63.7361 
106 39 122.132 
107 13 85.6107 
108 200 95.4065 
109 32 41.9296 
110 28 39.6837 
111 592 229.067 
112 50 12.7096 
113 20 12.0495 
114 125 99.5837 
115 1 9.85042 
116 84 84.084 
117 8 31.2401 
118 39 64.0674 
119 16 8.92151 
120 30 -78.3653 
121 14 124.978 
122 86 79.2839 
123 66 57.9622 
124 248 104.209 
125 112 90.0826 
126 55 57.4546 
127 15 53.4457 
128 116 74.1397 
129 0 7.84546 
130 449 217.667 
131 166 189.952 
132 17 -87.896 
133 40 103.509 
134 128 71.1514 
135 10 88.4141 
136 27 47.8058 
137 63 76.9336 
138 25 41.2587 
139 302 112.696 
140 305 199.512 
141 100 88.6024 
142 3 49.1282 
143 26 -31.8248 
144 12 51.0166 
145 521 237.878 
146 130 18.8818 
147 78 52.7585 
148 104 110.744 
149 94 52.4256 
150 56 111.422 
151 58 57.2793 
152 83 31.2754 
153 15 7.06968 
154 15 24.531 
155 203 118.151 
156 89 151.493 
157 193 210.994 
158 6 91.8678 
159 53 132.881 
160 2 8.4704 
161 320 75.9903 
162 41 38.5897 
163 216 150.662 
164 396 137.633 
165 35 129.049 
166 132 68.0958 
167 17 93.8251 
168 35 156.022 
169 18 19.3459 
170 200 80.1166 
171 25 54.5644 
172 151 79.1204 
173 152 47.7602 
174 9 63.1974 
175 49 70.3204 
176 25 132.201 
177 141 146.222 
178 32 104.554 
179 69 71.9599 
180 100 116.003 
181 49 85.2858 
182 94 67.0439 
183 28 14.8721 
184 22 50.7204 
185 6 14.0687 
186 26 73.3532 
187 40 31.3671 
188 25 39.9637 
189 103 80.0271 
190 87 30.9549 
191 13 39.1234 
192 48 63.842 
193 10 33.7216 
194 20 85.2375 
195 12 199.437 
196 140 103.045 
197 10 99.3271 
198 387 150.417 
199 89 49.477 
200 132 93.622 
201 4 58.1712 
202 261 143.85 
203 19 79.8162 
204 51 68.2527 
205 25 10.0487 
206 7 91.1556 
207 97 37.132 
208 3 83.1338 
209 119 137.036 
210 11 51.846 
211 9 32.7924 
212 104 92.8519 
213 45 140.946 
214 150 55.5524 
215 52 90.4713 
216 181 103.6 
217 160 124.44 
218 226 171.079 
219 35 157.747 
220 36 128.552 
221 52 27.6152 
222 8 33.7512 
223 205 94.3272 
224 14 30.6566 
225 8 65.8961 
226 9 56.3312 
227 204 181.06 
228 1 12.7096 
229 39 49.0836 
230 44 66.6421 
231 46 62.9935 
232 0 8.31416 
233 94 106.167 
234 73 63.383 
235 191 84.545 
236 133 60.9357 
237 216 115.189 
238 148 261.214 
239 11 40.2997 
240 185 61.3578 
241 114 69.7829 
242 25 54.9187 
243 167 73.986 
244 24 54.645 
245 153 92.5345 
246 20 52.188 
247 11 44.6239 
248 35 34.8991 
249 6 51.0707 
250 363 85.5202 
251 71 55.4316 
252 14 48.714 
253 0 49.3696 
254 85 132.755 
255 105 94.1333 
256 17 51.1894 
257 236 87.8018 
258 9 50.9891 
259 0 46.1863 
260 17 26.8853 
261 36 72.0402 
262 22 110.195 
263 57 84.52 
264 121 35.6583 
265 48 67.721 
266 130 108.531 
267 157 69.1343 
268 160 106.564 
269 39 -28.1812 
270 149 213.104 
271 49 92.8337 
272 39 89.6196 
273 386 131.655 
274 48 -43.5702 
275 21 68.9021 
276 1 22.6125 
277 637 230.376 
278 19 83.8556 
279 38 21.5004 
280 15 31.3893 
281 2 15.4524 
282 11 -14.8583 
283 19 57.2784 
284 158 65.3733 
285 238 156.344 
286 2 57.2166 
287 188 157.723 
288 40 76.9378 
289 46 86.9194 
290 56 123.546 
291 11 44.3275 
292 417 269.794 
293 83 123.12 
294 168 127.693 
295 306 116.489 
296 23 62.3444 
297 166 61.0912 
298 5 79.6721 
299 381 185.629 
300 10 87.8241 
301 0 27.9527 
302 5 94.2094 
303 80 33.1307 
304 47 84.4483 
305 110 178.873 
306 9 109.853 
307 193 90.0194 
308 115 81.4433 
309 8 62.7938 
310 78 73.4349 
311 35 161.059 
312 87 79.222 
313 89 128.698 
314 80 123.259 
315 145 155.145 
316 116 221.387 
317 184 187.462 
318 55 84.9073 
319 192 108.168 
320 74 141.842 
321 114 57.0216 
322 523 140.666 
323 88 126.606 
324 15 30.9451 
325 79 83.3786 
326 122 100.31 
327 3 49.4352 
328 108 171.062 
329 23 87.838 
330 60 174.84 
331 30 41.3379 
332 1 34.4795 
333 39 52.2506 
334 102 74.2295 
335 74 60.5941 
336 72 79.1046 
337 143 59.9479 
338 139 30.2049 
339 110 131.429 
340 104 136.645 
341 46 166.781 
342 43 43.4342 
343 9 37.6762 
344 63 63.2953 
345 56 75.1814 
346 126 94.9832 
347 8 8.15793 
348 32 82.0781 
349 73 26.3738 
350 13 49.8745 
351 218 95.4154 
352 252 117.452 
353 38 55.1516 
354 134 204.029 
355 299 139.478 
356 47 19.5996 
357 167 134.876 
358 22 52.3094 
359 12 55.5542 
360 119 146.385 
361 18 129.173 
362 163 161.649 
363 207 202.265 
364 13 111.796 
365 9 85.1627 
366 22 65.5685 
367 18 83.3316 
368 28 118.778 
369 20 72.9521 
370 32 127.442 
371 11 94.4201 
372 205 125.115 
373 22 -34.0542 
374 72 107.112 
375 23 71.3195 
376 65 60.9598 
377 7 130.029 
378 40 120.886 
379 24 59.1215 
380 75 141.259 
381 137 63.6362 
382 55 72.0513 
383 7 77.3264 
384 189 132.804 
385 2 14.4853 
386 140 105.933 
387 74 130.456 
388 23 47.5623 
389 11 46.4967 
390 17 54.9533 
391 10 53.753 
392 63 91.0785 
393 144 120.907 
394 36 190.003 
395 29 83.9088 
396 96 68.8984 
397 93 90.8342 
398 50 108.212 
399 263 134.738 
400 95 108.211 
401 32 49.864 
402 120 172.001 
403 52 144.772 
404 66 108.153 
405 46 51.3765 
406 55 58.2102 
407 283 116.133 
408 15 80.0549 
409 60 67.4889 
410 192 136.743 
411 333 176.718 
412 17 129.871 
413 32 60.2687 
414 9 52.558 
415 147 118.719 
416 111 47.2805 
417 63 142.185 
418 28 167.974 
419 37 76.32 
420 27 31.2947 
421 522 315.404 
422 161 97.7193 
423 109 83.1314 
424 55 200.732 
425 21 175.011 
426 110 62.6828 
427 7 61.2031 
428 160 121.834 
429 24 82.3175 
430 453 352.024 
431 354 131.096 
432 106 108.476 
433 9 128.721 
434 92 157.614 
435 65 42.8152 
436 184 73.8374 
437 193 48.8888 
438 125 78.6059 
439 130 64.0143 
440 163 120.166 
441 108 124.4 
442 173 112.561 
443 291 232.239 
444 135 75.3409 
445 6 36.5091 
446 318 123.422 
447 19 70.2609 
448 32 150.523 
449 13 33.4109 
450 17 32.2231 
451 56 115.66 
452 11 42.5672 
453 173 127.137 
454 12 12.6626 
455 52 230.372 
456 133 95.8455 
457 60 76.4282 
458 57 15.9781 
459 30 21.299 
460 153 56.377 
461 206 174.201 
462 366 73.9559 
463 0 33.409 
464 8 47.102 
465 108 118.293 
466 135 56.0457 
467 179 222.99 
468 39 211.111 
469 37 31.3393 
470 51 52.8224 
471 57 63.0785 
472 21 79.6138 
473 68 90.9022 
474 40 75.6835 
475 21 61.7213 
476 10 30.9701 
477 59 94.9722 
478 54 72.6783 
479 76 209.922 
480 192 173.414 
481 82 107.645 
482 78 61.856 
483 95 70.0447 
484 16 167.179 
485 134 105.438 
486 13 27.495 
487 77 146.259 
488 325 163.043 
489 71 125.592 
490 23 31.8247 
491 1 22.0016 
492 74 29.6969 
493 41 61.6743 
494 247 81.3808 
495 64 60.0044 
496 16 84.0691 
497 49 64.5166 
498 154 94.9412 
499 249 180.538 
500 42 24.5376 
501 99 67.9123 
502 12 35.6162 
503 8 49.7637 
504 211 93.9717 
505 199 70.7048 
506 33 -4.77576 
507 48 123.339 
508 17 50.304 
509 0 12.7096 
510 27 62.3617 
511 450 259.8 
512 180 145.919 
513 91 118.751 
514 113 86.5394 
515 16 57.6023 
516 1 40.7409 
517 56 241.986 
518 7 64.6077 
519 15 27.2769 
520 76 79.9877 
521 47 -7.36024 
522 165 152.293 
523 123 79.5491 
524 57 16.5685 
525 134 110.496 
526 73 185.295 
527 137 86.4355 
528 169 161.56 
529 50 88.4471 
530 15 48.4873 
531 127 149.694 
532 40 81.6953 
533 306 119.218 
534 111 59.2284 
535 41 65.1529 
536 100 192.88 
537 26 150.469 
538 212 135.064 
539 95 148.5 
540 18 44.3353 
541 85 88.1601 
542 285 140.052 
543 69 -14.1153 
544 44 93.2784 
545 54 72.3663 
546 23 156.551 
547 8 74.2408 
548 99 68.9397 
549 73 43.5304 
550 98 68.7452 
551 58 49.152 
552 180 157.649 
553 73 68.8647 
554 90 67.0409 
555 18 123.139 
556 177 73.7962 
557 16 164.96 
558 99 46.546 
559 34 97.8474 
560 16 36.4383 
561 286 136.917 
562 31 -17.2687 
563 179 137.035 
564 3 51.1606 
565 9 12.7096 
566 13 147.033 
567 174 127.765 
568 82 184.348 
569 4 39.1631 
570 49 30.1774 
571 120 85.478 
572 123 101.103 
573 94 56.407 
574 35 96.348 
575 100 99.92 
576 96 85.3516 
577 121 242.146 
578 31 212.208 
579 64 89.306 
580 108 120.01 
581 132 57.4647 
582 12 68.562 
583 196 113.366 
584 26 31.0808 
585 40 147.82 
586 16 80.3869 
587 63 77.4767 
588 178 55.8104 
589 26 47.6375 
590 34 58.6511 
591 151 80.7513 
592 89 153.643 
593 436 158.068 
594 36 51.4616 
595 104 60.6607 
596 182 148.333 
597 50 67.5749 
598 6 36.4394 
599 310 105.655 
600 0 33.6205 
601 102 77.1579 
602 12 42.9451 
603 126 65.8118 
604 5 28.0671 
605 39 100.325 
606 31 110.846 
607 127 110.366 
608 120 105.06 
609 52 101.421 
610 779 124.677 
611 136 88.6394 
612 49 73.612 
613 157 149.448 
614 75 61.5796 
615 180 113.787 
616 16 63.2102 
617 28 57.555 
618 12 96.5292 
619 55 62.2764 
620 15 74.9761 
621 167 83.801 
622 321 193.994 
623 216 160.928 
624 173 212.25 
625 88 70.8054 
626 101 97.4595 
627 24 -48.9837 
628 196 102.5 
629 84 133.536 
630 5 36.9031 
631 153 108.261 
632 276 133.719 
633 281 138.804 
634 144 98.4278 
635 27 155.992 
636 218 123.137 
637 38 135.9 
638 115 79.0303 
639 0 33.2122 
640 58 155.859 
641 1 32.8971 
642 136 161.189 
643 26 30.0997 
644 22 96.4665 
645 82 55.9247 
646 11 214.973 
647 20 109.417 
648 37 46.0899 
649 19 57.9071 
650 11 76.4851 
651 60 91.6808 
652 20 25.3466 
653 35 53.9573 
654 139 78.7351 
655 268 126.227 
656 1 8.4704 
657 41 40.3261 
658 27 55.8845 
659 9 117.555 
660 17 111.067 
661 243 143.109 
662 149 234.843 
663 1 24.7258 
664 90 65.9697 
665 174 322.908 
666 34 36.5116 
667 8 70.2884 
668 3 33.8946 
669 48 80.5112 
670 114 69.8362 
671 15 12.7979 
672 9 40.1461 
673 67 71.7855 
674 8 28.5676 
675 67 51.1348 
676 40 71.4975 
677 25 23.225 
678 26 12.9056 
679 58 44.7895 
680 54 24.9262 
681 2 33.8212 
682 58 112.919 
683 5 11.3776 
684 8 119.78 
685 174 100.543 
686 132 98.3845 
687 49 67.1995 
688 11 37.9186 
689 11 20.7945 
690 150 43.1332 
691 8 59.3187 
692 63 52.2304 
693 69 94.6315 
694 71 121.898 
695 18 74.0721 
696 55 97.3216 
697 136 54.696 
698 3 131.156 
699 30 36.0075 
700 152 116.705 
701 53 153.326 
702 236 119.764 
703 129 64.0274 
704 57 67.3298 
705 41 31.6032 
706 101 48.2205 
707 158 90.4266 
708 141 71.4126 
709 0 91.1956 
710 73 126.029 
711 77 113.388 
712 88 107.246 
713 18 107.564 
714 142 80.7175 
715 94 110.62 
716 22 108.17 
717 456 147.93 
718 0 14.7993 
719 192 81.9147 
720 15 52.3446 
721 13 80.6595 
722 6 9.99181 
723 27 52.5419 
724 72 87.6645 
725 9 37.5811 
726 10 -7.10788 
727 70 88.8323 
728 25 31.0665 
729 56 54.6173 
730 31 27.2219 
731 47 39.2364 
732 143 6.51212 
733 28 120.345 
734 53 80.2357 
735 61 116.986 
736 6 2.47972 
737 117 50.5809 
738 56 82.3363 
739 0 26.8503 
740 43 18.2145 
741 19 90.5858 
742 157 83.4782 
743 97 135.32 
744 69 100.325 
745 187 34.3743 
746 292 210.528 
747 12 80.8907 
748 34 59.9683 
749 16 24.6301 
750 27 47.7943 
751 106 59.1079 
752 67 63.469 
753 108 34.9743 
754 83 72.9106 
755 3 57.8941 
756 144 71.408 
757 27 134.276 
758 94 148.079 
759 55 66.896 
760 60 82.7207 
761 26 29.3788 
762 162 137.923 
763 292 69.3444 
764 88 135.425 
765 287 138.674 
766 197 126.591 
767 116 162.459 
768 42 159.287 
769 0 22.5732 
770 328 211.721 
771 18 57.6995 
772 170 66.0404 
773 51 35.6861 
774 8 114.184 
775 11 67.2596 
776 34 47.106 
777 146 86.0895 
778 107 80.2789 
779 178 64.168 
780 35 139.057 
781 194 147.018 
782 21 26.3581 
783 69 120.101 
784 142 138.202 
785 138 70.9999 
786 35 162.71 
787 44 82.0628 
788 3 28.4147 
789 27 114.904 
790 21 120.417 
791 0 16.4493 
792 157 105.244 
793 5 61.8554 
794 123 129.668 
795 250 107.424 
796 89 129.787 
797 18 59.0921 
798 116 72.8772 
799 92 56.5998 
800 137 86.7944 
801 219 154.583 
802 174 127.095 
803 119 155.232 
804 54 74.0302 
805 5 56.2846 
806 113 97.5336 
807 199 187.294 
808 38 37.3804 
809 198 190.372 
810 217 146.657 
811 1 24.9279 
812 3 20.321 
813 124 68.702 
814 34 42.7498 
815 108 129.611 
816 3 31.2255 
817 3 33.9827 
818 70 78.6656 
819 136 122.289 
820 132 121.942 
821 26 71.0574 
822 7 34.664 
823 25 31.4162 
824 0 40.5002 
825 148 130.138 
826 25 112.176 
827 50 42.6336 
828 393 141.83 
829 165 92.0843 
830 33 55.4485 
831 3 39.8009 
832 286 139.981 
833 63 11.4748 
834 370 92.5287 
835 8 52.0337 
836 53 -41.4515 
837 43 79.7696 
838 52 47.7226 
839 51 139.624 
840 60 34.114 
841 22 114.045 
842 14 95.1693 
843 96 112.267 
844 21 86.8945 
845 94 55.8959 
846 6 46.6799 
847 127 106.905 
848 13 -17.0286 
849 68 89.764 
850 351 94.046 
851 14 77.9089 
852 25 92.3961 
853 6 128.686 
854 36 33.9579 
855 394 154.615 
856 89 45.1879 
857 52 36.1165 
858 150 113.493 
859 39 69.5418 
860 11 21.8569 
861 17 31.9096 
862 425 133.446 
863 191 178.914 
864 8 73.2864 
865 190 81.7022 
866 413 149.23 
867 11 38.2372 
868 52 95.8312 
869 23 64.7068 
870 32 83.9087 
871 86 69.3609 
872 88 77.2559 
873 143 94.9314 
874 322 220.408 
875 8 125.766 
876 88 143.591 
877 80 105.94 
878 43 46.2924 
879 382 222.38 
880 105 97.3628 
881 358 145.698 
882 29 167.066 
883 421 150.947 
884 116 189.001 
885 6 121.96 
886 4 31.0587 
887 21 102.733 
888 79 82.2172 
889 25 84.7828 
890 2 45.5743 
891 84 111.532 
892 54 196.587 
893 13 65.5127 
894 65 130.43 
895 390 162.53 
896 48 -3.27272 
897 156 170.629 
898 38 82.5252 
899 9 206.894 
900 29 45.3432 
901 200 71.6413 
902 214 89.927 
903 74 64.1618 
904 35 66.1708 
905 87 188.478 
906 34 99.2311 
907 18 20.8059 
908 73 42.5006 
909 143 113.611 
910 75 64.0478 
911 3 30.9482 
912 110 101.293 
913 21 12.1297 
914 16 0.78188 
915 63 98.6536 
916 1 118.872 
917 60 99.7453 
918 8 43.3383 
919 32 90.6351 
920 126 114.143 
921 69 153.282 
922 103 225.425 
923 130 58.5556 
924 73 112.48 
925 61 67.3691 
926 28 23.4582 
927 100 65.3234 
928 54 34.974 
929 43 70.4608 
930 50 96.4526 
931 461 264.042 
932 37 65.0548 
933 14 192.148 
934 174 199.637 
935 115 129.19 
936 25 39.3633 
937 8 45.9639 
938 143 66.6231 
939 204 230.488 
940 212 195.019 
941 21 61.4079 
942 3 14.3575 
943 2 1.14709 
944 50 35.203 
945 3 88.1412 
946 28 107.638 
947 57 81.7435 
948 189 146.296 
949 21 10.1335 
950 183 70.0971 
951 29 23.1549 
952 33 46.3104 
953 157 129.337 
954 97 42.9132 
955 55 142.477 
956 105 258.86 
957 91 74.7002 
958 95 67.3335 
959 167 320.106 
960 130 121.173 
961 57 51.1084 
962 220 136.252 
963 76 70.2396 
964 183 149.831 
965 15 -46.4544 
966 50 78.5621 
967 33 60.2841 
968 273 191.658 
969 37 19.8642 
970 127 109.283 
971 186 115.768 
972 210 180.489 
973 71 68.2532 
974 115 92.991 
975 133 139.006 
976 31 185.594 
977 224 105.092 
978 59 54.8506 
979 20 4.96285 
980 17 83.1442 
981 14 50.0329 
982 28 68.0085 
983 159 119.052 
984 15 22.8205 
985 197 144.477 
986 92 57.1656 
987 128 40.6324 
988 283 316.658 
989 62 67.7984 
990 111 84.5632 
991 24 48.9097 
992 176 116.947 
993 0 12.923 
994 27 116.659 
995 276 159.754 
996 48 183.114 
997 5 40.3164 
998 0 8.15793 
999 26 24.126 
1000 44 49.4138 
1001 18 -22.7887 
1002 13 109.071 
1003 155 184.721 
1004 39 59.5337 
1005 264 87.205 
1006 3 27.9596 
1007 237 120.089 
1008 15 -12.3596 
1009 30 57.0448 
1010 48 57.6231 
1011 85 85.9889 
1012 81 48.3709 
1013 279 222.965 
1014 534 239.607 
1015 6 60.2046 
1016 142 106.236 
1017 112 75.0513 
1018 51 56.0359 
1019 111 78.0315 
1020 5 84.2712 
1021 125 91.8942 
1022 20 63.6761 
1023 37 178.113 
1024 159 96.2181 
1025 125 75.9084 
1026 7 131.535 
1027 38 91.6436 
1028 42 146.082 
1029 167 134.9 
1030 108 61.5546 
1031 53 68.9575 
1032 0 36.7286 
1033 34 107.13 
1034 38 192.949 
1035 48 52.5533 
1036 20 71.694 
1037 40 15.6446 
1038 121 265.534 
1039 61 133.08 
1040 41 76.9824 
1041 96 258.022 
1042 3 -14.9135 
1043 21 59.4147 
1044 4 36.1619 
1045 135 82.9595 
1046 547 247.685 
1047 63 191.744 
1048 78 57.2568 
1049 48 62.7371 
1050 6 28.0236 
1051 34 22.4155 
1052 197 122.619 
1053 3 41.1788 
1054 180 220.201 
1055 24 44.4456 
1056 39 43.8246 
1057 119 101.777 
1058 8 -18.1211 
1059 0 8.31416 
1060 71 112.962 
1061 164 163.74 
1062 98 62.1686 
1063 84 103.83 
1064 153 105.989 
1065 122 113.051 
1066 48 28.1163 
1067 26 152.319 
1068 196 113.83 
1069 214 119.803 
1070 14 31.6361 
1071 160 120.337 
1072 91 63.4288 
1073 68 136.602 
1074 7 34.8543 
1075 8 63.3107 
1076 209 83.458 
1077 68 156.638 
1078 143 70.125 
1079 13 66.694 
1080 63 76.3875 
1081 236 147.663 
1082 188 122.02 
1083 30 55.0503 
1084 10 43.0702 
1085 131 149.521 
1086 17 26.3591 
1087 51 75.8305 
1088 11 53.3277 
1089 72 49.0396 
1090 165 90.258 
1091 17 111.511 
1092 90 190.48 
1093 109 40.761 
1094 140 147.496 
1095 69 194.317 
1096 13 22.8846 
1097 199 234.67 
1098 115 199.644 
1099 35 58.269 
1100 80 74.0839 
1101 233 127.381 
1102 441 264.471 
1103 249 81.4419 
1104 122 56.4481 
1105 132 103.426 
1106 80 209.028 
1107 3 20.8384 
1108 60 42.9315 
1109 674 247.748 
1110 157 168.772 
1111 56 74.7498 
1112 86 101.681 
1113 128 62.1141 
1114 121 65.8574 
1115 22 101.979 
1116 14 46.9435 
1117 233 1.77285 
1118 62 55.7407 
1119 11 55.2601 
1120 91 75.4685 
1121 90 114.453 
1122 44 73.7626 
1123 182 207.719 
1124 79 94.6135 
1125 2 73.8081 
1126 218 170.863 
1127 170 119.889 
1128 32 37.8835 
1129 8 42.4399 
1130 190 114.946 
1131 5 57.6873 
1132 163 169.865 
1133 98 164.375 
1134 61 74.7674 
1135 286 172.434 
1136 177 104.011 
1137 136 110.924 
1138 33 41.6579 
1139 7 39.6741 
1140 16 29.8045 
1141 46 82.1381 
1142 250 97.9742 
1143 8 8.15793 
1144 45 47.0701 
1145 54 40.3661 
1146 11 59.1235 
1147 65 65.1318 
1148 4 39.2822 
1149 224 155.718 
1150 50 49.454 
1151 5 23.4242 
1152 1 12.2981 
1153 60 86.6069 
1154 305 196.007 
1155 10 33.2247 
1156 115 15.1821 
1157 32 98.2237 
1158 200 116.244 
1159 58 75.276 
1160 5 33.9246 
1161 63 57.3728 
1162 4 30.7688 
1163 49 107.272 
1164 18 35.8101 
1165 20 64.7462 
1166 112 184.464 
1167 86 55.3852 
1168 139 96.8094 
1169 96 116.756 
1170 73 54.8941 
1171 17 -11.3223 
1172 114 86.8034 
1173 15 149.766 
1174 141 84.8525 
1175 317 92.2068 
1176 92 121.134 
1177 161 136.327 
1178 46 200.424 
1179 186 113.335 
1180 3 24.5555 
1181 145 60.5265 
1182 14 160.653 
1183 22 113.309 
1184 23 90.1284 
1185 268 110.304 
1186 12 23.679 
1187 68 218.199 
1188 146 58.3908 
1189 154 361.666 
1190 14 27.195 
1191 21 30.4478 
1192 26 79.6679 
1193 50 117.872 
1194 22 143.251 
1195 12 93.0333 
1196 121 83.5793 
1197 28 13.0173 
1198 33 39.1242 
1199 24 73.8012 
1200 9 22.5033 
1201 22 61.0042 
1202 141 49.0359 
1203 14 42.2215 
1204 204 54.2593 
1205 148 75.7116 
1206 6 51.3175 
1207 14 23.3841 
1208 17 2.58635 
1209 5 -22.2381 
1210 52 142.351 
1211 37 323.897 
1212 164 129.214 
1213 74 56.5581 
1214 233 122.134 
1215 5 122.392 
1216 25 172.994 
1217 91 106.969 
1218 14 48.954 
1219 65 112.243 
1220 31 190.1 
1221 50 2.79725 
1222 180 167.243 
1223 99 57.708 
1224 35 76.5423 
1225 25 81.2655 
1226 78 91.0487 
1227 185 198.611 
1228 41 31.695 
1229 19 85.8999 
1230 370 246.655 
1231 50 204.131 
1232 72 89.0133 
1233 14 193.7 
1234 19 54.1534 
1235 117 102.881 
1236 82 93.9668 
1237 58 64.6766 
1238 0 16.1369 
1239 41 57.0266 
1240 79 164.428 
1241 130 63.1578 
1242 2 64.0415 
1243 6 82.0676 
1244 216 114.616 
1245 146 186.39 
1246 91 52.4516 
1247 90 85.1935 
1248 146 74.5063 
1249 55 123.688 
1250 0 25.7427 
1251 163 142.512 
1252 4 17.7032 
1253 410 71.4831 
1254 39 44.3658 
1255 19 33.3276 
1256 149 73.3567 
1257 46 95.5959 
1258 150 97.6441 
1259 23 51.2185 
1260 35 40.9631 
1261 16 41.8714 
1262 25 126.927 
1263 31 34.3243 
1264 168 101.085 
1265 235 76.1292 
1266 278 246.254 
1267 95 211.428 
1268 165 148.836 
1269 286 121.585 
1270 67 86.2343 
1271 200 103.702 
1272 18 24.8296 
1273 211 136.216 
1274 73 81.4479 
1275 21 52.7151 
1276 20 85.5446 
1277 35 68.0173 
1278 178 152.568 
1279 64 77.7798 
1280 167 48.5892 
1281 1 17.0525 
1282 4 47.0776 
1283 71 96.2563 
1284 13 60.0753 
1285 14 52.6019 
1286 71 204.627 
1287 108 88.9915 
1288 61 102.381 
1289 46 125.471 
1290 47 56.1292 
1291 18 5.26322 
1292 364 146.088 
1293 36 211.609 
1294 53 141.832 
1295 47 30.8704 
1296 105 153.688 
1297 10 32.5498 
1298 147 165.794 
1299 331 124.631 
1300 194 173.755 
1301 442 188.204 
1302 33 64.1613 
1303 11 23.8806 
1304 55 140.356 
1305 10 51.7263 
1306 22 76.7376 
1307 101 111.977 
1308 64 52.1387 
1309 168 183.654 
1310 93 35.0324 
1311 33 43.6268 
1312 45 118.652 
1313 142 59.032 
1314 113 109.126 
1315 15 -14.8161 
1316 501 132.666 
1317 25 77.9215 
1318 2 76.7071 
1319 43 30.0929 
1320 78 98.7124 
1321 136 187.977 
1322 274 211.037 
1323 52 108.189 
1324 43 51.7199 
1325 49 85.5331 
1326 129 118.574 
1327 33 68.4263 
1328 8 78.4286 
1329 183 69.2858 
1330 21 30.8642 
1331 14 59.7252 
1332 16 50.8757 
1333 62 66.0661 
1334 201 133.007 
1335 31 67.9391 
1336 9 28.9054 
1337 98 58.7576 
1338 107 117.116 
1339 17 13.9125 
1340 19 31.7445 
1341 21 48.672 
1342 16 82.4332 
1343 42 53.0233 
1344 143 114.613 
1345 36 59.3544 
1346 20 114.309 
1347 7 36.2454 
1348 68 104.959 
1349 106 240.589 
1350 160 211.596 
1351 32 5.265 
1352 78 73.5061 
1353 83 91.5086 
1354 268 191.703 
1355 21 78.7495 
1356 10 64.9084 
1357 67 234.118 
1358 86 57.4271 
1359 179 93.8221 
1360 7 58.551 
1361 33 34.7885 
1362 329 102.043 
1363 13 52.5047 
1364 66 120.631 
1365 317 183.678 
1366 4 37.0682 
1367 62 84.3305 
1368 141 129.45 
1369 140 34.413 
1370 44 63.6041 
1371 65 88.9341 
1372 27 27.9346 
1373 57 45.4065 
1374 10 96.5591 
1375 49 88.2388 
1376 122 91.7638 
1377 71 52.7617 
1378 177 147.33 
1379 78 91.4391 
1380 75 47.6323 
1381 42 123.011 
1382 36 66.3076 
1383 177 80.424 
1384 29 -6.71994 
1385 16 40.5354 
1386 104 80.0557 
1387 29 39.4485 
1388 29 90.6429 
1389 66 97.5283 
1390 178 127.071 
1391 164 60.299 
1392 156 107.578 
1393 200 102.623 
1394 26 72.2929 
1395 190 98.3004 
1396 120 205.279 
1397 154 75.7155 
1398 12 126.625 
1399 2 110.149 
1400 15 126.174 
1401 61 102.209 
1402 17 2.88036 
1403 95 46.4888 
1404 42 63.9583 
1405 154 79.1485 
1406 201 241.524 
1407 229 125.592 
1408 273 109.71 
1409 144 152.019 
1410 134 191.802 
1411 49 100.811 
1412 13 73.9162 
1413 103 57.7363 
1414 55 36.6141 
1415 71 67.0019 
1416 54 52.378 
1417 8 43.8633 
1418 101 84.9571 
1419 54 88.0849 
1420 88 76.7148 
1421 15 51.3669 
1422 26 35.1315 
1423 66 83.197 
1424 28 77.2304 
1425 23 57.0189 
1426 102 135.593 
1427 127 82.2177 
1428 22 63.8677 
1429 195 99.0621 
1430 56 43.1303 
1431 123 130.439 
1432 29 90.5054 
1433 51 58.8908 
1434 31 29.0657 
1435 71 172.163 
1436 82 73.448 
1437 19 78.6433 
1438 20 20.503 
1439 140 91.087 
1440 138 146.3 
1441 7 35.7534 
1442 59 112.102 
1443 23 45.415 
1444 6 47.2201 
1445 25 84.7759 
1446 60 95.833 
1447 94 91.1447 
1448 116 73.9874 
1449 15 54.53 
1450 50 60.1656 
1451 587 256.881 
1452 12 50.7662 
1453 26 79.7224 
1454 42 207.622 
1455 71 80.5899 
1456 7 68.2071 
1457 16 36.3549 
1458 7 92.8092 
1459 140 144.174 
1460 161 141.126 
1461 34 -6.19902 
1462 42 118.048 
1463 143 60.6284 
1464 116 73.2016 
1465 176 82.7888 
1466 55 142.471 
1467 165 62.0582 
1468 51 51.8331 
1469 3 35.6177 
1470 140 167.228 
1471 118 143.074 
1472 57 44.8433 
1473 4 80.5148 
1474 142 161.204 
1475 100 172.836 
1476 51 50.3397 
1477 96 78.3502 
1478 11 57.5171 
1479 31 69.0947 
1480 92 190.347 
1481 83 137.123 
1482 129 96.4802 
1483 54 81.44 
1484 37 88.0864 
1485 124 193.68 
1486 95 65.1228 
1487 166 70.1068 
1488 66 114.216 
1489 34 54.7402 
1490 15 55.2468 
1491 8 34.912 
1492 60 53.869 
1493 9 67.672 
1494 40 39.0409 
1495 6 47.5715 
1496 103 80.2766 
1497 1 25.0268 
1498 13 53.5815 
1499 233 129.881 
1500 214 239.042 
1501 28 27.0028 
1502 104 94.9703 
1503 140 156.201 
1504 22 72.8005 
1505 114 82.2019 
1506 51 177.435 
1507 125 100.824 
1508 203 127.646 
1509 245 100.042 
1510 44 57.9363 
1511 54 200.423 
1512 242 89.9277 
1513 44 91.1796 
1514 56 129.44 
1515 21 74.8637 
1516 1 14.6713 
1517 135 190.553 
1518 70 61.3628 
1519 9 37.4414 
1520 10 20.2381 
1521 72 84.6428 
1522 31 49.8568 
1523 40 87.7048 
1524 28 29.2376 
1525 82 -20.7381 
1526 105 62.3699 
1527 21 100.927 
1528 157 231.34 
1529 70 -51.3592 
1530 46 89.0685 
1531 101 95.5805 
1532 296 122.95 
1533 404 179.23 
1534 12 106.958 
1535 4 31.1105 
1536 484 235.27 
1537 85 20.2317 
1538 117 60.9312 
1539 41 61.3235 
1540 99 181.738 
1541 264 127.188 
1542 21 71.7063 
1543 38 67.0391 
1544 44 53.3849 
1545 286 186.764 
1546 15 70.6885 
1547 21 58.959 
1548 6 44.3822 
1549 131 115.234 
1550 44 123.862 
1551 40 40.3649 
1552 97 72.556 
1553 343 126.568 
1554 19 14.5795 
1555 97 128.067 
1556 87 121.769 
1557 10 17.3259 
1558 201 230.928 
1559 27 80.6229 
1560 2 39.4888 
1561 63 87.083 
1562 42 106.426 
1563 140 68.7014 
1564 26 41.8205 
1565 144 185.056 
1566 2 28.1501 
1567 31 72.1549 
1568 234 103.156 
1569 58 99.3892 
1570 33 88.7809 
1571 29 119.405 
1572 5 47.7086 
1573 21 48.5313 
1574 13 56.9022 
1575 49 35.7635 
1576 362 239.094 
1577 180 104.686 
1578 344 228.463 
1579 206 103.613 
1580 97 168.037 
1581 37 47.1487 
1582 295 139.983 
1583 85 134.024 
1584 105 63.8098 
1585 18 24.3538 
1586 63 92.3721 
1587 167 101.465 
1588 22 62.6838 
1589 37 39.4678 
1590 7 131.761 
1591 25 32.9581 
1592 94 91.6551 
1593 850 254.684 
1594 9 66.8111 
1595 168 151.656 
1596 41 76.1702 
1597 0 0.346225 
1598 407 232.401 
1599 31 75.3886 
1600 52 22.0111 
1601 109 175.456 
1602 73 113.091 
1603 62 260.006 
1604 188 125.326 
1605 264 158.369 
1606 24 301.454 
1607 56 84.5558 
1608 5 26.1862 
1609 91 66.5647 
1610 100 57.4854 
1611 175 103.545 
1612 26 39.7624 
1613 251 113.927 
1614 150 103.478 
1615 85 94.4883 
1616 206 128.33 
1617 202 113.027 
1618 108 66.5296 
1619 36 44.819 
1620 504 236.441 
1621 52 107.88 
1622 46 86.7844 
1623 11 81.8994 
1624 207 198.355 
1625 56 154.115 
1626 41 56.7051 
1627 21 70.3042 
1628 51 80.2784 
1629 219 237.601 
1630 93 202.433 
1631 32 100.278 
1632 323 135.566 
1633 103 177.034 
1634 44 94.1428 
1635 217 189.775 
1636 169 354.674 
1637 25 109.377 
1638 21 25.0955 
1639 75 74.8781 
1640 14 80.9478 
1641 69 87.9635 
1642 81 77.0346 
1643 14 24.7427 
1644 19 72.8118 
1645 27 82.3201 
1646 191 179.848 
1647 0 21.4247 
1648 18 58.6145 
1649 168 74.6204 
1650 40 69.3984 
1651 119 118.916 
1652 17 27.12 
1653 31 140.47 
1654 133 174.257 
1655 97 160.628 
1656 8 5.23276 
1657 133 93.8815 
1658 25 25.6923 
1659 101 -24.8454 
1660 99 154.149 
1661 68 138.611 
1662 10 168.245 
1663 76 96.7293 
1664 108 84.7751 
1665 185 101.502 
1666 128 50.0355 
1667 317 234.736 
1668 175 175.82 
1669 2 45.0618 
1670 361 104.535 
1671 0 7.22052 
1672 32 46.1212 
1673 105 96.255 
1674 17 52.4424 
1675 232 213.033 
1676 108 73.8184 
1677 0 12.5534 
1678 19 95.5337 
1679 65 146.436 
1680 106 161.81 
1681 31 22.3245 
1682 25 21.0752 
1683 45 58.0679 
1684 72 84.8267 
1685 6 18.2276 
1686 180 242.153 
1687 32 196.576 
1688 46 51.237 
1689 32 24.2919 
1690 23 72.0163 
1691 9 50.3356 
1692 44 64.7516 
1693 95 113.904 
1694 172 116.318 
1695 85 49.6321 
1696 69 52.8365 
1697 101 146.184 
1698 154 117.535 
1699 40 76.3447 
1700 266 210.549 
1701 71 70.3551 
1702 120 102.609 
1703 65 60.3437 
1704 29 19.2517 
1705 18 163.627 
1706 276 155.627 
1707 30 69.782 
1708 209 114.03 
1709 18 41.4457 
1710 17 -5.29438 
1711 23 59.9611 
1712 160 91.3512 
1713 198 122.851 
1714 412 196.623 
1715 15 69.5876 
1716 284 76.051 
1717 10 108.761 
1718 89 99.123 
1719 152 131.931 
1720 38 59.9637 
1721 120 94.4982 
1722 10 8.4704 
1723 35 141.805 
1724 36 117.252 
1725 216 137.298 
1726 9 93.8174 
1727 8 45.9671 
1728 43 38.15 
1729 203 139.093 
1730 29 81.2965 
1731 154 85.3996 
1732 174 2.36727 
1733 111 54.9496 
1734 0 33.4818 
1735 119 84.9981 
1736 101 78.2352 
1737 3 59.2118 
1738 66 138.062 
1739 19 34.691 
1740 683 94.2765 
1741 148 64.6791 
1742 132 120.28 
1743 16 138.66 
1744 14 -16.4683 
1745 50 92.1704 
1746 136 91.252 
1747 48 185.992 
1748 10 39.2294 
1749 20 32.8879 
1750 86 111.172 
1751 130 126.454 
1752 40 44.9331 
1753 131 99.2671 
1754 97 70.229 
1755 26 73.1581 
1756 101 77.5062 
1757 81 90.2582 
1758 149 112.944 
1759 220 68.7299 
1760 181 297.574 
1761 87 46.3817 
1762 157 137.395 
1763 322 217.858 
1764 88 113.271 
1765 104 74.128 
1766 185 98.6287 
1767 30 49.7379 
1768 24 44.693 
1769 19 55.3814 
1770 59 58.1614 
1771 6 2.45085 
1772 310 153.917 
1773 37 50.8198 
1774 20 30.7504 
1775 20 17.8058 
1776 24 62.4506 
1777 56 22.4656 
1778 120 119.018 
1779 100 58.2141 
1780 35 34.8645 
1781 23 118.432 
1782 22 61.2611 
1783 226 66.7533 
1784 20 106.606 
1785 90 130.044 
1786 161 87.1446 
1787 116 77.11 
1788 8 59.9252 
1789 46 88.1212 
1790 116 120.871 
1791 148 70.721 
1792 111 74.8498 
1793 63 67.1277 
1794 45 99.7542 
1795 135 65.9325 
1796 28 102.882 
1797 25 63.6381 
1798 40 86.5002 
1799 244 294.735 
1800 46 147.065 
1801 149 219.288 
1802 53 185.269 
1803 181 161.341 
1804 55 106.254 
1805 137 93.6627 
1806 27 44.5299 
1807 53 141.483 
1808 57 69.7331 
1809 95 88.9621 
1810 30 141.605 
1811 4 30.7358 
1812 77 89.7596 
1813 121 54.628 
1814 22 130.87 
1815 168 97.0298 
1816 28 40.2615 
1817 79 104.181 
1818 4 18.1224 
1819 89 139.193 
1820 15 42.5208 
1821 79 99.8217 
1822 105 56.0598 
1823 86 42.3341 
1824 54 100.038 
1825 221 151.249 
1826 11 119.962 
1827 155 83.8164 
1828 41 174.964 
1829 212 193.55 
1830 50 71.7003 
1831 2 27.7129 
1832 6 48.3591 
1833 47 27.2698 
1834 171 84.9906 
1835 31 91.3694 
1836 115 95.5104 
1837 113 147.794 
1838 338 198.885 
1839 317 76.8979 
1840 48 253.492 
1841 187 131.239 
1842 87 90.2382 
1843 127 190.766 
1844 122 52.3023 
1845 14 5.24083 
1846 347 142.103 
1847 36 75.3399 
1848 54 66.7041 
1849 22 37.7347 
1850 7 43.1154 
1851 128 190.713 
1852 147 105.769 
1853 64 107.264 
1854 255 131.818 
1855 62 93.2822 
1856 79 57.7705 
1857 21 104.183 
1858 150 187.888 
1859 150 152.027 
1860 7 62.9566 
1861 20 16.2294 
1862 17 45.9095 
1863 76 52.0672 
1864 171 88.6913 
1865 35 48.7462 
1866 76 94.4394 
1867 103 48.0829 
1868 15 40.5124 
1869 76 39.5982 
1870 81 40.2694 
1871 24 23.6166 
1872 62 111.728 
1873 119 88.4906 
1874 31 59.3399 
1875 82 57.987 
1876 167 55.9562 
1877 216 130.73 
1878 12 79.0554 
1879 13 40.6269 
1880 40 95.3338 
1881 90 145.827 
1882 173 79.3957 
1883 501 249.551 
1884 203 144.831 
1885 7 65.7046 
1886 97 89.8392 
1887 26 226.328 
1888 141 152.408 
1889 211 155.304 
1890 65 52.0642 
1891 20 52.1029 
1892 110 85.9016 
1893 134 112.886 
1894 67 75.5724 
1895 21 15.9557 
1896 10 8.4704 
1897 13 62.3835 
1898 91 64.2526 
1899 35 63.878 
1900 346 157.898 
1901 11 36.2756 
1902 25 20.2012 
1903 4 22.047 
1904 52 75.5436 
1905 100 127.104 
1906 197 183.997 
1907 46 -77.8355 
1908 28 66.9154 
1909 4 55.1681 
1910 19 44.8665 
1911 254 117.212 
1912 41 50.9027 
1913 200 66.8248 
1914 219 162.733 
1915 46 35.1321 
1916 0 18.4426 
1917 60 62.6694 
1918 56 59.3063 
1919 81 164.066 
1920 93 56.6796 
1921 23 33.1652 
1922 60 140.87 
1923 10 66.1328 
1924 62 140.418 
1925 35 138.272 
1926 31 76.7108 
1927 549 207.532 
1928 156 108.319 
1929 137 60.802 
1930 22 26.3742 
1931 16 48.5948 
1932 103 54.9293 
1933 19 37.7283 
1934 17 42.0627 
1935 91 243.908 
1936 118 68.1795 
1937 8 37.6333 
1938 7 45.7828 
1939 102 67.5744 
1940 5 80.7856 
1941 109 64.9186 
1942 28 21.0455 
1943 17 112.278 
1944 84 103.209 
1945 16 55.6954 
1946 178 166.113 
1947 5 9.54619 
1948 61 69.5025 
1949 34 76.2765 
1950 149 70.6101 
1951 20 74.9125 
1952 444 356.641 
1953 3 43.0158 
1954 109 126.971 
1955 206 92.6162 
1956 36 29.5382 
1957 50 49.9167 
1958 73 86.2063 
1959 62 115.267 
1960 11 46.6352 
1961 127 75.2884 
1962 48 61.3557 
1963 52 87.9651 
1964 14 62.2484 
1965 169 145.423 
1966 27 38.0453 
1967 48 96.8302 
1968 119 115.604 
1969 141 114.625 
1970 44 38.2743 
1971 58 45.1398 
1972 284 104.676 
1973 30 75.0617 
1974 314 260.165 
1975 112 95.6204 
1976 14 83.3767 
1977 158 105.531 
1978 129 180.407 
1979 11 16.8832 
1980 37 165.042 
1981 189 133.889 
1982 41 133.474 
1983 2 31.6427 
1984 69 112.56 
1985 43 94.4648 
1986 4 8.4704 
1987 232 97.791 
1988 8 74.7355 
1989 114 54.2544 
1990 110 111.841 
1991 52 156.219 
1992 3 57.7483 
1993 18 48.7312 
1994 269 139.622 
1995 234 87.8872 
1996 83 179.306 
1997 64 60.4235 
1998 152 169.961 
1999 4 -71.5751 
2000 393 215.375 
2001 76 55.735 
2002 155 98.3273 
2003 276 150.278 
2004 32 48.7926 
2005 100 54.7042 
2006 36 94.0383 
2007 39 88.247 
2008 246 111.416 
2009 45 86.2962 
2010 20 174.396 
2011 232 102.799 
2012 135 139.518 
2013 184 144.962 
2014 31 74.0395 
2015 73 174.778 
2016 32 42.2554 
2017 24 64.8519 
2018 254 119.679 
2019 0 41.1811 
2020 8 55.2891 
2021 10 45.7055 
2022 0 58.7934 
2023 44 14.954 
2024 146 171.332 
2025 172 193.666 
2026 17 58.6082 
2027 56 55.3471 
2028 131 96.1504 
2029 99 173.321 
2030 63 95.6164 
2031 11 126.97 
2032 133 82.6121 
2033 213 114.381 
2034 19 137.922 
2035 132 114.951 
2036 92 72.2074 
2037 80 68.0046 
2038 40 73.7749 
2039 39 85.616 
2040 77 123.775 
2041 344 182.469 
2042 83 77.8256 
2043 218 23.0008 
2044 172 90.6297 
2045 86 51.2895 
2046 13 34.9032 
2047 498 221.529 
2048 53 31.9574 
2049 51 12.1226 
2050 42 60.512 
2051 0 28.4423 
2052 60 59.5928 
2053 117 110.899 
2054 9 28.728 
2055 55 78.4293 
2056 212 95.604 
2057 47 30.339 
2058 29 32.0367 
2059 70 180.143 
2060 166 62.8818 
2061 9 94.1304 
2062 37 88.386 
2063 8 33.2177 
2064 34 77.7362 
2065 12 60.6281 
2066 56 43.5545 
2067 100 174.227 
2068 49 181.33 
2069 171 73.1917 
2070 62 88.6255 
2071 50 99.1503 
2072 93 55.7665 
2073 35 74.2958 
2074 74 96.6878 
2075 172 57.9853 
2076 6 42.9138 
2077 36 59.912 
2078 160 129.356 
2079 150 135.378 
2080 57 14.1047 
2081 130 82.3482 
2082 86 94.0559 
2083 17 35.4832 
2084 50 142.893 
2085 19 13.7546 
2086 39 79.5212 
2087 9 33.2784 
2088 17 24.2252 
2089 95 177.189 
2090 8 11.8999 
2091 217 120.113 
2092 12 57.105 
2093 106 110.162 
2094 14 46.1865 
2095 156 122.166 
2096 41 111.99 
2097 4 160.169 
2098 166 150.357 
2099 82 120.074 
2100 94 88.1989 
2101 74 68.0211 
2102 20 275.408 
2103 143 62.3099 
2104 97 96.6651 
2105 99 87.7831 
2106 24 39.5058 
2107 64 103.437 
2108 110 88.7347 
2109 89 140.731 
2110 79 95.4336 
2111 57 79.0341 
2112 119 119.649 
2113 173 137.584 
2114 114 58.8544 
2115 27 32.4528 
2116 51 27.8562 
2117 69 48.3831 
2118 7 14.4183 
2119 98 39.704 
2120 57 71.6686 
2121 274 119.134 
2122 39 152.053 
2123 35 89.3707 
2124 49 213.677 
2125 12 -18.3032 
2126 15 23.1663 
2127 80 63.9907 
2128 72 101.626 
2129 5 28.191 
2130 22 117.327 
2131 82 71.1119 
2132 35 88.2813 
2133 38 99.2288 
2134 5 48.2265 
2135 5 79.8079 
2136 7 71.944 
2137 242 127.556 
2138 18 60.6551 
2139 32 42.6506 
2140 67 79.0367 
2141 134 114.626 
2142 302 177.399 
2143 46 60.6472 
2144 137 64.7062 
2145 101 83.9156 
2146 91 148.812 
2147 38 144.244 
2148 25 122.768 
2149 152 193.491 
2150 354 136.445 
2151 18 17.9606 
2152 25 65.1129 
2153 15 46.6431 
2154 34 142.106 
2155 106 99.3482 
2156 196 128.963 
2157 365 60.536 
2158 3 0.424282 
2159 139 128.541 
2160 37 84.6134 
2161 196 136.098 
2162 9 60.5554 
2163 256 135.341 
2164 98 139.17 
2165 22 100.864 
2166 217 195.164 
2167 65 26.8812 
2168 32 48.8765 
2169 103 62.2168 
2170 87 71.4603 
2171 141 128.454 
2172 54 168.737 
2173 176 105.621 
2174 318 232.15 
2175 29 45.6455 
2176 259 219.743 
2177 73 71.0125 
2178 143 63.0557 
2179 19 54.4738 
2180 37 190.707 
2181 95 119.653 
2182 45 82.466 
2183 1 91.4218 
2184 7 128.024 
2185 50 63.4266 
2186 207 181.355 
2187 83 102.324 
2188 64 157.298 
2189 27 40.6134 
2190 10 30.4407 
2191 297 196.512 
2192 589 259.682 
2193 14 52.1821 
2194 113 279.042 
2195 264 114.062 
2196 154 111.246 
2197 49 50.022 
2198 57 168.399 
2199 84 121.462 
2200 49 49.4081 
2201 42 87.9323 
2202 19 110.134 
2203 178 99.891 
2204 153 45.249 
2205 15 47.8743 
2206 278 200.539 
2207 64 68.4767 
2208 52 59.6554 
2209 43 84.421 
2210 35 38.733 
2211 78 163.399 
2212 377 230.559 
2213 170 116.957 
2214 25 175.468 
2215 53 39.0935 
2216 25 60.6592 
2217 14 165.688 
2218 127 111.471 
2219 7 37.3994 
2220 202 146.86 
2221 203 54.0383 
2222 35 23.4673 
2223 129 88.134 
2224 105 78.5884 
2225 209 198.365 
2226 226 63.583 
2227 30 74.279 
2228 32 113.778 
2229 68 30.2501 
2230 0 25.017 
2231 126 136.379 
2232 52 34.7141 
2233 175 80.6558 
2234 15 85.9111 
2235 29 166.268 
2236 1169 361.312 
2237 42 118.393 
2238 41 80.2903 
2239 20 65.8653 
2240 51 52.4389 
2241 31 21.3038 
2242 72 111.477 
2243 199 172.732 
2244 192 148.792 
2245 177 103.372 
2246 231 90.959 
2247 4 43.8766 
2248 20 69.7062 
2249 18 44.0414 
2250 109 90.3102 
2251 79 75.4435 
2252 196 184.026 
2253 7 49.3279 
2254 73 58.6061 
2255 351 222.086 
2256 178 66.9679 
2257 182 137.495 
2258 169 92.4063 
2259 97 99.082 
2260 17 40.7126 
2261 5 21.91 
2262 100 225.945 
2263 2 8.31416 
2264 4 41.7993 
2265 35 49.3318 
2266 92 96.8514 
2267 19 39.0709 
2268 17 79.8464 
2269 420 277.991 
2270 22 85.9016 
2271 146 111.383 
2272 16 11.6843 
2273 27 71.7234 
2274 17 48.3891 
2275 6 37.8378 
2276 17 38.0006 
2277 91 78.8724 
2278 121 95.5617 
2279 42 99.1434 
2280 12 71.4215 
2281 13 9.26961 
2282 69 80.8397 
2283 43 86.3339 
2284 32 8.07858 
2285 203 136.182 
2286 97 141.349 
2287 203 105.008 
2288 24 95.8131 
2289 64 174.266 
2290 60 73.8293 
2291 149 70.2816 
2292 67 68.9551 
2293 0 63.0737 
2294 46 71.2866 
2295 26 110.257 
2296 166 50.1716 
2297 226 97.6907 
2298 38 154.093 
2299 149 30.2442 
2300 452 214.503 
2301 12 53.8147 
2302 50 33.0944 
2303 165 82.6961 
2304 145 57.0093 
2305 65 89.4827 
2306 90 47.6505 
2307 414 216.792 
2308 172 82.6149 
2309 102 113.988 
2310 136 131.078 
2311 71 70.3982 
2312 114 54.4583 
2313 116 139.819 
2314 86 80.2684 
2315 24 57.8929 
2316 60 97.1727 
2317 124 96.9988 
2318 0 12.3971 
2319 28 75.5818 
2320 19 -20.2015 
2321 304 103.692 
2322 43 215.768 
2323 9 45.2741 
2324 237 156.523 
2325 13 56.5178 
2326 29 121.032 
2327 262 151.278 
2328 77 162.357 
2329 12 49.3266 
2330 266 206.878 
2331 197 118.647 
2332 45 166.793 
2333 19 70.9552 
2334 108 136.022 
2335 350 212.918 
2336 59 31.7447 
2337 18 102.893 
2338 36 40.5614 
2339 42 50.6512 
2340 47 79.6758 
2341 53 154.744 
2342 77 81.5995 
2343 24 35.0436 
2344 44 117.504 
2345 53 104.42 
2346 61 55.1068 
2347 13 36.3002 
2348 86 92.8691 
2349 217 103.062 
2350 19 127.702 
2351 62 48.6069 
2352 13 58.5851 
2353 41 66.0439 
2354 18 30.972 
2355 42 106.237 
2356 37 72.6519 
2357 83 141.648 
2358 2 20.7732 
2359 261 183.035 
2360 147 124.286 
2361 28 41.4795 
2362 3 39.0578 
2363 262 123.465 
2364 200 129.5 
2365 11 92.2721 
2366 61 100.186 
2367 48 50.8995 
2368 525 149.065 
2369 29 61.3807 
2370 3 15.4524 
2371 90 202.693 
2372 103 103.55 
2373 62 137.669 
2374 58 133.631 
2375 315 177.96 
2376 89 80.1149 
2377 22 46.1132 
2378 91 83.215 
2379 231 150.262 
2380 0 28.4147 
2381 53 94.9032 
2382 127 101.821 
2383 16 44.6574 
2384 106 31.003 
2385 97 62.3332 
2386 125 97.0372 
2387 298 110.36 
2388 28 47.6346 
2389 138 52.8617 
2390 43 76.9759 
2391 34 113.521 
2392 80 40.8648 
2393 5 47.9806 
2394 54 102.025 
2395 297 35.2811 
2396 115 104.691 
2397 104 107.914 
2398 104 197.177 
2399 25 139.718 
2400 198 75.9386 
2401 24 62.9486 
2402 201 64.8744 
2403 42 30.4293 
2404 93 216.25 
2405 208 128.515 
2406 49 93.0472 
2407 327 106.381 
2408 28 48.9161 
2409 86 84.068 
2410 11 30.4909 
2411 18 59.3595 
2412 11 66.6051 
2413 40 250.12 
2414 21 110.865 
2415 24 74.9731 
2416 200 248.25 
2417 75 45.3573 
2418 118 179.194 
2419 133 70.302 
2420 81 111.028 
2421 30 70.8158 
2422 90 127.482 
2423 16 52.2457 
2424 194 179.37 
2425 148 190.356 
2426 342 181.018 
2427 2 58.5819 
2428 100 79.4894 
2429 3 71.8422 
2430 22 58.698 
2431 110 86.5762 
2432 44 117.01 
2433 44 83.1587 
2434 65 65.9447 
2435 18 13.7916 
2436 5 10.9652 
2437 26 26.2337 
2438 5 55.383 
2439 7 65.3494 
2440 156 220.383 
2441 147 188.001 
2442 41 54.6709 
2443 19 50.7662 
2444 62 66.1769 
2445 8 33.4616 
2446 73 130.801 
2447 38 106.418 
2448 72 189.649 
2449 66 92.4977 
2450 12 112.52 
2451 48 75.2758 
2452 28 19.1338 
2453 81 114.499 
2454 222 93.159 
2455 16 76.1716 
2456 25 40.84 
2457 4 23.5273 
2458 46 53.5682 
2459 223 158.091 
2460 113 150.27 
2461 161 134.97 
2462 98 114.399 
2463 39 67.3803 
2464 116 104.302 
2465 49 124.615 
2466 50 84.1117 
2467 69 57.02 
2468 64 83.5234 
2469 53 36.7028 
2470 338 169.539 
2471 159 154.008 
2472 51 63.4301 
2473 18 49.1046 
2474 1 31.4287 
2475 33 123.006 
2476 262 134.96 
2477 21 71.1572 
2478 112 231.487 
2479 85 142.497 
2480 123 69.4764 
2481 229 175.892 
2482 32 18.3741 
2483 131 73.0232 
2484 268 145.02 
2485 108 71.5074 
2486 24 116.632 
2487 98 102.841 
2488 168 177.391 
2489 235 145.464 
2490 0 18.4426 
2491 7 97.4527 
2492 50 56.5526 
2493 62 26.9903 
2494 129 70.0416 
2495 9 124.305 
2496 110 112.416 
2497 4 31.2241 
2498 20 43.5061 
2499 106 98.1 
2500 169 130.509 
2501 11 28.876 
2502 72 247.121 
2503 7 59.7968 
2504 29 138.73 
2505 31 26.709 
2506 31 30.7481 
2507 428 179.575 
2508 72 90.6158 
2509 0 26.3581 
2510 40 66.3702 
2511 160 327.655 
2512 182 116.652 
2513 89 108.172 
2514 396 184.003 
2515 87 82.6907 
2516 123 72.9702 
2517 48 60.3863 
2518 161 176.789 
2519 71 113.033 
2520 94 177.529 
2521 2 22.0547 
2522 44 50.3084 
2523 43 62.4578 
2524 173 66.6951 
2525 22 156.178 
2526 8 3.79938 
2527 80 55.1968 
2528 10 133.446 
2529 5 122.881 
2530 36 76.206 
2531 241 180.017 
2532 124 169.323 
2533 274 122.036 
2534 6 42.9909 
2535 47 61.9247 
2536 5 50.0672 
2537 29 48.0501 
2538 40 10.2467 
2539 22 200.631 
2540 15 44.2964 
2541 243 169.906 
2542 25 4.59519 
2543 143 215.226 
2544 75 138.886 
2545 175 85.1849 
2546 11 50.3469 
2547 117 192.256 
2548 39 75.0722 
2549 15 39.3454 
2550 25 88.0096 
2551 21 32.0028 
2552 91 196.83 
2553 225 127.75 
2554 136 201.147 
2555 52 146.913 
2556 6 72.1251 
2557 6 112.81 
2558 27 23.2195 
2559 142 49.2623 
2560 67 76.7596 
2561 1 32.8971 
2562 162 101.076 
2563 174 114.273 
2564 40 80.7117 
2565 258 88.7097 
2566 174 95.6582 
2567 19 148.547 
2568 3 15.7292 
2569 4 31.8584 
2570 169 61.5993 
2571 174 92.4341 
2572 125 150.251 
2573 25 104.093 
2574 68 91.0946 
2575 264 145.974 
2576 167 75.1289 
2577 101 107.271 
2578 19 74.6091 
2579 168 173.819 
2580 247 63.7302 
2581 64 156.817 
2582 35 1.80735 
2583 27 96.6697 
2584 180 103.857 
2585 207 110.471 
2586 177 315.77 
2587 122 167.246 
2588 64 85.8834 
2589 16 72.7353 
2590 141 72.0426 
2591 16 28.5661 
2592 127 79.8683 
2593 55 81.5164 
2594 41 56.5877 
2595 19 76.9059 
2596 91 164.958 
2597 26 79.1414 
2598 17 73.6332 
2599 112 66.4832 
2600 19 109.276 
2601 136 100.374 
2602 14 69.5677 
2603 32 43.7358 
2604 77 52.5438 
2605 45 103.92 
2606 14 87.8004 
2607 35 48.7895 
2608 201 99.3964 
2609 104 54.859 
2610 292 99.2454 
2611 7 33.6828 
2612 34 81.9417 
2613 451 110.896 
2614 17 54.2057 
2615 43 52.7846 
2616 10 20.3522 
2617 25 44.3872 
2618 140 93.936 
2619 6 46.5606 
2620 107 133.918 
2621 5 32.6008 
2622 91 56.165 
2623 88 101.962 
2624 80 162.616 
2625 37 56.9228 
2626 51 47.9166 
2627 2 27.1936 
2628 102 108.536 
2629 9 46.1151 
2630 162 68.4009 
2631 227 69.2808 
2632 32 66.7938 
2633 93 73.801 
2634 314 193.472 
2635 42 147.807 
2636 39 40.0707 
2637 64 102.543 
2638 145 158.092 
2639 43 77.6463 
2640 15 45.3308 
2641 315 183.831 
2642 46 143.41 
2643 8 36.3649 
2644 65 59.7498 
2645 66 154.453 
2646 89 28.2531 
2647 83 101.941 
2648 48 102.156 
2649 9 35.5553 
2650 357 211.231 
2651 114 68.3649 
2652 37 46.3727 
2653 33 43.5931 
2654 17 34.8543 
2655 80 58.2096 
2656 26 43.383 
2657 45 73.6582 
2658 40 96.8039 
2659 131 164.645 
2660 59 -16.5711 
2661 151 125.248 
2662 44 71.5006 
2663 22 135.613 
2664 20 47.4131 
2665 71 50.4241 
2666 49 5.86927 
2667 256 159.377 
2668 117 178.467 
2669 11 70.2312 
2670 67 99.0152 
2671 125 118.293 
2672 77 131.227 
2673 8 50.3764 
2674 6 137.861 
2675 240 145.634 
2676 57 181.433 
2677 31 31.7432 
2678 34 40.8256 
2679 9 56.0022 
2680 120 130.703 
2681 109 81.883 
2682 28 29.2687 
2683 34 114.503 
2684 15 107.808 
2685 58 87.6206 
2686 39 73.6285 
2687 48 151.773 
2688 122 72.9135 
2689 85 168.846 
2690 16 29.6097 
2691 78 158.366 
2692 153 112.496 
2693 2 107.696 
2694 28 179.964 
2695 0 28.4128 
2696 15 71.8477 
2697 59 65.0884 
2698 9 111.439 
2699 11 51.1582 
2700 43 63.3702 
2701 0 13.7963 
2702 5 62.4448 
2703 88 88.2342 
2704 57 99.9187 
2705 15 62.8861 
2706 304 163.142 
2707 51 87.4869 
2708 405 243.251 
2709 686 147.328 
2710 185 108.678 
2711 69 73.1134 
2712 299 197.612 
2713 127 207.984 
2714 16 84.5137 
2715 12 63.751 
2716 265 83.2679 
2717 36 66.1846 
2718 18 119.392 
2719 101 88.5945 
2720 307 190.276 
2721 54 85.2675 
2722 17 64.4705 
2723 120 120.615 
2724 23 0.872976 
2725 34 82.6124 
2726 16 109.655 
2727 8 116.965 
2728 248 129.694 
2729 62 123.343 
2730 247 133.712 
2731 49 80.4861 
2732 55 46.2927 
2733 6 11.6691 
2734 132 114.253 
2735 335 256.006 
2736 174 172.134 
2737 20 144.644 
2738 9 32.6714 
2739 321 171 
2740 1 21.432 
2741 160 145.423 
2742 177 124.702 
2743 398 158.427 
2744 45 67.3032 
2745 137 102.935 
2746 21 20.489 
2747 16 107.659 
2748 5 108.016 
2749 40 95.0403 
2750 139 95.8728 
2751 118 121.28 
2752 153 157.869 
2753 78 174.401 
2754 46 117.46 
2755 39 122.115 
2756 46 118.811 
2757 4 10.2926 
2758 55 253.07 
2759 11 50.2711 
2760 20 36.7686 
2761 9 76.991 
2762 34 121.669 
2763 71 68.1832 
2764 135 186.855 
2765 18 32.0008 
2766 2 24.6061 
2767 16 74.1086 
2768 165 68.7329 
2769 60 172.03 
2770 34 27.4814 
2771 19 43.9396 
2772 54 45.318 
2773 113 61.7257 
2774 174 136.639 
2775 187 78.169 
2776 11 14.4316 
2777 7 33.5993 
2778 165 96.6823 
2779 25 37.5834 
2780 126 107.011 
2781 199 159.168 
2782 158 205.538 
2783 48 78.7852 
2784 40 37.8473 
2785 42 83.9808 
2786 51 98.6793 
2787 84 71.7834 
2788 43 144.293 
2789 124 88.9915 
2790 135 99.8859 
2791 41 62.6879 
2792 60 98.2165 
2793 166 58.4422 
2794 12 43.6858 
2795 29 43.6924 
2796 9 62.4515 
2797 231 114.219 
2798 240 212.365 
2799 8 16.112 
2800 11 30.0156 
2801 20 105.572 
2802 7 11.665 
2803 15 137.5 
2804 109 88.4155 
2805 21 117.255 
2806 25 71.8469 
2807 192 102.316 
2808 61 118.555 
2809 96 66.9071 
2810 101 87.857 
2811 88 71.8486 
2812 187 130.038 
2813 146 92.2549 
2814 109 125.085 
2815 1 15.6682 
2816 81 114.648 
2817 249 130.333 
2818 60 73.3466 
2819 80 112.33 
2820 82 71.8326 
2821 263 120.022 
2822 196 65.5903 
2823 76 150.352 
2824 71 40.5589 
2825 206 82.5136 
2826 185 128.414 
2827 25 0.143748 
2828 133 80.0036 
2829 24 31.92 
2830 104 157.245 
2831 115 87.9818 
2832 115 102.886 
2833 89 46.8328 
2834 16 12.9763 
2835 39 43.9993 
2836 6 44.8514 
2837 113 68.1822 
2838 39 65.4094 
2839 255 199.568 
2840 2 22.3416 
2841 3 30.9534 
2842 70 204.207 
2843 141 118.967 
2844 12 132.138 
2845 4 131.141 
2846 28 23.1134 
2847 6 23.5706 
2848 36 65.0808 
2849 139 170.714 
2850 63 56.0859 
2851 4 109.32 
2852 93 31.939 
2853 140 128.768 
2854 0 15.4379 
2855 32 32.3334 
2856 93 145.411 
2857 124 57.1244 
2858 55 43.0039 
2859 123 52.2073 
2860 62 188.744 
2861 7 74.5513 
2862 96 51.3812 
2863 15 50.0821 
2864 42 95.0436 
2865 51 97.6755 
2866 49 37.9932 
2867 31 52.2415 
2868 7 34.8336 
2869 148 109.796 
2870 13 3.93032 
2871 7 32.7932 
2872 11 76.0917 
2873 15 159 
2874 23 109.663 
2875 101 106.759 
2876 62 71.4581 
2877 4 46.6534 
2878 166 106.044 
2879 302 307.719 
2880 107 194.566 
2881 118 25.5874 
2882 16 70.197 
2883 4 32.2322 
2884 188 151.897 
2885 30 73.2908 
2886 21 85.0748 
2887 4 34.8984 
2888 14 166.802 
2889 11 65.0781 
2890 235 118.094 
2891 131 93.6478 
2892 72 115.622 
2893 85 74.8962 
2894 18 49.3879 
2895 124 160.046 
2896 325 242.252 
2897 58 106.682 
2898 72 113.674 
2899 119 84.6583 
2900 3 35.2037 
2901 11 41.598 
2902 52 75.7434 
2903 37 125.675 
2904 51 79.7923 
2905 28 97.2886 
2906 52 75.4378 
2907 157 160.303 
2908 100 70.3583 
2909 4 29.6969 
2910 8 33.0507 
2911 6 55.0317 
2912 104 191.206 
2913 33 112.544 
2914 46 73.2889 
2915 6 31.8796 
2916 9 109.162 
2917 14 48.9705 
2918 37 -19.454 
2919 29 9.14538 
2920 105 83.1504 
2921 97 76.049 
2922 15 36.7913 
2923 34 134.122 
2924 102 93.5663 
2925 102 58.3084 
2926 143 48.8123 
2927 77 169.097 
2928 10 89.1245 
2929 181 95.2138 
2930 14 19.9998 
2931 414 250.526 
2932 26 116.965 
2933 58 197.826 
2934 32 51.1808 
2935 114 86.5163 
2936 127 55.0672 
2937 31 163.62 
2938 222 83.5964 
2939 5 112.671 
2940 48 91.8368 
2941 54 64.236 
2942 11 120.253 
2943 256 62.3132 
2944 78 68.004 
2945 5 138.161 
2946 44 51.0342 
2947 412 118.722 
2948 53 -13.2656 
2949 138 122.898 
2950 9 32.7436 
2951 180 129.515 
2952 255 202.478 
2953 54 110.865 
2954 22 44.1212 
2955 48 169.849 
2956 81 51.9363 
2957 53 125.684 
2958 6 59.5077 
2959 11 76.8615 
2960 71 135.269 
2961 78 55.1447 
2962 45 25.7491 
2963 48 112.512 
2964 143 106.489 
2965 24 138.317 
2966 34 104.368 
2967 72 114.259 
2968 10 30.0977 
2969 61 99.1243 
2970 75 85.9734 
2971 28 64.7428 
2972 135 149.163 
2973 124 89.4204 
2974 22 6.26137 
2975 54 50.3079 
2976 511 249.264 
2977 186 112.202 
2978 13 94.195 
2979 74 163.23 
2980 62 59.365 
2981 128 80.1345 
2982 8 17.0574 
2983 110 137.618 
2984 4 28.6546 
2985 155 104.754 
2986 92 40.7323 
2987 116 107.697 
2988 96 151.621 
2989 20 23.6539 
2990 322 218.743 
2991 21 65.14 
2992 123 129.868 
2993 71 157.19 
2994 270 242.103 
2995 133 214.68 
2996 52 169.987 
2997 49 79.1931 
2998 86 150.179 
2999 12 0.22522 
3000 8 32.2592 
3001 24 68.2062 
3002 32 60.439 
3003 18 103.05 
3004 20 123.789 
3005 12 54.5903 
3006 99 62.9046 
3007 125 109.366 
3008 48 42.8822 
3009 40 26.5017 
3010 19 75.5187 
3011 44 81.4275 
3012 52 85.1683 
3013 60 101.183 
3014 74 56.7203 
3015 113 119.156 
3016 41 40.9151 
3017 21 113.394 
3018 9 79.5225 
3019 15 73.3287 
3020 54 132.107 
3021 152 75.9823 
3022 68 166.932 
3023 227 107.035 
3024 57 39.0026 
3025 22 128.424 
3026 32 113.87 
3027 158 159.156 
3028 26 57.8921 
3029 218 107.213 
3030 65 43.3118 
3031 21 49.3389 
3032 80 97.1782 
3033 38 123.737 
3034 71 137.767 
3035 139 155.982 
3036 57 124.263 
3037 66 119.81 
3038 17 34.3929 
3039 268 43.1478 
3040 49 18.9676 
3041 94 186.455 
3042 4 9.22759 
3043 13 14.469 
3044 53 186.535 
3045 20 117.916 
3046 100 186.189 
3047 46 107.999 
3048 59 117.195 
3049 126 67.1277 
3050 163 92.0946 
3051 239 44.796 
3052 16 57.4451 
3053 27 11.5636 
3054 13 16.9666 
3055 19 -34.2341 
3056 3 8.4704 
3057 107 96.5875 
3058 68 154.564 
3059 37 -4.95319 
3060 11 -29.2809 
3061 188 166.216 
3062 221 150.015 
3063 74 161.147 
3064 79 121.001 
3065 40 45.2114 
3066 11 8.27857 
3067 18 5.47549 
3068 7 51.1903 
3069 100 74.1714 
3070 45 51.1356 
3071 17 66.8396 
3072 53 82.9244 
3073 277 196.516 
3074 26 53.3719 
3075 109 120.777 
3076 19 46.2198 
3077 89 80.0158 
3078 27 5.39684 
3079 16 14.7942 
3080 1 52.5074 
3081 63 18.1146 
3082 225 123.399 
3083 3 70.3118 
3084 45 103.998 
3085 23 115.845 
3086 55 47.8616 
3087 94 20.8083 
3088 8 46.2262 
3089 122 127.898 
3090 114 70.2373 
3091 140 154.534 
3092 104 174.858 
3093 117 168.065 
3094 203 150.033 
3095 189 83.5604 
3096 65 44.1465 
3097 57 79.6763 
3098 56 76.0664 
3099 13 94.7134 
3100 52 94.5379 
3101 482 182.542 
3102 208 148.197 
3103 7 31.014 
3104 79 153.252 
3105 80 111.085 
3106 224 93.2604 
3107 290 175.261 
3108 52 133.589 
3109 23 107.923 
3110 53 112.036 
3111 37 90.1376 
3112 39 64.9574 
3113 16 23.0805 
3114 199 180.466 
3115 42 68.3916 
3116 204 96.2822 
3117 14 56.5909 
3118 7 27.761 
3119 86 70.1196 
3120 15 44.4149 
3121 3 36.9336 
3122 63 79.8442 
3123 105 67.8371 
3124 28 51.8078 
3125 44 71.2775 
3126 76 134.502 
3127 0 26.7508 
3128 13 79.2167 
3129 157 180.909 
3130 32 212.209 
3131 16 10.0961 
3132 159 93.4083 
3133 107 95.4589 
3134 11 75.6232 
3135 58 64.4441 
3136 14 -21.0673 
3137 23 26.7671 
3138 50 124.011 
3139 217 107.587 
3140 53 174.661 
3141 260 178.66 
3142 14 60.1909 
3143 126 52.5018 
3144 157 298.028 
3145 46 52.3848 
3146 284 91.3757 
3147 101 68.596 
3148 95 135.395 
3149 11 -10.217 
3150 0 32.4557 
3151 21 195.262 
3152 53 50.1784 
3153 11 25.5051 
3154 7 34.8396 
3155 85 -36.6561 
3156 96 87.7005 
3157 124 93.2378 
3158 10 59.6422 
3159 198 210.842 
3160 58 138.43 
3161 88 71.4025 
3162 28 36.8889 
3163 14 82.3063 
3164 44 59.6922 
3165 32 47.8065 
3166 59 55.4903 
3167 0 41.5443 
3168 10 71.0946 
3169 98 163.578 
3170 56 50.5588 
3171 104 54.5759 
3172 19 157.918 
3173 55 78.7052 
3174 97 98.8549 
3175 261 196.2 
3176 42 41.7791 
3177 168 148.128 
3178 91 44.1179 
3179 102 87.1601 
3180 68 55.6313 
3181 51 67.2638 
3182 63 165.658 
3183 6 15.0317 
3184 17 106.179 
3185 169 92.8819 
3186 268 273.377 
3187 58 87.2479 
3188 136 93.8332 
3189 162 137.81 
3190 72 49.4225 
3191 54 60.7878 
3192 169 67.0135 
3193 117 122.092 
3194 72 79.4608 
3195 86 81.6659 
3196 136 133.984 
3197 411 70.8214 
3198 74 28.4869 
3199 110 3.77947 
3200 9 3.22746 
3201 47 52.0234 
3202 135 86.7283 
3203 20 64.0443 
3204 181 65.1495 
3205 14 65.508 
3206 151 79.5733 
3207 159 137.75 
3208 49 61.1542 
3209 169 120.45 
3210 79 104.41 
3211 195 69.3893 
3212 38 87.9096 
3213 15 25.4495 
3214 137 55.8159 
3215 10 33.8935 
3216 177 159.286 
3217 123 112.208 
3218 218 71.9308 
3219 64 197.021 
3220 69 47.4338 
3221 122 95.9049 
3222 62 68.0702 
3223 105 49.8752 
3224 149 292.432 
3225 31 18.6449 
3226 34 37.7726 
3227 18 8.3338 
3228 22 51.2324 
3229 70 134.102 
3230 319 331.073 
3231 19 149.139 
3232 29 114.14 
3233 51 52.3576 
3234 66 68.3604 
3235 94 116.82 
3236 237 229.407 
3237 222 111.556 
3238 412 119.839 
3239 176 88.3944 
3240 73 192.436 
3241 45 63.4026 
3242 139 116.603 
3243 559 161.674 
3244 131 48.6626 
3245 32 6.81942 
3246 66 44.4106 
3247 345 154.312 
3248 12 -10.446 
3249 93 102.206 
3250 14 117.868 
3251 184 127.974 
3252 43 47.6112 
3253 83 82.3482 
3254 56 57.319 
3255 14 6.34438 
3256 284 278.235 
3257 46 183.358 
3258 249 128.357 
3259 60 70.3764 
3260 60 44.3873 
3261 48 73.5974 
3262 319 118.377 
3263 23 62.2747 
3264 163 109.847 
3265 23 52.5288 
3266 13 39.3919 
3267 35 77.919 
3268 11 81.2958 
3269 39 -20.6012 
3270 74 82.298 
3271 28 101.684 
3272 105 87.6655 
3273 15 21.7676 
3274 31 62.6228 
3275 171 290.617 
3276 83 61.6474 
3277 115 95.3303 
3278 85 59.3627 
3279 42 40.0048 
3280 13 81.3222 
3281 15 41.8266 
3282 75 250.336 
3283 9 25.5457 
3284 54 95.4554 
3285 16 71.6542 
3286 231 117.627 
3287 179 145.952 
3288 46 31.7959 
3289 138 59.5076 
3290 6 23.0435 
3291 73 83.9197 
3292 5 56.8182 
3293 242 115.924 
3294 8 5.29981 
3295 81 90.0983 
3296 2 78.6166 
3297 256 208.442 
3298 22 82.2663 
3299 70 46.0841 
3300 172 290.628 
3301 5 199.331 
3302 18 23.057 
3303 55 32.658 
3304 88 90.869 
3305 107 58.089 
3306 9 43.4353 
3307 38 42.9453 
3308 5 20.5556 
3309 22 25.117 
3310 125 58.2685 
3311 6 47.2373 
3312 103 138.174 
3313 15 125.427 
3314 70 46.4753 
3315 199 136.751 
3316 88 125.947 
3317 8 31.4116 
3318 114 80.0765 
3319 46 59.3577 
3320 381 150.339 
3321 231 154.024 
3322 207 102.525 
3323 34 9.71088 
3324 167 127.103 
3325 7 13.3394 
3326 12 33.2742 
3327 90 124.365 
3328 150 61.4014 
3329 32 16.1897 
3330 126 47.4258 
3331 24 52.9556 
3332 37 95.5108 
3333 62 54.639 
3334 27 60.0184 
3335 23 32.9692 
3336 18 158.446 
3337 25 128.408 
3338 23 74.1638 
3339 23 47.0666 
3340 106 94.1907 
3341 100 62.5704 
3342 223 86.0581 
3343 30 69.5362 
3344 94 47.4762 
3345 19 39.4603 
3346 2 22.6616 
3347 5 105.952 
3348 12 8.42026 
3349 13 14.0834 
3350 7 41.7901 
3351 83 113.611 
3352 52 58.508 
3353 79 100.919 
3354 31 66.9312 
3355 231 138.26 
3356 89 111.845 
3357 139 113.97 
3358 126 71.0012 
3359 25 82.784 
3360 28 86.5283 
3361 24 42.3739 
3362 48 72.7686 
3363 23 91.4224 
3364 166 51.0001 
3365 237 114.702 
3366 29 45.1046 
3367 144 221.503 
3368 7 94.5774 
3369 26 183.886 
3370 85 136.204 
3371 112 76.7838 
3372 163 117.16 
3373 31 101.527 
3374 14 117.09 
3375 53 119.295 
3376 77 70.5379 
3377 26 76.4094 
3378 51 165.671 
3379 28 52.1698 
3380 192 76.6703 
3381 24 33.797 
3382 56 162.938 
3383 37 41.1013 
3384 5 36.2357 
3385 57 57.1006 
3386 196 125.989 
3387 6 59.1364 
3388 84 163.179 
3389 290 322.635 
3390 58 78.547 
3391 16 18.2742 
3392 34 102.426 
3393 36 90.0411 
3394 8 28.7234 
3395 69 80.0715 
3396 207 160.703 
3397 234 214.371 
3398 3 44.8705 
3399 322 61.2904 
3400 49 87.2972 
3401 25 3.91054 
3402 125 95.244 
3403 94 133.517 
3404 2 42.1919 
3405 69 205.386 
3406 96 88.3526 
3407 4 46.8616 
3408 144 154.752 
3409 97 51.3732 
3410 16 79.694 
3411 14 110.254 
3412 45 -15.8649 
3413 120 91.1639 
3414 45 51.5086 
3415 117 126.361 
3416 84 68.5354 
3417 21 31.3709 
3418 82 81.535 
3419 27 63.2813 
3420 148 104.525 
3421 293 151.29 
3422 9 152.534 
3423 37 96.3093 
3424 79 115.052 
3425 1 8.4704 
3426 148 121.399 
3427 276 165.025 
3428 401 304.578 
3429 160 125.098 
3430 108 135.158 
3431 96 70.6382 
3432 28 122.532 
3433 190 139.315 
3434 16 98.4194 
3435 322 252.83 
3436 63 36.4982 
3437 15 29.6639 
3438 70 84.497 
3439 265 94.7606 
3440 156 72.1628 
3441 33 38.3116 
3442 108 170.949 
3443 93 105.017 
3444 55 122.288 
3445 21 111.76 
3446 14 73.8424 
3447 25 101.234 
3448 7 72.9531 
3449 53 87.3523 
3450 74 147.847 
3451 6 47.0486 
3452 310 146.472 
3453 95 121.232 
3454 37 69.905 
3455 128 190.626 
3456 256 137.142 
3457 3 -57.9146 
3458 74 79.704 
3459 31 153.539 
3460 3 47.7819 
3461 340 104.066 
3462 37 -47.431 
3463 254 173.68 
3464 7 105.545 
3465 296 211.706 
3466 123 162.498 
3467 60 48.8189 
3468 3 39.2955 
3469 12 57.9383 
3470 7 66.3965 
3471 122 120.483 
3472 288 90.6336 
3473 7 25.1532 
3474 250 76.4111 
3475 7 90.7419 
3476 417 246.066 
3477 60 139.376 
3478 154 40.2813 
3479 98 171.06 
3480 200 86.1322 
3481 3 123.683 
3482 53 101.591 
3483 9 56.3938 
3484 51 45.5112 
3485 79 53.1093 
3486 192 80.8298 
3487 24 8.15793 
3488 87 32.6919 
3489 106 113.691 
3490 14 42.0285 
3491 196 58.1461 
3492 37 -4.37108 
3493 169 164.408 
3494 108 79.1987 
3495 118 64.3641 
3496 33 228.117 
3497 164 187.469 
3498 30 52.5547 
3499 150 116.527 
3500 165 66.7857 
3501 6 74.2144 
3502 23 46.5033 
3503 42 164.513 
3504 28 43.4061 
3505 103 74.5075 
3506 49 41.8479 
3507 39 156.561 
3508 11 36.0731 
3509 87 65.2812 
3510 147 90.9149 
3511 181 101.344 
3512 139 106.602 
3513 106 249.625 
3514 43 113.05 
3515 27 40.6395 
3516 194 42.739 
3517 12 74.5738 
3518 195 146.703 
3519 22 76.8826 
3520 4 46.1722 
3521 188 209.528 
3522 36 185.443 
3523 297 124.204 
3524 28 48.0416 
3525 34 45.5905 
3526 96 126.63 
3527 95 52.0871 
3528 206 96.1542 
3529 0 7.68923 
3530 228 129.804 
3531 28 -127.243 
3532 156 136.57 
3533 123 123.857 
3534 162 82.3235 
3535 96 104.657 
3536 13 43.3598 
3537 355 163.004 
3538 107 65.1681 
3539 7 47.9026 
3540 193 148.572 
3541 185 111.746 
3542 70 134.57 
3543 8 36.7286 
3544 9 174.473 
3545 14 39.3131 
3546 432 250.7 
3547 329 162.708 
3548 217 61.212 
3549 13 30.0816 
3550 44 90.19 
3551 129 96.9212 
3552 104 76.777 
3553 77 65.9042 
3554 90 119.041 
3555 16 41.1164 
3556 40 36.5835 
3557 84 65.915 
3558 3 59.1092 
3559 321 207.264 
3560 144 67.2373 
3561 39 178.132 
3562 153 80.9342 
3563 63 100.166 
3564 236 218.086 
3565 140 71.7448 
3566 129 134.733 
3567 9 36.2351 
3568 76 209.245 
3569 63 148.74 
3570 184 142.217 
3571 7 103.641 
3572 3 53.4767 
3573 43 55.7156 
3574 3 80.1382 
3575 36 138.258 
3576 148 110.607 
3577 34 80.2989 
3578 42 169.336 
3579 27 53.8652 
3580 24 -1.56153 
3581 81 221.5 
3582 43 48.2313 
3583 4 35.008 
3584 86 140.983 
3585 81 110.732 
3586 25 73.5411 
3587 10 46.5861 
3588 128 182.875 
3589 5 57.2407 
3590 78 33.7195 
3591 14 67.5143 
3592 2 40.2994 
3593 185 78.1276 
3594 65 87.4895 
3595 12 45.369 
3596 12 74.2106 
3597 36 11.5614 
3598 103 304.764 
3599 136 138.809 
3600 30 163.53 
3601 12 150.635 
3602 206 101.381 
3603 539 130.778 
3604 42 111.188 
3605 42 30.1539 
3606 11 113.158 
3607 46 76.1954 
3608 15 48.7464 
3609 79 69.3004 
3610 11 112.692 
3611 194 163.44 
3612 9 29.2409 
3613 203 102.763 
3614 19 42.9503 
3615 115 46.1626 
3616 71 71.8047 
3617 10 95.7869 
3618 39 134.037 
3619 8 14.3117 
3620 47 -3.10881 
3621 70 71.9098 
3622 257 109.95 
3623 28 83.4802 
3624 29 69.4969 
3625 130 102.62 
3626 9 116.815 
3627 217 168.712 
3628 19 28.4085 
3629 31 131.907 
3630 346 185.736 
3631 21 144.889 
3632 48 91.9332 
3633 52 68.6247 
3634 33 149.805 
3635 0 12.9527 
3636 15 78.2851 
3637 68 78.6059 
3638 8 62.8556 
3639 14 53.6336 
3640 58 62.3979 
3641 54 -112.985 
3642 35 14.9658 
3643 212 188.504 
3644 151 102.232 
3645 5 115.381 
3646 20 67.6516 
3647 121 69.2534 
3648 110 35.8773 
3649 60 171.034 
3650 141 42.2235 
3651 16 47.6877 
3652 55 13.5139 
3653 95 53.3277 
3654 21 43.3555 
3655 185 79.3456 
3656 293 198.894 
3657 13 81.1157 
3658 11 149.093 
3659 2 57.346 
3660 53 44.2311 
3661 42 172.145 
3662 28 57.6729 
3663 30 121.651 
3664 14 11.4906 
3665 68 49.5316 
3666 201 132.896 
3667 6 38.2639 
3668 20 47.1974 
3669 70 142.67 
3670 35 135.382 
3671 83 69.6109 
3672 30 110.432 
3673 20 -9.54608 
3674 63 85.8605 
3675 32 74.8861 
3676 97 193.991 
3677 78 125.059 
3678 10 41.0735 
3679 296 103.722 
3680 16 123.235 
3681 17 41.3554 
3682 74 -6.18933 
3683 150 208.68 
3684 20 154.697 
3685 13 47.9958 
3686 47 134.246 
3687 225 76.6711 
3688 172 163.286 
3689 99 119.718 
3690 210 135.689 
3691 156 102.615 
3692 15 36.7522 
3693 326 168.801 
3694 198 114.456 
3695 14 17.8427 
3696 27 54.523 
3697 80 89.6027 
3698 222 205.102 
3699 297 127.126 
3700 112 121.854 
3701 117 99.459 
3702 2 23.2195 
3703 13 71.1913 
3704 8 22.3176 
3705 67 -56.237 
3706 27 66.1704 
3707 10 52.0112 
3708 157 103.576 
3709 40 -19.3384 
3710 194 75.3191 
3711 67 189.919 
3712 122 120.031 
3713 2 31.7267 
3714 309 124.06 
3715 64 137.453 
3716 89 67.2384 
3717 108 146.735 
3718 193 104.992 
3719 46 96.2203 
3720 38 142.112 
3721 35 110.728 
3722 3 23.2555 
3723 18 67.4495 
3724 301 185.039 
3725 42 70.0179 
3726 11 121.229 
3727 3 28.1835 
3728 239 166.625 
3729 67 80.0225 
3730 97 94.954 
3731 248 185.496 
3732 72 69.919 
3733 124 121.519 
3734 6 80.5798 
3735 30 77.1028 
3736 3 23.0933 
3737 119 250.538 
3738 49 -168.695 
3739 99 70.1872 
3740 144 85.301 
3741 39 171.16 
3742 97 147.308 
3743 7 41.7985 
3744 241 276.056 
3745 152 64.174 
3746 10 73.8483 
3747 116 29.8338 
3748 41 84.7628 
3749 0 38.0726 
3750 46 52.7461 
3751 41 75.8591 
3752 9 13.8073 
3753 100 206.301 
3754 139 181.653 
3755 2 111.28 
3756 15 25.3382 
3757 125 115.759 
3758 130 93.1152 
3759 93 110.708 
3760 99 274.806 
3761 67 131.453 
3762 23 -38.4148 
3763 67 124.977 
3764 174 40.8077 
3765 93 95.4646 
3766 195 121.591 
3767 7 44.8129 
3768 18 7.53299 
3769 0 8.15793 
3770 13 82.8727 
3771 12 57.2891 
3772 123 152.962 
3773 73 96.7353 
3774 4 96.1909 
3775 87 47.2654 
3776 183 122.054 
3777 11 25.2184 
3778 84 169.158 
3779 222 70.4435 
3780 43 -90.9223 
3781 105 92.9349 
3782 182 220.079 
3783 153 251.688 
3784 12 26.1639 
3785 211 122.84 
3786 54 43.064 
3787 11 35.4209 
3788 16 77.8602 
3789 248 185.155 
3790 255 127.556 
3791 54 30.6433 
3792 135 157.198 
3793 4 73.9034 
3794 41 -9.23723 
3795 22 77.8133 
3796 8 91.0742 
3797 179 134.14 
3798 75 117.408 
3799 36 71.057 
3800 82 136.095 
3801 56 63.3214 
3802 6 39.8542 
3803 0 12.8189 
3804 43 44.9641 
3805 110 100.308 
3806 225 178.754 
3807 129 77.4049 
3808 21 81.6621 
3809 175 154.917 
3810 185 100.85 
3811 11 11.2341 
3812 118 240.75 
3813 56 136.123 
3814 0 35.1614 
3815 6 38.6615 
3816 384 142.738 
3817 210 235.204 
3818 246 153.123 
3819 70 79.8976 
3820 215 132.004 
3821 45 130.516 
3822 121 106.643 
3823 30 65.0391 
3824 6 11.3516 
3825 25 80.1112 
3826 21 77.9273 
3827 272 200.848 
3828 18 95.3429 
3829 33 50.3524 
3830 78 97.4487 
3831 7 60.8503 
3832 145 98.0941 
3833 85 73.358 
3834 54 104.358 
3835 79 106.839 
3836 99 56.712 
3837 5 51.9308 
3838 97 50.7027 
3839 69 53.6545 
3840 9 62.0078 
3841 166 42.3975 
3842 42 56.8559 
3843 84 110.156 
3844 25 95.4543 
3845 66 36.9816 
3846 38 55.6382 
3847 43 148.621 
3848 100 55.0921 
3849 81 222.809 
3850 11 54.2787 
3851 208 47.0487 
3852 329 133.137 
3853 47 142.476 
3854 223 158.142 
3855 134 226.686 
3856 125 110.826 
3857 260 192.026 
3858 24 38.6527 
3859 10 41.3938 
3860 17 39.995 
3861 192 117.166 
3862 103 74.9866 
3863 211 153.575 
3864 31 85.889 
3865 16 141.604 
3866 131 91.4373 
3867 108 74.0058 
3868 9 54.9489 
3869 16 -8.21864 
3870 14 30.1588 
3871 72 57.3563 
3872 30 32.5384 
3873 110 94.2158 
3874 36 71.5937 
3875 101 88.2348 
3876 210 95.5841 
3877 0 8.49127 
3878 98 162.989 
3879 18 71.6436 
3880 157 186.354 
3881 109 54.2033 
3882 78 90.3248 
3883 232 159.974 
3884 63 139.687 
3885 127 75.6748 
3886 33 63.1987 
3887 27 63.6059 
3888 61 -1.00446 
3889 204 52.2167 
3890 63 134.808 
3891 0 29.4277 
3892 148 67.2031 
3893 20 49.7372 
3894 108 118.2 
3895 32 72.149 
3896 80 61.9661 
3897 29 100.697 
3898 24 38.2378 
3899 34 49.2651 
3900 137 193.436 
3901 47 17.8186 
3902 8 32.4461 
3903 18 24.3062 
3904 41 115.765 
3905 90 84.5383 
3906 175 85.0726 
3907 20 83.6702 
3908 110 116.753 
3909 159 227.345 
3910 27 82.463 
3911 131 59.1986 
3912 13 5.43941 
3913 109 107.817 
3914 13 25.4044 
3915 585 119.262 
3916 57 153.18 
3917 33 186.629 
3918 181 114.616 
3919 124 53.8941 
3920 24 36.2091 
3921 69 105.915 
3922 56 26.5557 
3923 10 49.005 
3924 79 94.4041 
3925 29 103.384 
3926 102 61.5375 
3927 36 13.357 
3928 7 22.1007 
3929 19 73.4128 
3930 126 75.1635 
3931 360 220.244 
3932 7 80.3109 
3933 5 21.4015 
3934 276 154.935 
3935 131 171.242 
3936 4 30.6147 
3937 37 117.845 
3938 439 78.9486 
3939 275 94.3947 
3940 75 70.0121 
3941 75 37.3036 
3942 371 214.683 
3943 236 131.281 
3944 50 53.8882 
3945 97 55.0453 
3946 57 64.994 
3947 198 154.574 
3948 186 90.2616 
3949 174 114.355 
3950 177 47.1018 
3951 135 94.7573 
3952 31 18.227 
3953 9 46.1785 
3954 156 178.994 
3955 67 53.1132 
3956 123 134.62 
3957 0 -0.696747 
3958 159 70.2981 
3959 0 38.7478 
3960 19 38.3632 
3961 293 207.547 
3962 25 96.2826 
3963 14 96.1423 
3964 24 182.96 
3965 69 77.2605 
3966 224 183.887 
3967 181 136.534 
3968 10 141.589 
3969 180 31.9269 
3970 52 90.0746 
3971 35 179.458 
3972 148 117.37 
3973 34 11.2525 
3974 9 87.3755 
3975 134 126.687 
3976 10 81.0298 
3977 18 176.782 
3978 153 165.402 
3979 113 157.774 
3980 48 68.438 
3981 79 196.105 
3982 9 83.8014 
3983 75 46.6571 
3984 150 178.646 
3985 0 7.06429 
3986 200 183.286 
3987 92 70.2844 
3988 194 85.6058 
3989 5 37.3365 
3990 4 31.5117 
3991 174 153.516 
3992 71 58.3352 
3993 75 109.536 
3994 115 31.4547 
3995 94 102.1 
3996 85 69.8536 
3997 96 262.113 
3998 2 66.2756 
3999 30 117.496 
4000 101 70.0219 
4001 22 55.4149 
4002 227 97.929 
4003 184 63.4291 
4004 25 19.9043 
4005 121 81.3914 
4006 98 145.106 
4007 179 37.8054 
4008 213 133.558 
4009 17 44.5613 
4010 109 99.0866 
4011 17 29.82 
4012 504 231.408 
4013 6 44.8442 
4014 33 124.359 
4015 6 87.2888 
4016 46 178.533 
4017 37 54.1959 
4018 49 90.9367 
4019 147 25.8307 
4020 11 254.392 
4021 93 97.419 
4022 138 76.3507 
4023 95 295.5 
4024 97 88.0077 
4025 81 213.742 
4026 0 29.9667 
4027 8 30.5762 
4028 7 33.2092 
4029 69 71.9027 
4030 89 216.079 
4031 29 136.761 
4032 139 120.058 
4033 59 54.8317 
4034 22 68.356 
4035 13 56.4973 
4036 174 131.877 
4037 14 31.2301 
4038 30 -13.3367 
4039 85 236.692 
4040 1 30.3359 
4041 51 108.015 
4042 9 70.4873 
4043 58 138.252 
4044 145 82.5315 
4045 5 42.1599 
4046 68 110.402 
4047 98 85.5121 
4048 24 29.5615 
4049 223 119.438 
4050 4 28.9181 
4051 26 -39.2356 
4052 15 146.714 
4053 19 15.7149 
4054 53 66.4586 
4055 58 48.393 
4056 15 47.6975 
4057 30 30.7646 
4058 33 87.1219 
4059 57 45.8966 
4060 154 99.4691 
4061 105 91.0274 
4062 6 88.4132 
4063 197 144.7 
4064 125 173.919 
4065 60 99.1742 
4066 38 113.238 
4067 16 91.1727 
4068 64 34.9707 
4069 41 120.264 
4070 84 181.983 
4071 65 285.627 
4072 2 43.8246 
4073 145 89.7475 
4074 10 29.3733 
4075 85 62.1153 
4076 2 45.4237 
4077 19 42.7177 
4078 62 178.128 
4079 84 69.0841 
4080 85 56.4315 
4081 180 110.894 
4082 14 36.2526 
4083 173 268.622 
4084 92 43.2948 
4085 98 70.136 
4086 266 138.127 
4087 307 134.996 
4088 12 53.1117 
4089 140 155.715 
4090 168 133.112 
4091 10 59.4588 
4092 9 44.2327 
4093 19 65.1045 
4094 97 101.287 
4095 95 119.238 
4096 65 63.776 
4097 330 143.675 
4098 9 67.269 
4099 22 84.5255 
4100 0 8.00169 
4101 132 107.498 
4102 6 46.9429 
4103 54 79.9327 
4104 100 107.65 
4105 121 104.511 
4106 95 102.503 
4107 210 86.3425 
4108 56 57.8299 
4109 112 59.9815 
4110 102 133.529 
4111 34 54.1275 
4112 15 -35.1304 
4113 25 81.6239 
4114 126 154.866 
4115 9 127.95 
4116 3 16.8327 
4117 25 56.2511 
4118 45 72.2526 
4119 42 31.5729 
4120 34 61.2097 
4121 174 187.111 
4122 266 158.066 
4123 510 157.352 
4124 36 27.159 
4125 6 62.2624 
4126 157 123.94 
4127 33 75.6873 
4128 26 -2.99625 
4129 89 52.21 
4130 43 44.9216 
4131 56 74.8988 
4132 246 183.045 
4133 306 130.361 
4134 222 18.4834 
4135 2 8.4704 
4136 158 134.707 
4137 283 84.075 
4138 251 125.953 
4139 65 57.8316 
4140 10 5.93285 
4141 18 49.2765 
4142 95 138.215 
4143 69 39.8183 
4144 54 170.089 
4145 188 119.625 
4146 90 101.589 
4147 179 200.182 
4148 25 38.5361 
4149 26 21.1055 
4150 44 120.412 
4151 116 222.484 
4152 118 137.627 
4153 217 186.034 
4154 42 18.3354 
4155 3 7.53412 
4156 106 94.5264 
4157 39 68.7105 
4158 64 130.361 
4159 111 87.2071 
4160 78 88.9849 
4161 30 56.9219 
4162 71 202.604 
4163 17 104.106 
4164 215 209.673 
4165 115 61.9686 
4166 62 87.2523 
4167 0 9.06925 
4168 40 89.4866 
4169 52 97.6763 
4170 23 36.5261 
4171 165 274.958 
4172 7 48.8218 
4173 147 209.051 
4174 278 182.057 
4175 51 125.53 
4176 10 46.0517 
4177 78 98.9831 
4178 288 147.958 
4179 199 163.576 
4180 36 34.9972 
4181 128 58.8331 
4182 138 177.438 
4183 74 98.3358 
4184 38 108.311 
4185 69 148.181 
4186 26 49.9834 
4187 16 62.6315 
4188 5 108.534 
4189 68 112.761 
4190 41 69.0791 
4191 84 150.333 
4192 23 6.75182 
4193 54 114.15 
4194 228 143.788 
4195 3 26.9728 
4196 70 92.7833 
4197 8 71.6383 
4198 42 44.158 
4199 32 42.5302 
4200 371 130.099 
4201 36 109.877 
4202 29 36.1698 
4203 19 121.109 
4204 16 143.997 
4205 23 53.1133 
4206 153 179.913 
4207 181 95.3239 
4208 139 52.7339 
4209 84 81.0186 
4210 278 146.203 
4211 139 90.5539 
4212 123 135.959 
4213 55 102.001 
4214 47 58.1245 
4215 124 163.867 
4216 0 47.4212 
4217 169 74.7681 
4218 40 124.303 
4219 14 118.305 
4220 29 78.1347 
4221 23 31.6893 
4222 150 88.3018 
4223 13 46.6906 
4224 94 15.5048 
4225 163 103.155 
4226 17 97.0912 
4227 153 59.926 
4228 157 55.7961 
4229 223 153.95 
4230 73 4.43522 
4231 49 79.8361 
4232 4 35.235 
4233 13 44.2441 
4234 22 66.187 
4235 267 60.5367 
4236 2 34.0778 
4237 58 33.4628 
4238 18 4.24043 
4239 0 15.7649 
4240 19 52.5583 
4241 20 57.8097 
4242 101 91.292 
4243 216 390.236 
4244 18 42.1899 
4245 159 77.7261 
4246 24 63.7605 
4247 128 70.153 
4248 76 66.5471 
4249 93 33.1123 
4250 54 63.7302 
4251 143 110.579 
4252 12 26.1014 
4253 18 3.09631 
4254 18 24.367 
4255 110 210.811 
4256 84 89.5237 
4257 20 71.7427 
4258 208 138.176 
4259 31 40.8257 
4260 78 177.166 
4261 101 78.6529 
4262 110 120.862 
4263 29 -18.8377 
4264 0 54.7056 
4265 119 267.195 
4266 24 51.825 
4267 0 35.4848 
4268 4 43.3379 
4269 29 36.6942 
4270 71 106.257 
4271 3 116.041 
4272 16 39.2056 
4273 43 124.76 
4274 95 73.7413 
4275 106 50.8332 
4276 80 129.924 
4277 251 78.6871 
4278 127 184.842 
4279 50 76.4927 
4280 89 32.2545 
4281 153 238.136 
4282 208 218.827 
4283 10 160.017 
4284 223 200.387 
4285 151 77.0937 
4286 67 71.6345 
4287 105 82.3564 
4288 23 125.347 
4289 23 48.359 
4290 4 56.4421 
4291 13 121.503 
4292 23 50.9186 
4293 11 144.895 
4294 9 54.3514 
4295 10 57.8122 
4296 397 287.494 
4297 82 41.0751 
4298 322 190.312 
4299 125 195.737 
4300 55 101.789 
4301 22 55.9247 
4302 229 44.023 
4303 14 98.2882 
4304 32 33.0745 
4305 16 51.2515 
4306 65 17.6212 
4307 3 38.7798 
4308 15 39.3144 
4309 32 33.9031 
4310 96 114.042 
4311 63 215.334 
4312 139 64.8107 
4313 15 108.979 
4314 48 70.3634 
4315 86 117.337 
4316 64 98.9197 
4317 88 69.3172 
4318 72 82.4481 
4319 17 76.9529 
4320 223 92.0066 
4321 63 115.66 
4322 1 22.7459 
4323 7 63.8157 
4324 77 42.2919 
4325 123 119.003 
4326 23 92.641 
4327 229 185.368 
4328 128 215.716 
4329 4 8.9501 
4330 38 95.0033 
4331 33 56.245 
4332 121 97.2438 
4333 37 86.9657 
4334 35 194.846 
4335 65 166.857 
4336 26 60.6551 
4337 152 128.597 
4338 95 85.1633 
4339 146 173.527 
4340 62 -12.9968 
4341 45 58.2825 
4342 54 198.775 
4343 15 34.8607 
4344 35 44.1439 
4345 42 104.119 
4346 68 65.6528 
4347 260 164.202 
4348 90 137.902 
4349 0 11.7196 
4350 6 31.8769 
4351 394 218.275 
4352 24 123.331 
4353 169 100.246 
4354 71 76.1073 
4355 5 51.5458 
4356 270 340.211 
4357 457 189.914 
4358 22 130.28 
4359 37 88.3748 
4360 71 160.036 
4361 43 93.3369 
4362 95 68.6569 
4363 140 171.581 
4364 206 53.7944 
4365 20 69.6187 
4366 199 82.3136 
4367 2 30.1111 
4368 270 159.323 
4369 309 187.595 
4370 44 53.6327 
4371 68 123.184 
4372 42 15.6123 
4373 33 52.9945 
4374 27 44.2086 
4375 21 96.1835 
4376 54 114.382 
4377 49 77.6315 
4378 37 -8.94777 
4379 205 121.023 
4380 48 67.8623 
4381 111 139.234 
4382 0 4.93753 
4383 91 104.473 
4384 19 49.8419 
4385 102 115.18 
4386 93 66.2051 
4387 202 163.37 
4388 276 175.397 
4389 179 109.106 
4390 268 148.242 
4391 279 17.1714 
4392 359 159.859 
4393 36 55.5461 
4394 123 100.085 
4395 73 269.979 
4396 13 36.5186 
4397 70 193.697 
4398 136 72.5563 
4399 30 -46.4315 
4400 19 114.96 
4401 72 74.9927 
4402 171 139.323 
4403 29 37.7572 
4404 12 46.9319 
4405 100 59.2831 
4406 87 106.849 
4407 188 134.11 
4408 2 51.0275 
4409 24 102.109 
4410 185 69.9463 
4411 89 102.652 
4412 57 65.9366 
4413 19 20.6949 
4414 168 116.93 
4415 256 42.6035 
4416 58 73.7579 
4417 38 109.562 
4418 43 97.7638 
4419 31 24.4013 
4420 27 30.8778 
4421 39 94.0248 
4422 13 38.3895 
4423 31 47.527 
4424 424 99.5181 
4425 22 41.0757 
4426 35 45.4252 
4427 162 103.738 
4428 38 -30.9879 
4429 186 158.861 
4430 7 2.07347 
4431 121 112.286 
4432 161 113.337 
4433 187 76.6305 
4434 470 215.061 
4435 94 113.243 
4436 72 127.105 
4437 10 51.132 
4438 23 25.7427 
4439 18 -21.2627 
4440 180 179.734 
4441 480 54.8413 
4442 177 94.7569 
4443 146 144.121 
4444 32 139.176 
4445 26 171.063 
4446 6 27.7395 
4447 176 99.5407 
4448 256 128.501 
4449 96 109.447 
4450 98 46.3049 
4451 189 100.992 
4452 1 11.3607 
4453 35 124.707 
4454 153 53.4613 
4455 23 60.0439 
4456 134 136.584 
4457 93 81.6621 
4458 3 15.5941 
4459 212 119.139 
4460 123 120.434 
4461 30 90.8339 
4462 36 29.2672 
4463 2 19.3828 
4464 151 45.2182 
4465 88 109.73 
4466 18 -4.58814 
4467 40 146.562 
4468 105 59.8911 
4469 42 76.9248 
4470 25 99.0849 
4471 97 111.893 
4472 7 72.1344 
4473 5 68.6949 
4474 423 203.741 
4475 14 70.3391 
4476 78 61.496 
4477 97 137.914 
4478 554 174.38 
4479 19 48.5445 
4480 63 72.3743 
4481 131 120.817 
4482 46 28.5191 
4483 74 -27.759 
4484 13 15.4314 
4485 71 72.7558 
4486 118 105.35 
4487 57 42.4579 
4488 62 53.2755 
4489 90 108.188 
4490 48 87.6121 
4491 7 27.1292 
4492 173 105.969 
4493 298 166.143 
4494 219 102.613 
4495 71 73.8647 
4496 289 104.387 
4497 213 119.111 
4498 31 65.287 
4499 254 150.343 
4500 178 90.3984 
4501 223 137.825 
4502 7 3.94074 
4503 22 55.3199 
4504 368 174.156 
4505 219 45.304 
4506 11 91.893 
4507 76 32.8664 
4508 0 25.8215 
4509 48 79.8099 
4510 69 84.2957 
4511 16 30.6165 
4512 63 38.6704 
4513 20 1.99256 
4514 134 332.444 
4515 155 89.0944 
4516 46 48.8828 
4517 32 101.924 
4518 138 93.6278 
4519 134 68.5407 
4520 272 105.212 
4521 1 67.5953 
4522 22 35.5209 
4523 110 101.302 
4524 233 76.0462 
terror=5432.73
l1pen=31.6499
l2pen=257.035
-5.73953 0.349567 -9.99476 9.97216 -0.677344 4.91653 
F= -5.73953* ( (HH /  (AT - (-36.7367)) ) ) +0.349567* ( ( ( (HH * AT) ) )^(1/2) ) -9.99476* ( (DL - (12.5053))  -  ( ( (DL - (12.5053)) ) ) ) +9.97216* ( ( ( ( ( ( ( ( (AT) ) )^(1/2) ) ) ) ) ) ) -0.677344* (DL - (12.5053)) +4.91653* ( (DL)^(1/2) ) 
1 4 0 2 5 0 -36.7367 3 7 7 1 8 3 3 0 2 0 0 8 0 2 5 1 12.5053 1 1 5 1 12.5053 5 3 1 1 2 3 3 8 4 5 0 5 1 12.5053 0 0 0 0 0 0 0 3 8 0 1 4 4 8 3 8 7 
0 0 0 2 0 2 1 0 0 0 0 0 0 0 0 2 0 2 0 0 0 0 2 1 0 0 0 2 1 0 0 0 0 0 0 0 0 0 0 2 0 2 1 0 0 0 0 0 0 0 0 0 0 2 0 0 0 0 0 0 
