0 10 56.1647 
1 78 163.037 
2 16 43.9418 
3 136 168.113 
4 13 55.6081 
5 2 36.4993 
6 98 52.8117 
7 37 119.449 
8 111 105.701 
9 87 92.3165 
10 149 182.829 
11 5 36.3071 
12 8 124.95 
13 76 104.79 
14 151 47.8418 
15 139 52.9907 
16 51 50.9331 
17 252 141.256 
18 89 57.4106 
19 164 209.455 
20 79 61.594 
21 41 67.947 
22 21 43.2164 
23 67 56.552 
24 63 86.8455 
25 144 123.632 
26 12 85.2728 
27 14 54.9706 
28 208 100.009 
29 218 455.824 
30 26 77.2309 
31 19 46.703 
32 180 136.743 
33 14 58.8849 
34 449 154.122 
35 283 142.481 
36 225 105.357 
37 80 45.3379 
38 234 68.4458 
39 23 60.1003 
40 33 45.402 
41 7 49.7944 
42 138 156.038 
43 265 266.354 
44 251 187.947 
45 7 49.9953 
46 50 108.624 
47 162 188.326 
48 17 42.5861 
49 2 39.1196 
50 228 124.123 
51 28 91.0085 
52 433 367.231 
53 134 125.526 
54 114 112.376 
55 47 68.3833 
56 206 97.0361 
57 283 53.5679 
58 21 56.8739 
59 472 221.216 
60 139 102.388 
61 40 57.6437 
62 43 70.1812 
63 37 81.5232 
64 27 73.249 
65 36 65.2393 
66 104 95.4913 
67 41 173.038 
68 94 69.3129 
69 18 51.416 
70 21 52.4441 
71 163 71.3218 
72 7 125.498 
73 64 145.515 
74 134 125.422 
75 12 47.5062 
76 209 184.979 
77 96 49.9028 
78 29 46.4028 
79 236 85.4506 
80 22 47.1991 
81 10 47.4215 
82 121 116.641 
83 5 95.2932 
84 47 163.026 
85 223 160.047 
86 0 34.8887 
87 83 72.4113 
88 54 88.7755 
89 50 62.2242 
90 3 39.1355 
91 137 121.433 
92 57 105.365 
93 15 97.7765 
94 93 185.295 
95 164 156.046 
96 41 70.1625 
97 31 71.2293 
98 178 114.229 
99 4 48.2611 
100 90 59.4688 
101 195 80.1816 
102 251 67.0989 
103 147 137.939 
104 74 73.6918 
105 33 67.6636 
106 21 62.4278 
107 179 65.9447 
108 102 67.2865 
109 111 92.4302 
110 26 86.326 
111 132 74.5149 
112 12 75.0715 
113 211 117.645 
114 197 70.0716 
115 228 167.43 
116 128 128.98 
117 34 48.6163 
118 20 54.2301 
119 5 44.6195 
120 163 145.344 
121 23 45.6253 
122 82 64.7353 
123 85 78.2026 
124 47 140.839 
125 32 82.0457 
126 131 54.2512 
127 13 68.2408 
128 38 49.9904 
129 128 66.872 
130 72 53.8529 
131 71 123.516 
132 117 52.1441 
133 24 46.6164 
134 20 55.7726 
135 371 193.315 
136 55 146.853 
137 117 72.3563 
138 213 95.5636 
139 4 42.6561 
140 0 40.8457 
141 41 273.826 
142 44 116.876 
143 39 56.3098 
144 259 112.315 
145 45 53.7528 
146 122 150.774 
147 102 85.0715 
148 322 63.979 
149 42 156.08 
150 35 62.5052 
151 7 84.3921 
152 155 200.789 
153 27 67.0884 
154 3 64.7592 
155 121 118.534 
156 3 56.1297 
157 251 167.666 
158 232 209.268 
159 56 74.5716 
160 23 58.7745 
161 30 53.6977 
162 41 63.1444 
163 17 51.4002 
164 217 102.07 
165 40 57.4846 
166 76 60.0598 
167 284 184.982 
168 43 86.4989 
169 16 35.1889 
170 230 109.804 
171 8 37.3131 
172 37 144.91 
173 14 46.3741 
174 13 46.022 
175 166 61.5065 
176 269 179.836 
177 146 164.436 
178 207 101.374 
179 3 40.0111 
180 20 40.8463 
181 36 80.2774 
182 180 184.555 
183 400 253.794 
184 5 73.881 
185 136 67.7972 
186 19 92.6319 
187 244 98.2353 
188 21 44.7792 
189 5 46.1718 
190 331 224.267 
191 18 87.9684 
192 40 55.5148 
193 1 111.824 
194 4 43.9598 
195 65 68.0807 
196 53 75.0797 
197 76 60.7121 
198 70 111.468 
199 366 264.255 
200 89 64.1869 
201 63 128.218 
202 3 34.2601 
203 135 77.5332 
204 76 138.489 
205 54 116.181 
206 33 59.0708 
207 51 84.886 
208 74 121.093 
209 128 181.507 
210 119 129.483 
211 160 180.055 
212 60 120.206 
213 75 58.1933 
214 35 68.9946 
215 91 72.457 
216 42 250.519 
217 77 188.672 
218 121 46.2918 
219 44 70.2937 
220 29 87.9208 
221 18 46.706 
222 10 68.3185 
223 21 39.264 
224 43 42.6903 
225 19 64.7153 
226 98 68.7804 
227 3 64.7995 
228 11 43.0197 
229 165 101.453 
230 86 46.9146 
231 3 147.486 
232 65 94.2659 
233 177 87.3778 
234 44 87.0289 
235 13 214.568 
236 63 79.619 
237 18 53.359 
238 17 86.6659 
239 5 42.9159 
240 514 351.234 
241 114 78.3945 
242 153 85.1524 
243 28 148.114 
244 277 174.705 
245 13 45.1734 
246 43 55.3475 
247 18 52.6625 
248 379 63.8066 
249 105 193.19 
250 33 62.2093 
251 37 49.4603 
252 195 176.882 
253 109 152.228 
254 36 105.785 
255 4 55.14 
256 8 43.0015 
257 262 245.237 
258 219 52.4659 
259 2 50.8764 
260 21 103.673 
261 166 130.301 
262 33 44.2068 
263 163 78.894 
264 29 77.5268 
265 81 120.926 
266 441 109.376 
267 42 56.6738 
268 443 60.4223 
269 8 52.1949 
270 189 65.2615 
271 278 102.47 
272 17 41.9288 
273 50 43.2199 
274 188 46.9532 
275 228 101.065 
276 37 158.279 
277 245 56.6382 
278 11 40.0653 
279 63 75.4125 
280 59 41.2454 
281 199 96.7701 
282 114 161.983 
283 4 53.2301 
284 69 64.811 
285 85 54.6006 
286 128 84.2613 
287 46 63.8698 
288 30 184.333 
289 36 108.975 
290 58 64.7671 
291 68 90.2171 
292 65 45.0872 
293 87 135.759 
294 256 145.188 
295 582 331.892 
296 117 147.001 
297 247 91.412 
298 119 128.558 
299 112 131.051 
300 9 57.9432 
301 80 193.938 
302 32 71.1597 
303 27 49.1477 
304 9 45.7369 
305 2 95.6769 
306 95 66.5654 
307 36 38.9231 
308 390 275.832 
309 233 142.188 
310 365 159.217 
311 14 59.1888 
312 235 199.663 
313 349 286.316 
314 12 70.7453 
315 121 62.704 
316 154 67.6053 
317 128 151.241 
318 67 62.2015 
319 36 74.3961 
320 4 52.7922 
321 83 52.4016 
322 40 56.0255 
323 176 229.016 
324 112 109.525 
325 100 153.463 
326 4 34.2601 
327 6 48.8142 
328 151 97.2058 
329 5 51.7999 
330 25 55.5823 
331 48 144.916 
332 183 90.415 
333 2 51.242 
334 25 82.5123 
335 111 172.719 
336 3 53.3789 
337 190 162.605 
338 124 49.3717 
339 347 176.681 
340 33 95.1508 
341 0 62.7885 
342 87 51.9466 
343 232 95.6267 
344 162 130.133 
345 80 134.489 
346 183 86.7002 
347 3 107.509 
348 147 78.8549 
349 142 47.0176 
350 181 47.2678 
351 20 46.0525 
352 190 108.446 
353 68 73.3757 
354 205 120.297 
355 13 97.8547 
356 88 89.8191 
357 7 95.09 
358 102 52.4982 
359 93 80.5416 
360 0 35.9331 
361 43 49.353 
362 242 207.645 
363 16 46.5542 
364 7 118.879 
365 209 86.1401 
366 45 64.6601 
367 11 61.0797 
368 205 54.0612 
369 34 85.4999 
370 74 49.9904 
371 88 47.6069 
372 48 93.7923 
373 125 130.492 
374 6 42.055 
375 17 55.2816 
376 416 222.92 
377 86 105.383 
378 69 45.9212 
379 11 85.0566 
380 421 91.6386 
381 82 57.9491 
382 25 51.9749 
383 11 47.6128 
384 25 55.8082 
385 105 46.8361 
386 57 58.3824 
387 25 62.9055 
388 25 40.011 
389 12 74.036 
390 366 263.579 
391 31 155.68 
392 61 108.187 
393 96 93.0108 
394 54 124.339 
395 30 161.579 
396 5 47.9908 
397 317 52.2787 
398 10 202.933 
399 83 75.9852 
400 285 125.173 
401 223 260.795 
402 14 79.1718 
403 112 114.585 
404 6 51.3147 
405 71 68.732 
406 83 156.543 
407 73 53.3294 
408 29 61.3064 
409 6 50.5584 
410 113 68.4214 
411 77 143.965 
412 136 55.6872 
413 60 68.2135 
414 54 58.9702 
415 15 52.0072 
416 22 50.1117 
417 120 62.0068 
418 37 57.553 
419 84 59.2328 
420 153 107.421 
421 9 49.8333 
422 111 163.733 
423 80 231.134 
424 15 55.8511 
425 72 113.334 
426 21 39.6545 
427 34 119.252 
428 397 146.955 
429 17 73.5139 
430 4 34.2601 
431 48 66.8245 
432 39 93.6846 
433 10 44.1283 
434 14 57.7751 
435 13 85.2475 
436 59 60.3825 
437 250 237.07 
438 14 86.7722 
439 6 61.6167 
440 9 58.2139 
441 338 134.563 
442 161 142.544 
443 276 569.716 
444 29 44.2268 
445 39 44.4829 
446 84 49.7041 
447 130 94.167 
448 67 75.809 
449 9 42.5861 
450 5 49.1696 
451 101 243.006 
452 56 43.8098 
453 132 195.052 
454 67 82.6095 
455 239 162.092 
456 168 50.3088 
457 55 124.749 
458 209 99.2791 
459 43 124.701 
460 26 55.2531 
461 239 259.721 
462 44 113.125 
463 323 70.1556 
464 100 175.173 
465 22 52.0134 
466 49 41.8138 
467 76 126.241 
468 5 47.4618 
469 21 43.8957 
470 5 43.2233 
471 227 73.5396 
472 156 78.9102 
473 158 51.8713 
474 60 161.44 
475 0 35.4803 
476 15 47.3282 
477 30 82.784 
478 56 82.5105 
479 50 75.1221 
480 5 112.285 
481 8 86.6402 
482 195 72.4837 
483 258 198.618 
484 3 34.8887 
485 125 140.697 
486 136 238.373 
487 276 138.937 
488 39 55.0845 
489 244 66.8294 
490 219 90.0388 
491 25 71.369 
492 6 46.3746 
493 121 46.9208 
494 23 55.6206 
495 52 83.2515 
496 191 228.069 
497 13 79.6162 
498 95 72.9652 
499 75 96.8479 
500 111 138.037 
501 15 57.1124 
502 12 89.3953 
503 108 76.0008 
504 88 107.321 
505 3 35.6373 
506 31 57.5233 
507 174 304.209 
508 4 39.7462 
509 187 107.719 
510 11 35.4803 
511 313 184.543 
512 368 229.925 
513 800 220.909 
514 122 49.9283 
515 19 66.1943 
516 196 111.685 
517 100 153.417 
518 49 46.0735 
519 1 34.2601 
520 115 174.13 
521 111 74.6011 
522 121 88.3665 
523 228 93.8252 
524 26 98.3755 
525 13 64.5463 
526 48 51.7881 
527 113 82.8075 
528 25 108.385 
529 162 135.985 
530 35 59.8586 
531 125 58.3161 
532 10 46.7434 
533 100 89.6522 
534 52 69.0968 
535 461 76.8101 
536 73 218.201 
537 89 154.245 
538 1 37.3131 
539 17 54.7569 
540 64 216.199 
541 102 75.3039 
542 488 171.28 
543 119 90.1503 
544 187 105.927 
545 393 212.774 
546 88 58.3734 
547 56 77.5865 
548 27 38.3911 
549 10 48.9217 
550 83 65.3386 
551 8 57.0606 
552 251 199.423 
553 48 140.653 
554 128 285.68 
555 158 132.421 
556 108 70.665 
557 183 143.977 
558 39 78.0298 
559 3 46.4377 
560 18 72.1655 
561 0 34.2601 
562 28 73.1828 
563 13 76.0725 
564 26 96.9441 
565 40 68.1761 
566 28 69.9186 
567 25 59.6784 
568 98 60.6772 
569 31 59.5426 
570 62 92.3599 
571 84 94.47 
572 275 207.771 
573 5 39.9937 
574 13 48.1627 
575 31 48.4244 
576 34 118.27 
577 151 118.955 
578 62 137.515 
579 12 48.4227 
580 183 71.6781 
581 146 95.5574 
582 43 126.486 
583 0 35.1889 
584 8 45.1733 
585 899 344.67 
586 114 234.346 
587 261 73.6694 
588 17 73.7804 
589 7 41.5519 
590 143 53.4757 
591 119 58.2773 
592 131 63.3234 
593 65 62.2541 
594 23 212.42 
595 23 39.6545 
596 74 52.3831 
597 30 54.9217 
598 5 47.8012 
599 30 62.9905 
600 21 38.305 
601 49 55.8318 
602 81 112.867 
603 29 63.8127 
604 190 101.137 
605 94 183.746 
606 12 67.1478 
607 94 57.115 
608 96 48.6164 
609 29 122.621 
610 20 82.185 
611 61 61.8834 
612 166 66.2634 
613 88 38.3912 
614 208 172.819 
615 131 345.374 
616 25 50.3118 
617 16 80.8256 
618 128 105.045 
619 179 64.2944 
620 153 151.476 
621 124 60.5099 
622 22 50.6564 
623 19 45.8468 
624 134 70.1866 
625 179 233.73 
626 21 136.556 
627 226 98.1198 
628 0 35.1889 
629 122 238.309 
630 143 73.9585 
631 0 37.3131 
632 74 139.548 
633 14 77.5289 
634 62 54.7907 
635 10 45.7315 
636 212 53.6951 
637 126 94.0241 
638 15 34.8887 
639 21 58.2862 
640 8 34.5793 
641 42 47.6128 
642 111 246.824 
643 23 59.0769 
644 85 40.4593 
645 22 86.1754 
646 147 50.1691 
647 320 257.935 
648 265 64.3943 
649 34 58.9524 
650 25 52.4376 
651 70 147.864 
652 105 63.1048 
653 77 86.7929 
654 183 102.163 
655 32 55.5473 
656 49 78.48 
657 184 54.2993 
658 272 268.125 
659 171 53.444 
660 514 168.133 
661 81 67.2322 
662 78 128.592 
663 27 48.711 
664 32 50.0505 
665 36 49.882 
666 30 38.5439 
667 44 164.559 
668 12 44.6261 
669 145 75.9483 
670 72 125.643 
671 40 54.6931 
672 27 56.0948 
673 0 39.1353 
674 10 51.485 
675 1193 448.162 
676 31 127.901 
677 4 59.9027 
678 358 71.7058 
679 16 35.4803 
680 25 64.4291 
681 49 311.042 
682 1 37.8096 
683 9 57.0145 
684 144 60.2741 
685 16 55.0847 
686 44 98.8874 
687 193 138.737 
688 147 220.848 
689 1 36.3071 
690 30 62.0217 
691 122 192.129 
692 109 40.6402 
693 1 37.0345 
694 168 54.9467 
695 41 67.6395 
696 0 40.0653 
697 30 38.655 
698 359 252.3 
699 62 57.054 
700 13 44.2267 
701 240 107.303 
702 300 196.274 
703 30 85.6095 
704 249 229.203 
705 46 54.7356 
706 20 78.1324 
707 47 93.2374 
708 6 38.9231 
709 16 53.4612 
710 11 37.542 
711 21 70.0649 
712 12 83.775 
713 39 68.9964 
714 61 92.3797 
715 87 84.2249 
716 33 62.3991 
717 4 49.8165 
718 93 62.1611 
719 22 86.1384 
720 323 126.759 
721 9 69.7434 
722 27 54.6442 
723 147 71.8017 
724 9 39.3504 
725 12 114.253 
726 83 134.762 
727 87 59.2821 
728 208 165.465 
729 2 43.063 
730 85 86.338 
731 139 58.985 
732 186 127.361 
733 192 131.18 
734 74 96.9589 
735 116 76.5353 
736 255 81.4094 
737 0 36.039 
738 34 95.9554 
739 391 52.5827 
740 40 51.5918 
741 40 63.2225 
742 17 113.594 
743 1 95.7285 
744 31 53.1138 
745 41 68.9295 
746 13 36.2202 
747 62 41.8902 
748 4 88.7339 
749 229 89.0162 
750 592 239.568 
751 52 73.3398 
752 78 125.18 
753 12 40.4296 
754 33 44.0898 
755 38 55.5484 
756 527 214.311 
757 72 71.2844 
758 23 62.9819 
759 117 157.884 
760 328 169.72 
761 148 87.3519 
762 473 262.789 
763 205 89.7726 
764 33 111.964 
765 16 39.8382 
766 43 100.158 
767 224 205.077 
768 110 156.275 
769 21 48.5407 
770 200 100.778 
771 28 42.1151 
772 93 84.2935 
773 59 40.0225 
774 217 83.8272 
775 220 94.8702 
776 288 231.666 
777 46 47.8226 
778 27 58.3824 
779 26 81.3615 
780 53 42.1163 
781 2 59.4682 
782 5 66.8748 
783 300 175.991 
784 9 51.8703 
785 395 213.653 
786 6 44.2298 
787 333 129.942 
788 37 106.095 
789 41 43.3858 
790 61 101.109 
791 28 52.9666 
792 341 202.186 
793 11 46.4846 
794 14 50.2355 
795 20 63.4286 
796 478 202.501 
797 55 62.2975 
798 47 56.8607 
799 9 258.564 
800 241 96.5131 
801 134 75.9943 
802 8 40.5558 
803 216 166.779 
804 30 60.3279 
805 34 102.252 
806 15 99.7294 
807 9 71.2735 
808 137 137.751 
809 4 169.649 
810 362 115.235 
811 18 42.8757 
812 140 141.934 
813 72 105.186 
814 21 136.2 
815 12 60.4551 
816 63 71.3219 
817 23 62.2679 
818 2 51.0602 
819 22 47.1785 
820 31 58.3484 
821 87 85.1792 
822 26 95.6998 
823 174 53.5331 
824 0 42.2694 
825 176 144.145 
826 596 428.502 
827 56 85.7725 
828 49 57.6382 
829 49 99.9375 
830 7 43.7423 
831 0 34.2601 
832 62 47.9905 
833 42 36.4993 
834 13 130.671 
835 187 120.06 
836 76 78.3983 
837 20 128.458 
838 13 47.927 
839 20 58.3311 
840 73 68.3026 
841 198 105.297 
842 11 47.1442 
843 3 57.4855 
844 149 209.316 
845 89 43.3873 
846 165 188.629 
847 38 57.7896 
848 273 244.219 
849 145 64.6115 
850 326 64.8129 
851 29 47.0724 
852 40 44.4867 
853 70 146.63 
854 221 178.38 
855 19 55.8706 
856 46 78.0837 
857 24 51.3303 
858 230 107.267 
859 344 292.506 
860 285 259.169 
861 147 204.736 
862 704 216.886 
863 85 42.217 
864 9 121.774 
865 38 167.497 
866 13 56.4649 
867 51 79.9286 
868 39 122.839 
869 184 205.828 
870 34 69.3994 
871 192 92.3853 
872 79 216.842 
873 102 46.9263 
874 19 91.5231 
875 16 48.7106 
876 94 169.24 
877 42 46.1163 
878 42 69.5508 
879 40 79.3852 
880 12 43.7016 
881 216 137.549 
882 312 71.5718 
883 345 250.123 
884 46 59.3967 
885 108 115.754 
886 151 112.878 
887 25 100.403 
888 46 87.6952 
889 46 55.6205 
890 13 50.8974 
891 38 56.5018 
892 8 100.845 
893 6 49.3382 
894 23 38.7059 
895 137 185.542 
896 71 64.1095 
897 82 152.306 
898 62 145.323 
899 8 47.8059 
900 55 111.436 
901 21 69.0173 
902 29 34.2601 
903 117 124.364 
904 204 92.425 
905 282 135.461 
906 142 157.096 
907 4 42.3762 
908 32 60.3012 
909 63 149.478 
910 8 61.5595 
911 104 152.284 
912 206 139.051 
913 61 120.364 
914 113 43.1799 
915 149 180.942 
916 99 87.4705 
917 293 165.3 
918 25 139.082 
919 83 87.6039 
920 147 81.1922 
921 182 114.049 
922 119 123.512 
923 28 66.9045 
924 94 48.2512 
925 233 135.145 
926 273 97.1155 
927 24 75.8085 
928 0 38.3912 
929 17 34.8887 
930 48 118.97 
931 377 194.569 
932 10 75.8628 
933 339 110.838 
934 124 92.4079 
935 45 62.5395 
936 12 48.3535 
937 22 78.9916 
938 75 114.707 
939 7 48.3925 
940 292 102.787 
941 109 119.25 
942 6 46.0297 
943 212 113.431 
944 132 191.211 
945 159 237.793 
946 85 200.739 
947 162 93.6996 
948 38 42.518 
949 97 92.2213 
950 350 164.924 
951 87 67.84 
952 137 140.945 
953 37 134.514 
954 30 50.6882 
955 26 147.881 
956 83 43.9418 
957 60 50.6873 
958 8 45.1858 
959 6 46.7215 
960 197 143.687 
961 124 148.668 
962 43 51.0148 
963 204 54.8347 
964 182 122.196 
965 32 51.3183 
966 22 59.2301 
967 118 108.315 
968 6 39.4591 
969 34 78.3026 
970 62 59.491 
971 30 52.1546 
972 115 162.583 
973 40 48.423 
974 201 54.1368 
975 26 53.3971 
976 44 87.5413 
977 81 268.481 
978 79 95.5629 
979 31 41.0213 
980 39 85.9604 
981 67 130.06 
982 119 187.023 
983 6 156.927 
984 59 134.335 
985 19 65.5614 
986 37 57.5793 
987 52 95.7671 
988 213 69.0244 
989 25 89.9832 
990 108 192.381 
991 220 97.9048 
992 29 63.9266 
993 176 93.0936 
994 353 225.744 
995 496 401.215 
996 201 101.578 
997 57 72.9859 
998 163 119.032 
999 125 81.5315 
1000 43 48.4558 
1001 366 301.27 
1002 225 159.172 
1003 69 51.9177 
1004 183 221.451 
1005 1 51.5268 
1006 29 49.8759 
1007 21 88.6827 
1008 8 55.3502 
1009 43 49.7054 
1010 103 62.0096 
1011 113 162.696 
1012 19 56.6743 
1013 109 59.8419 
1014 779 222.114 
1015 107 59.2289 
1016 531 228.233 
1017 29 83.3658 
1018 200 152.344 
1019 61 56.0605 
1020 323 200.772 
1021 226 54.9557 
1022 125 58.3499 
1023 188 137.99 
1024 36 40.2214 
1025 34 45.7956 
1026 3 34.2601 
1027 10 92.5196 
1028 9 70.8725 
1029 109 59.5129 
1030 25 89.8554 
1031 23 44.6209 
1032 28 54.7405 
1033 70 70.3282 
1034 46 82.5288 
1035 50 82.1536 
1036 14 79.4596 
1037 203 62.2917 
1038 11 51.9462 
1039 114 115.113 
1040 37 48.4477 
1041 196 150.584 
1042 186 135.21 
1043 6 35.1889 
1044 110 104.707 
1045 32 108.621 
1046 98 128.793 
1047 52 50.5762 
1048 30 188.456 
1049 61 57.148 
1050 45 66.2365 
1051 62 212.103 
1052 71 79.6671 
1053 142 91.8854 
1054 10 61.9674 
1055 52 51.3809 
1056 35 150.181 
1057 10 54.211 
1058 96 79.5665 
1059 87 94.7199 
1060 47 81.0349 
1061 116 73.5022 
1062 102 141.906 
1063 26 85.6129 
1064 128 123.853 
1065 78 127.532 
1066 33 55.597 
1067 46 142.3 
1068 35 74.5045 
1069 158 79.5981 
1070 1 119.325 
1071 85 147.966 
1072 32 51.4901 
1073 81 251.861 
1074 61 108.997 
1075 217 67.0931 
1076 1 38.3912 
1077 0 35.7635 
1078 25 35.4803 
1079 124 177.666 
1080 72 71.8993 
1081 22 46.1198 
1082 10 48.3533 
1083 118 124.176 
1084 18 34.2601 
1085 87 76.3195 
1086 125 98.1652 
1087 13 59.8749 
1088 67 61.1312 
1089 19 163.843 
1090 60 94.4997 
1091 87 81.7689 
1092 37 125.64 
1093 17 40.459 
1094 8 35.1889 
1095 37 70.9337 
1096 127 253.24 
1097 25 63.067 
1098 163 150.32 
1099 61 65.4479 
1100 17 35.4803 
1101 20 47.8014 
1102 81 78.0186 
1103 10 68.7594 
1104 63 62.1715 
1105 133 97.1466 
1106 194 63.4006 
1107 31 47.019 
1108 28 47.8061 
1109 20 48.3596 
1110 203 57.2032 
1111 95 104.841 
1112 71 73.9312 
1113 48 56.9542 
1114 43 55.1804 
1115 201 156.992 
1116 0 52.7013 
1117 28 61.3179 
1118 163 89.7567 
1119 475 151.263 
1120 5 43.8382 
1121 54 118.687 
1122 74 65.9964 
1123 25 41.7072 
1124 81 153.549 
1125 5 47.1785 
1126 42 66.243 
1127 134 97.5425 
1128 91 43.1798 
1129 84 115.033 
1130 82 46.9173 
1131 44 67.3141 
1132 39 68.2273 
1133 50 137.472 
1134 154 111.145 
1135 12 39.4591 
1136 27 65.0364 
1137 291 224.974 
1138 60 78.1931 
1139 67 67.9714 
1140 259 177.415 
1141 231 161.562 
1142 26 77.1226 
1143 81 119.432 
1144 206 66.1735 
1145 512 175.55 
1146 93 82.318 
1147 128 119.153 
1148 312 149.626 
1149 68 78.6808 
1150 5 61.1906 
1151 14 56.7004 
1152 9 84.7359 
1153 35 48.3013 
1154 17 36.8227 
1155 216 106.038 
1156 0 37.2868 
1157 6 38.0065 
1158 144 115.801 
1159 68 87.9378 
1160 32 193.8 
1161 53 84.1526 
1162 121 124.808 
1163 44 97.9889 
1164 169 124.698 
1165 9 50.257 
1166 132 214.301 
1167 116 82.8268 
1168 9 50.3174 
1169 60 71.2263 
1170 155 78.0725 
1171 91 163.971 
1172 518 195.798 
1173 102 84.2142 
1174 63 71.6695 
1175 350 135.995 
1176 232 54.4358 
1177 15 52.9188 
1178 447 128.416 
1179 187 201.976 
1180 17 48.3996 
1181 13 52.4953 
1182 49 62.0367 
1183 52 82.3825 
1184 60 83.6369 
1185 10 44.9674 
1186 113 116.151 
1187 24 69.7337 
1188 65 81.4215 
1189 9 56.1362 
1190 369 245.223 
1191 103 65.9933 
1192 168 119.473 
1193 139 106.521 
1194 4 55.8305 
1195 14 34.5793 
1196 33 83.6431 
1197 62 68.9009 
1198 67 53.986 
1199 17 42.6564 
1200 58 68.2362 
1201 61 37.5418 
1202 334 146.58 
1203 128 174.235 
1204 14 58.6988 
1205 238 242.295 
1206 392 191.158 
1207 120 94.0745 
1208 204 57.5164 
1209 106 123.531 
1210 120 67.155 
1211 244 94.2852 
1212 110 78.6839 
1213 148 153.244 
1214 10 91.5185 
1215 94 59.268 
1216 60 155.841 
1217 99 125.194 
1218 60 58.2122 
1219 6 42.4353 
1220 11 38.4434 
1221 21 50.9217 
1222 308 280.34 
1223 12 42.7583 
1224 281 211.119 
1225 130 212.402 
1226 45 66.7766 
1227 163 57.3179 
1228 23 74.9277 
1229 180 110.158 
1230 220 109.438 
1231 107 109.333 
1232 76 63.8109 
1233 29 72.9799 
1234 468 213.493 
1235 29 136.389 
1236 96 85.5067 
1237 90 46.4159 
1238 29 54.9218 
1239 218 63.3524 
1240 393 238.951 
1241 279 154.731 
1242 30 64.7902 
1243 40 91.5087 
1244 95 54.9223 
1245 161 100.041 
1246 20 117.633 
1247 34 69.172 
1248 9 121.035 
1249 509 173.693 
1250 6 47.1786 
1251 27 39.0651 
1252 18 41.4385 
1253 54 51.6162 
1254 106 118.513 
1255 13 68.4726 
1256 38 66.4369 
1257 5 39.3505 
1258 117 179.125 
1259 37 60.1154 
1260 40 48.3267 
1261 97 75.9495 
1262 67 137.418 
1263 204 124.368 
1264 229 44.337 
1265 21 69.5399 
1266 14 77.0124 
1267 37 63.0332 
1268 48 70.0879 
1269 201 169.468 
1270 135 70.0248 
1271 79 53.231 
1272 85 179.479 
1273 65 167.924 
1274 5 34.5793 
1275 6 51.7114 
1276 61 36.039 
1277 90 102.494 
1278 163 307.771 
1279 27 66.1766 
1280 22 41.7381 
1281 51 144.91 
1282 83 57.1808 
1283 5 37.0709 
1284 23 86.9404 
1285 30 141.881 
1286 56 110.449 
1287 20 35.7635 
1288 33 95.7575 
1289 4 41.1436 
1290 59 112.641 
1291 47 87.4987 
1292 9 60.0309 
1293 9 36.7705 
1294 152 50.4284 
1295 100 118.718 
1296 502 174.827 
1297 51 187.458 
1298 168 67.7684 
1299 8 37.5496 
1300 372 120.317 
1301 468 384.497 
1302 3 34.8887 
1303 66 96.2884 
1304 44 42.5327 
1305 81 65.6864 
1306 14 49.0992 
1307 101 183.007 
1308 52 47.0243 
1309 224 122.35 
1310 49 54.1532 
1311 77 72.1587 
1312 37 75.743 
1313 62 49.7298 
1314 147 146.865 
1315 91 134.691 
1316 353 213.863 
1317 249 131.02 
1318 74 66.0193 
1319 26 56.2053 
1320 39 152.014 
1321 74 86.5151 
1322 159 132.168 
1323 51 96.8577 
1324 18 41.6999 
1325 0 34.5793 
1326 143 186.914 
1327 166 114.907 
1328 73 73.957 
1329 35 169.072 
1330 57 81.51 
1331 260 102.013 
1332 4 35.4803 
1333 67 110.896 
1334 122 94.6586 
1335 207 78.1272 
1336 92 61.9721 
1337 158 142.03 
1338 134 92.0098 
1339 30 54.2618 
1340 45 48.2089 
1341 11 68.3791 
1342 33 49.7944 
1343 10 53.0529 
1344 17 43.1665 
1345 72 109.297 
1346 7 37.2868 
1347 297 194.802 
1348 67 89.1822 
1349 43 37.0345 
1350 6 44.5093 
1351 19 215.824 
1352 62 70.9601 
1353 374 164.109 
1354 104 93.2529 
1355 56 107.342 
1356 154 231.351 
1357 102 101.792 
1358 180 48.0435 
1359 136 79.6851 
1360 178 130.477 
1361 288 67.0492 
1362 220 223.318 
1363 50 49.7286 
1364 63 112.056 
1365 75 230.028 
1366 140 75.235 
1367 5 35.7635 
1368 60 60.1531 
1369 242 99.632 
1370 46 291.566 
1371 12 36.3071 
1372 180 305.415 
1373 159 97.6076 
1374 15 49.5232 
1375 219 154.335 
1376 54 45.4971 
1377 46 68.0258 
1378 384 538.899 
1379 20 44.2537 
1380 93 83.5066 
1381 140 177.008 
1382 220 157.213 
1383 215 282.26 
1384 14 60.0794 
1385 0 36.2203 
1386 10 47.8626 
1387 13 47.0357 
1388 57 73.6694 
1389 125 251.002 
1390 78 43.2235 
1391 56 62.2396 
1392 2 35.1889 
1393 18 41.3933 
1394 67 81.5383 
1395 25 39.8622 
1396 208 220.857 
1397 125 46.038 
1398 174 114.359 
1399 31 80.2044 
1400 0 73.2865 
1401 22 37.542 
1402 143 65.5404 
1403 238 167.436 
1404 41 39.0651 
1405 110 158.115 
1406 4 54.4859 
1407 442 256.296 
1408 117 96.6279 
1409 283 257.115 
1410 40 64.1597 
1411 157 57.4534 
1412 64 65.4201 
1413 102 120.864 
1414 34 45.7872 
1415 47 70.4507 
1416 56 72.8745 
1417 0 162.092 
1418 82 83.573 
1419 67 348.442 
1420 52 63.0514 
1421 20 52.6213 
1422 78 49.1669 
1423 6 45.1333 
1424 163 64.2687 
1425 174 63.3479 
1426 196 68.3081 
1427 12 61.16 
1428 86 105.678 
1429 8 39.0651 
1430 371 182.991 
1431 114 50.9543 
1432 75 91.7089 
1433 34 70.7879 
1434 40 48.9691 
1435 84 157.037 
1436 138 152.879 
1437 16 42.025 
1438 110 81.2642 
1439 64 217.597 
1440 0 49.8767 
1441 235 103.35 
1442 31 55.9967 
1443 2 38.0065 
1444 931 346.925 
1445 212 113.82 
1446 95 87.3863 
1447 7 42.0547 
1448 276 121.893 
1449 23 65.9465 
1450 190 129.665 
1451 363 276.675 
1452 6 120.538 
1453 4 56.4547 
1454 1 42.655 
1455 74 61.5724 
1456 8 49.287 
1457 77 54.8579 
1458 3 94.5911 
1459 373 120.304 
1460 171 75.921 
1461 18 179.062 
1462 26 51.1888 
1463 343 109.684 
1464 43 60.368 
1465 165 48.0132 
1466 22 63.783 
1467 196 93.5054 
1468 14 69.5067 
1469 20 155.028 
1470 281 250.913 
1471 191 177.746 
1472 23 113.132 
1473 7 65.1821 
1474 242 320.01 
1475 54 68.2782 
1476 20 61.0143 
1477 61 58.1505 
1478 181 111.455 
1479 12 128.698 
1480 8 78.0399 
1481 51 180.92 
1482 172 63.7987 
1483 336 154.44 
1484 96 48.7093 
1485 269 245.912 
1486 54 111.246 
1487 108 81.5412 
1488 136 175.747 
1489 2 41.393 
1490 409 81.4638 
1491 26 59.41 
1492 36 99.6953 
1493 180 88.7703 
1494 216 145.802 
1495 51 87.6736 
1496 83 92.6237 
1497 16 40.5057 
1498 120 59.4797 
1499 148 187.619 
1500 110 148.237 
1501 9 112.118 
1502 25 62.0218 
1503 141 82.2776 
1504 121 119.443 
1505 15 63.614 
1506 74 63.938 
1507 156 177.767 
1508 4 63.1337 
1509 218 254.298 
1510 31 34.8887 
1511 126 116.176 
1512 126 59.5124 
1513 34 48.814 
1514 91 52.1439 
1515 13 57.3858 
1516 106 191.255 
1517 196 127.009 
1518 313 202.716 
1519 218 108.64 
1520 60 124.18 
1521 88 56.9803 
1522 47 74.1676 
1523 74 92.7582 
1524 14 54.4888 
1525 49 57.6227 
1526 56 144.758 
1527 251 86.2042 
1528 158 84.866 
1529 62 192.13 
1530 120 146.001 
1531 28 158.186 
1532 17 212.659 
1533 11 46.2606 
1534 82 47.9318 
1535 91 63.0675 
1536 52 49.2884 
1537 25 107.001 
1538 100 94.3484 
1539 96 47.937 
1540 20 74.6432 
1541 68 66.0407 
1542 177 98.5264 
1543 119 195.259 
1544 38 69.4016 
1545 11 77.016 
1546 155 104.003 
1547 27 63.393 
1548 43 57.5348 
1549 92 42.9989 
1550 59 67.4711 
1551 163 103.021 
1552 50 82.3364 
1553 14 36.3071 
1554 65 42.533 
1555 3 34.8887 
1556 12 46.972 
1557 77 202.674 
1558 19 57.1051 
1559 152 71.0146 
1560 170 96.0775 
1561 16 107.785 
1562 50 163.521 
1563 91 197.173 
1564 142 120.694 
1565 427 213.067 
1566 25 45.0627 
1567 29 51.4076 
1568 94 123.602 
1569 92 133.876 
1570 82 83.6821 
1571 14 50.9519 
1572 87 41.8139 
1573 9 49.5066 
1574 155 52.9372 
1575 4 37.5496 
1576 7 78.8389 
1577 135 131.271 
1578 116 113.967 
1579 157 101.623 
1580 172 122.856 
1581 74 70.7002 
1582 239 157.096 
1583 62 86.8847 
1584 32 34.2601 
1585 275 170.739 
1586 16 59.6111 
1587 14 69.4137 
1588 42 74.1052 
1589 31 150.193 
1590 10 61.2911 
1591 129 130.068 
1592 4 37.5516 
1593 63 48.0274 
1594 267 104.714 
1595 100 88.2281 
1596 0 34.5793 
1597 4 57.5961 
1598 47 110.292 
1599 77 159.419 
1600 54 73.4138 
1601 32 51.7086 
1602 318 98.7465 
1603 183 190.396 
1604 302 191.257 
1605 14 34.8887 
1606 83 67.6076 
1607 417 363.311 
1608 15 43.4761 
1609 228 65.3835 
1610 67 61.3941 
1611 70 127.299 
1612 609 247.343 
1613 78 128.536 
1614 64 54.0936 
1615 150 172.035 
1616 20 55.3597 
1617 158 122.263 
1618 8 55.3468 
1619 20 203.027 
1620 170 73.8152 
1621 53 66.9211 
1622 22 96.9492 
1623 54 105.79 
1624 93 84.5013 
1625 113 66.0418 
1626 42 122.77 
1627 22 55.2789 
1628 104 85.1705 
1629 7 63.1877 
1630 35 62.0575 
1631 0 34.2601 
1632 17 79.8074 
1633 27 58.6834 
1634 181 79.7509 
1635 20 72.2736 
1636 476 246.954 
1637 344 148.941 
1638 40 135.11 
1639 25 109.67 
1640 94 63.9274 
1641 190 174.67 
1642 24 62.7495 
1643 104 290.068 
1644 48 41.2078 
1645 152 75.8123 
1646 31 34.2601 
1647 96 99.1807 
1648 54 44.9661 
1649 229 230.127 
1650 107 67.3777 
1651 139 101.01 
1652 3 63.8585 
1653 124 98.691 
1654 235 169.4 
1655 235 151.965 
1656 45 73.4278 
1657 35 75.9709 
1658 173 297.73 
1659 41 79.7028 
1660 18 46.8643 
1661 634 222.321 
1662 48 92.1375 
1663 34 47.2297 
1664 4 67.0563 
1665 160 295.766 
1666 123 198.269 
1667 34 63.7371 
1668 0 55.8807 
1669 108 46.702 
1670 22 107.528 
1671 14 34.5793 
1672 81 264.613 
1673 45 112.004 
1674 254 150.74 
1675 25 45.793 
1676 291 84.9841 
1677 22 91.1568 
1678 24 71.8537 
1679 4 34.2601 
1680 108 157.196 
1681 92 87.5388 
1682 15 52.5711 
1683 77 112.166 
1684 99 94.0586 
1685 294 105.625 
1686 8 53.9324 
1687 4 42.2994 
1688 362 102.812 
1689 103 90.9133 
1690 23 86.4132 
1691 75 158.111 
1692 33 71.3179 
1693 36 121.274 
1694 112 105.266 
1695 114 59.1809 
1696 137 72.0659 
1697 12 63.7602 
1698 167 152.983 
1699 428 327.371 
1700 210 94.124 
1701 136 184.166 
1702 9 61.0912 
1703 83 97.1973 
1704 118 37.3131 
1705 99 189.375 
1706 47 92.8825 
1707 58 102.492 
1708 34 73.3615 
1709 205 122.283 
1710 29 58.8134 
1711 4 57.6453 
1712 73 221.274 
1713 35 43.9509 
1714 22 86.9324 
1715 32 49.6717 
1716 1 47.5263 
1717 19 40.2135 
1718 31 64.319 
1719 42 83.0988 
1720 124 101.556 
1721 19 86.4675 
1722 92 57.1133 
1723 415 251.758 
1724 10 50.2026 
1725 117 92.3481 
1726 51 51.6548 
1727 174 74.4031 
1728 175 185.715 
1729 228 88.0694 
1730 83 62.6805 
1731 1 36.5682 
1732 11 51.7802 
1733 15 43.8961 
1734 21 46.3577 
1735 119 153.232 
1736 189 86.2888 
1737 141 115.246 
1738 6 49.8035 
1739 61 149.534 
1740 16 53.0997 
1741 95 78.4063 
1742 222 59.1698 
1743 20 43.6444 
1744 1 37.0345 
1745 134 210.422 
1746 25 45.9081 
1747 141 41.7536 
1748 74 104.474 
1749 31 36.8227 
1750 71 95.0564 
1751 9 47.3275 
1752 148 150.457 
1753 5 46.1718 
1754 20 75.8974 
1755 28 138.855 
1756 89 70.2315 
1757 73 65.9299 
1758 72 57.7583 
1759 93 108.251 
1760 382 203.316 
1761 72 61.7028 
1762 162 58.468 
1763 3 35.7635 
1764 32 169.654 
1765 91 90.1085 
1766 116 107.909 
1767 21 72.941 
1768 0 35.4803 
1769 180 49.985 
1770 389 206.345 
1771 2 64.8657 
1772 53 80.0309 
1773 149 138.358 
1774 75 129.445 
1775 93 90.3633 
1776 128 183.149 
1777 71 105.785 
1778 110 73.4666 
1779 146 105.695 
1780 7 43.1362 
1781 113 56.308 
1782 146 54.6016 
1783 185 57.098 
1784 307 161.366 
1785 52 42.8386 
1786 104 105.695 
1787 13 48.0658 
1788 152 63.645 
1789 99 95.3405 
1790 33 174.569 
1791 229 217.178 
1792 416 338.232 
1793 99 196.935 
1794 0 40.3812 
1795 31 50.3806 
1796 324 248.54 
1797 37 91.2398 
1798 113 145.717 
1799 54 77.5246 
1800 20 71.1804 
1801 101 88.9753 
1802 169 68.8721 
1803 105 53.574 
1804 156 211.518 
1805 139 185.535 
1806 16 72.9262 
1807 221 97.7274 
1808 70 95.4006 
1809 45 129.402 
1810 25 158.371 
1811 46 56.1063 
1812 15 57.6449 
1813 325 139.519 
1814 34 63.2459 
1815 5 40.3812 
1816 132 126.548 
1817 10 44.4937 
1818 2 48.4371 
1819 44 74.8462 
1820 62 172.187 
1821 1 38.0607 
1822 5 61.8351 
1823 126 76.9221 
1824 224 135.598 
1825 266 128.609 
1826 45 65.5775 
1827 227 123.473 
1828 9 92.1737 
1829 72 48.7594 
1830 4 98.4669 
1831 24 49.5368 
1832 20 53.0538 
1833 51 99.6793 
1834 0 94.8782 
1835 12 64.6729 
1836 26 95.6966 
1837 17 66.3508 
1838 194 44.802 
1839 129 227.849 
1840 366 153.887 
1841 142 134.508 
1842 13 52.797 
1843 106 103.106 
1844 197 113.712 
1845 114 86.4863 
1846 69 63.9401 
1847 227 148.689 
1848 128 86.9631 
1849 185 248.905 
1850 87 62.6767 
1851 51 63.1253 
1852 4 39.5758 
1853 122 55.6891 
1854 6 44.8666 
1855 7 55.2549 
1856 128 91.5415 
1857 989 334.128 
1858 158 186.735 
1859 169 108.661 
1860 118 279.244 
1861 30 34.8887 
1862 38 62.3734 
1863 254 209.589 
1864 91 44.0898 
1865 129 68.2225 
1866 15 64.6719 
1867 101 80.4499 
1868 12 51.3299 
1869 33 41.3861 
1870 0 40.3211 
1871 126 207.83 
1872 632 331.907 
1873 34 74.4617 
1874 67 57.9709 
1875 139 251.3 
1876 135 68.231 
1877 25 59.4053 
1878 74 85.7436 
1879 219 75.158 
1880 56 35.4803 
1881 125 40.8256 
1882 19 35.6373 
1883 40 83.2584 
1884 72 52.2038 
1885 0 35.6373 
1886 34 123.878 
1887 35 103.772 
1888 64 40.427 
1889 112 161.865 
1890 3 39.4591 
1891 74 71.055 
1892 325 166.394 
1893 185 219.47 
1894 116 77.6876 
1895 260 71.464 
1896 35 86.0189 
1897 53 146.15 
1898 111 37.5496 
1899 59 48.5432 
1900 87 55.5415 
1901 15 169.92 
1902 98 271.101 
1903 165 167.073 
1904 49 45.9243 
1905 57 87.3799 
1906 9 45.4575 
1907 43 284.807 
1908 40 72.4513 
1909 23 55.7605 
1910 108 153.61 
1911 103 145.654 
1912 189 86.5998 
1913 16 55.8725 
1914 117 99.888 
1915 2 35.1889 
1916 141 65.4031 
1917 168 47.1972 
1918 268 311.56 
1919 64 70.4654 
1920 9 45.9607 
1921 177 150.071 
1922 21 56.422 
1923 21 59.0586 
1924 50 145.761 
1925 6 66.1992 
1926 25 41.347 
1927 92 47.5378 
1928 183 128.352 
1929 42 111.671 
1930 242 128.247 
1931 50 60.5174 
1932 14 46.9284 
1933 44 41.8134 
1934 244 138.846 
1935 106 66.7818 
1936 165 70.9083 
1937 259 41.552 
1938 140 144.141 
1939 237 92.9106 
1940 370 198.031 
1941 34 52.859 
1942 55 53.6216 
1943 327 116.035 
1944 26 34.2601 
1945 35 53.8632 
1946 7 54.3082 
1947 85 51.2364 
1948 112 50.6471 
1949 113 85.3209 
1950 71 34.5793 
1951 13 57.6174 
1952 210 130.843 
1953 65 277.001 
1954 208 70.6981 
1955 77 195.613 
1956 19 37.8095 
1957 5 52.8722 
1958 456 175.88 
1959 240 214.134 
1960 43 79.6495 
1961 10 43.5631 
1962 75 74.0212 
1963 6 41.3861 
1964 63 66.9155 
1965 11 54.196 
1966 298 117.196 
1967 155 194.509 
1968 130 95.2417 
1969 76 127.755 
1970 38 83.8683 
1971 142 141.765 
1972 199 108.421 
1973 324 221.172 
1974 143 55.9697 
1975 7 53.3877 
1976 53 150.149 
1977 91 209.864 
1978 68 55.0373 
1979 98 43.9591 
1980 320 152.224 
1981 3 43.1799 
1982 76 210.243 
1983 64 204.421 
1984 140 198.665 
1985 98 82.9705 
1986 13 41.347 
1987 46 119.395 
1988 21 59.0923 
1989 221 97.1318 
1990 435 177.484 
1991 57 123.852 
1992 206 82.5948 
1993 133 182.14 
1994 67 95.7947 
1995 18 97.5833 
1996 83 77.19 
1997 18 53.673 
1998 46 59.117 
1999 176 141.884 
2000 40 345.409 
2001 29 88.1844 
2002 121 74.5762 
2003 271 257.223 
2004 34 40.846 
2005 9 138.933 
2006 12 74.1236 
2007 53 82.8391 
2008 38 36.3071 
2009 118 162.008 
2010 188 237.117 
2011 14 66.2344 
2012 189 81.8385 
2013 239 76.882 
2014 59 75.9959 
2015 11 53.4934 
2016 63 172.606 
2017 23 41.3932 
2018 69 41.2078 
2019 86 94.2468 
2020 84 61.4945 
2021 192 44.0302 
2022 143 177.653 
2023 15 46.921 
2024 44 55.9341 
2025 55 46.6757 
2026 506 214.057 
2027 18 80.8357 
2028 45 49.1696 
2029 7 41.7383 
2030 39 50.9334 
2031 258 59.2994 
2032 2 39.655 
2033 87 96.9053 
2034 16 53.9283 
2035 66 102.616 
2036 79 53.556 
2037 73 146.219 
2038 43 51.8158 
2039 100 156.149 
2040 165 139.133 
2041 126 106.331 
2042 167 71.7745 
2043 368 70.8299 
2044 426 225.355 
2045 6 44.3337 
2046 38 37.2868 
2047 38 60.4871 
2048 32 98.6952 
2049 64 70.6439 
2050 95 165.438 
2051 64 51.6261 
2052 37 112.258 
2053 45 155.293 
2054 39 86.1237 
2055 1 42.2695 
2056 162 51.4251 
2057 41 50.5096 
2058 155 55.1822 
2059 219 122.883 
2060 88 81.1312 
2061 37 61.9232 
2062 51 73.2662 
2063 7 51.1284 
2064 25 50.6106 
2065 34 88.8143 
2066 68 228.555 
2067 44 44.1105 
2068 57 74.9492 
2069 111 46.604 
2070 14 63.2641 
2071 53 53.3249 
2072 206 243.658 
2073 130 72.6539 
2074 207 122.08 
2075 33 119.967 
2076 122 83.3348 
2077 40 103.588 
2078 26 56.5308 
2079 33 120.12 
2080 30 72.334 
2081 191 102.566 
2082 265 141.834 
2083 2 34.8887 
2084 11 48.8051 
2085 674 199.657 
2086 86 80.3738 
2087 3 36.039 
2088 50 52.9752 
2089 212 217.308 
2090 363 241.152 
2091 229 213.022 
2092 47 60.7806 
2093 49 67.5445 
2094 15 73.3875 
2095 59 65.598 
2096 51 123.876 
2097 406 135.754 
2098 107 171.479 
2099 128 121.278 
2100 44 54.1837 
2101 47 54.6886 
2102 4 38.3912 
2103 38 65.2093 
2104 174 167.241 
2105 47 69.6592 
2106 8 34.2601 
2107 81 73.8011 
2108 169 118.769 
2109 76 54.6679 
2110 306 286.217 
2111 102 89.0665 
2112 45 81.1581 
2113 20 84.155 
2114 35 48.5405 
2115 0 75.5023 
2116 41 36.5682 
2117 101 92.2506 
2118 204 68.5974 
2119 20 57.8354 
2120 18 59.2664 
2121 115 85.4481 
2122 19 53.752 
2123 21 56.806 
2124 238 68.1283 
2125 35 45.009 
2126 66 84.6663 
2127 124 57.0983 
2128 40 44.2371 
2129 64 106.956 
2130 186 110.068 
2131 52 96.0179 
2132 66 124.147 
2133 12 123.594 
2134 6 42.4351 
2135 29 50.8413 
2136 95 92.867 
2137 37 74.9639 
2138 93 105.841 
2139 40 68.9506 
2140 54 96.4699 
2141 21 55.1275 
2142 160 124.928 
2143 753 268.092 
2144 234 154.204 
2145 12 34.5793 
2146 40 36.5682 
2147 63 35.9332 
2148 25 53.3776 
2149 287 273.943 
2150 92 43.6666 
2151 55 267.927 
2152 28 78.3568 
2153 189 207.724 
2154 17 82.8916 
2155 103 135.195 
2156 13 49.5896 
2157 6 71.2471 
2158 70 126.212 
2159 58 176.499 
2160 135 57.2646 
2161 259 129.965 
2162 207 63.2283 
2163 611 241.605 
2164 53 58.6337 
2165 46 47.5167 
2166 389 384.035 
2167 89 56.1111 
2168 20 77.6006 
2169 16 52.5006 
2170 11 55.9673 
2171 20 142.821 
2172 8 133.801 
2173 55 98.8593 
2174 7 36.039 
2175 194 130.289 
2176 22 58.5062 
2177 403 124.075 
2178 232 84.2036 
2179 22 52.402 
2180 15 38.0603 
2181 184 61.3232 
2182 29 38.7766 
2183 2 50.7596 
2184 67 63.4851 
2185 101 55.6272 
2186 0 35.4803 
2187 148 158.577 
2188 180 139.643 
2189 58 152.082 
2190 9 52.2918 
2191 53 38.3053 
2192 207 293.638 
2193 59 71.5097 
2194 175 79.9495 
2195 37 60.9543 
2196 50 193.592 
2197 124 69.1723 
2198 90 167.394 
2199 445 178.484 
2200 134 159.912 
2201 91 225.678 
2202 188 166.809 
2203 72 172.163 
2204 14 49.737 
2205 138 121.406 
2206 69 98.219 
2207 7 52.4815 
2208 100 103.742 
2209 242 119.572 
2210 159 50.2677 
2211 37 64.1337 
2212 108 63.9323 
2213 18 97.5941 
2214 24 75.5245 
2215 265 85.6394 
2216 7 81.6098 
2217 26 104.782 
2218 173 140.592 
2219 20 57.4413 
2220 15 43.7422 
2221 36 72.8376 
2222 50 45.2279 
2223 1 45.6151 
2224 128 113.958 
2225 23 66.192 
2226 59 110.849 
2227 8 34.2601 
2228 64 108.717 
2229 221 89.4916 
2230 0 34.2601 
2231 21 84.6877 
2232 40 69.2917 
2233 201 40.8642 
2234 96 215.179 
2235 42 118.84 
2236 21 52.1258 
2237 20 58.9024 
2238 30 60.7368 
2239 124 46.2399 
2240 6 42.5328 
2241 45 112.35 
2242 32 50.5952 
2243 146 154.423 
2244 29 63.4125 
2245 50 57.2591 
2246 108 144.063 
2247 97 61.5732 
2248 227 112.93 
2249 64 81.513 
2250 47 53.0439 
2251 67 68.929 
2252 94 242.601 
2253 16 59.5986 
2254 39 65.4583 
2255 18 58.5045 
2256 62 48.9037 
2257 194 100.741 
2258 141 103.481 
2259 45 68.2906 
2260 156 114.287 
2261 18 63.5619 
2262 139 135.459 
2263 102 93.5894 
2264 244 50.888 
2265 95 66.0861 
2266 65 148.216 
2267 188 115.054 
2268 626 86.1883 
2269 20 64.6471 
2270 45 50.1505 
2271 35 93.6253 
2272 19 50.3511 
2273 10 45.0091 
2274 53 114.102 
2275 2 45.0894 
2276 23 46.0687 
2277 176 81.0015 
2278 143 186.097 
2279 83 201.373 
2280 30 64.6856 
2281 156 146.889 
2282 108 50.4125 
2283 470 166.212 
2284 60 80.0585 
2285 111 79.8695 
2286 100 109.023 
2287 284 59.3379 
2288 50 72.8554 
2289 311 258.74 
2290 45 56.022 
2291 186 63.7919 
2292 12 46.3746 
2293 384 61.5602 
2294 9 55.9292 
2295 0 34.5793 
2296 178 223.76 
2297 13 65.0866 
2298 79 79.5145 
2299 117 124.289 
2300 21 69.5854 
2301 49 68.8773 
2302 117 128.976 
2303 93 168.534 
2304 3 44.2266 
2305 114 101.618 
2306 995 345.099 
2307 12 42.3758 
2308 51 67.6537 
2309 1 35.4803 
2310 91 74.321 
2311 42 62.8599 
2312 493 163.641 
2313 16 37.3131 
2314 166 132.473 
2315 33 76.2447 
2316 60 60.5357 
2317 44 48.992 
2318 7 53.0702 
2319 15 53.4527 
2320 9 63.5079 
2321 280 210.909 
2322 44 60.0851 
2323 481 200.508 
2324 39 73.5903 
2325 10 52.9977 
2326 35 42.9161 
2327 21 252.082 
2328 50 169.752 
2329 13 46.7991 
2330 73 101.975 
2331 462 194.075 
2332 4 47.4375 
2333 82 67.8266 
2334 44 53.1839 
2335 46 54.4716 
2336 219 103.583 
2337 452 236.783 
2338 161 46.4166 
2339 68 114.624 
2340 282 99.6029 
2341 586 317.336 
2342 7 46.1218 
2343 33 70.1022 
2344 9 47.7885 
2345 234 52.4915 
2346 126 87.2646 
2347 8 51.0809 
2348 179 99.8895 
2349 88 108.351 
2350 14 48.4232 
2351 85 39.1196 
2352 135 84.4453 
2353 31 90.5663 
2354 187 87.7719 
2355 25 59.7323 
2356 19 52.0608 
2357 8 43.071 
2358 37 67.4203 
2359 37 100.444 
2360 15 56.3985 
2361 63 92.9489 
2362 10 39.3505 
2363 75 80.4337 
2364 70 133.418 
2365 48 59.2595 
2366 475 86.7739 
2367 98 43.1664 
2368 21 36.2204 
2369 97 52.4063 
2370 20 54.753 
2371 218 113.394 
2372 103 72.5753 
2373 61 46.914 
2374 14 52.9176 
2375 83 101.193 
2376 77 75.9658 
2377 42 67.6029 
2378 7 44.6207 
2379 5 55.6921 
2380 128 80.3967 
2381 18 34.2601 
2382 170 180.5 
2383 13 58.1677 
2384 2 36.3071 
2385 36 97.4333 
2386 99 160.238 
2387 287 73.4974 
2388 96 46.2422 
2389 61 76.2942 
2390 162 49.379 
2391 30 35.4803 
2392 40 50.6027 
2393 23 61.7551 
2394 49 80.2678 
2395 46 46.2874 
2396 9 57.4259 
2397 1 44.2537 
2398 17 60.8215 
2399 41 40.8377 
2400 24 61.8329 
2401 21 85.5872 
2402 169 108.998 
2403 39 34.2601 
2404 44 109.171 
2405 32 120.514 
2406 1 52.4816 
2407 10 50.6568 
2408 195 80.8345 
2409 568 211.665 
2410 9 103.388 
2411 17 44.9674 
2412 184 136.037 
2413 52 118.023 
2414 87 42.1006 
2415 132 192.843 
2416 135 107.528 
2417 110 130.804 
2418 90 121.717 
2419 13 51.9432 
2420 131 106.103 
2421 139 270.002 
2422 163 182.837 
2423 130 102.665 
2424 3 57.6506 
2425 296 190.887 
2426 15 71.8557 
2427 31 58.1152 
2428 152 298.375 
2429 195 90.8188 
2430 122 105.732 
2431 39 65.3768 
2432 35 50.4996 
2433 38 56.8597 
2434 113 125.021 
2435 111 141.677 
2436 9 56.4731 
2437 47 45.3673 
2438 66 176.369 
2439 58 52.6636 
2440 5 37.2913 
2441 418 196.68 
2442 157 111.136 
2443 67 84.0265 
2444 115 91.9074 
2445 1 92.9831 
2446 40 64.3186 
2447 50 71.9461 
2448 212 145.784 
2449 34 52.4326 
2450 104 104.599 
2451 189 167.867 
2452 52 40.3213 
2453 222 100.45 
2454 239 51.7319 
2455 74 98.7967 
2456 130 112.37 
2457 24 57.8768 
2458 57 49.3559 
2459 118 81.878 
2460 1 39.3435 
2461 75 74.9258 
2462 36 268.229 
2463 146 134.199 
2464 13 37.8093 
2465 50 215.976 
2466 20 64.8097 
2467 20 69.6676 
2468 102 108.116 
2469 51 63.1366 
2470 24 42.2693 
2471 207 58.2871 
2472 12 51.319 
2473 459 240.88 
2474 362 125.359 
2475 77 98.1995 
2476 40 77.7602 
2477 20 53.3126 
2478 39 152.779 
2479 184 135.656 
2480 23 81.7531 
2481 86 65.8919 
2482 287 148.893 
2483 10 50.4705 
2484 1 45.6256 
2485 20 45.6689 
2486 1 34.5793 
2487 9 53.729 
2488 14 59.3233 
2489 27 60.5666 
2490 0 37.0144 
2491 125 60.6025 
2492 9 49.1664 
2493 14 45.2017 
2494 59 88.5886 
2495 74 66.9595 
2496 82 42.522 
2497 114 69.535 
2498 31 74.3491 
2499 38 55.4465 
2500 0 37.2869 
2501 272 93.9051 
2502 15 59.5096 
2503 21 54.0394 
2504 430 242.281 
2505 21 58.3639 
2506 121 61.2688 
2507 30 60.9281 
2508 48 112.925 
2509 347 65.4199 
2510 176 85.9002 
2511 54 72.7085 
2512 408 243.83 
2513 7 49.338 
2514 115 58.1727 
2515 4 63.9155 
2516 232 67.434 
2517 323 157.467 
2518 4 43.6665 
2519 7 43.6576 
2520 46 82.7424 
2521 133 72.7937 
2522 22 38.2568 
2523 17 65.4364 
2524 378 82.998 
2525 13 60.3029 
2526 27 56.7213 
2527 144 76.1094 
2528 143 77.8278 
2529 169 117.021 
2530 48 53.8492 
2531 25 45.426 
2532 122 66.8555 
2533 129 58.4115 
2534 294 137.099 
2535 171 110.592 
2536 19 71.586 
2537 119 100.417 
2538 194 80.728 
2539 43 48.6608 
2540 5 40.0225 
2541 226 256.916 
2542 0 34.8887 
2543 231 43.1667 
2544 72 66.5148 
2545 151 156.806 
2546 1 34.2601 
2547 16 237.801 
2548 5 60.3826 
2549 7 57.1389 
2550 69 59.931 
2551 11 88.1956 
2552 64 118.312 
2553 332 144.116 
2554 29 43.22 
2555 18 35.7635 
2556 51 60.305 
2557 108 116.739 
2558 15 60.9175 
2559 10 46.541 
2560 23 51.3916 
2561 247 345.524 
2562 0 49.4661 
2563 103 56.0271 
2564 6 70.2627 
2565 190 195.895 
2566 40 157.832 
2567 67 251.354 
2568 59 117.506 
2569 252 131.469 
2570 227 91.487 
2571 116 46.5469 
2572 0 34.5793 
2573 25 60.1807 
2574 10 68.5017 
2575 122 203.193 
2576 8 85.8634 
2577 39 45.8748 
2578 23 63.5111 
2579 207 152.291 
2580 11 80.672 
2581 17 52.988 
2582 89 75.3861 
2583 0 34.2601 
2584 27 99.253 
2585 10 55.4998 
2586 344 327.139 
2587 5 47.144 
2588 79 175.219 
2589 103 85.972 
2590 46 120.118 
2591 58 54.9217 
2592 116 108.546 
2593 17 55.7971 
2594 8 34.5793 
2595 14 52.1468 
2596 32 56.1585 
2597 21 144.789 
2598 103 58.4766 
2599 51 46.9263 
2600 176 288.42 
2601 0 34.8887 
2602 32 54.1536 
2603 28 74.5852 
2604 228 103.046 
2605 124 51.0773 
2606 132 193.661 
2607 314 153.826 
2608 84 190.567 
2609 302 213.067 
2610 27 77.1715 
2611 311 148.115 
2612 129 79.4924 
2613 31 56.8586 
2614 25 58.7425 
2615 112 373.624 
2616 109 76.1463 
2617 85 73.1319 
2618 72 44.4949 
2619 16 127.933 
2620 228 64.1027 
2621 28 48.3537 
2622 134 146.23 
2623 231 182.994 
2624 173 139.344 
2625 68 41.996 
2626 130 121.441 
2627 44 159.126 
2628 339 150.96 
2629 123 50.8029 
2630 24 63.0941 
2631 414 266.246 
2632 217 137.025 
2633 25 77.7459 
2634 72 109.648 
2635 9 79.3929 
2636 10 87.7783 
2637 54 68.9233 
2638 636 246.405 
2639 218 179.648 
2640 84 74.952 
2641 142 92.5168 
2642 106 70.6423 
2643 214 53.0416 
2644 97 170.763 
2645 50 45.0443 
2646 127 43.6444 
2647 202 119.193 
2648 7 44.7792 
2649 11 52.876 
2650 48 45.426 
2651 80 120.97 
2652 8 42.3331 
2653 88 106.012 
2654 9 47.0359 
2655 11 137.525 
2656 108 71.798 
2657 1 35.7635 
2658 123 119.843 
2659 151 58.0895 
2660 73 148.994 
2661 218 183.99 
2662 27 134.241 
2663 162 137.855 
2664 107 44.7754 
2665 13 48.1626 
2666 5 46.0298 
2667 301 331.942 
2668 44 72.4019 
2669 166 165.772 
2670 28 63.888 
2671 209 95.2622 
2672 952 237.544 
2673 102 166.99 
2674 65 69.5774 
2675 237 95.9876 
2676 5 34.8887 
2677 54 51.1946 
2678 21 35.1889 
2679 50 126.815 
2680 50 90.8373 
2681 17 76.0872 
2682 5 51.1719 
2683 11 109.05 
2684 203 105.654 
2685 128 175.838 
2686 264 174.947 
2687 111 172.273 
2688 211 64.8747 
2689 142 96.5135 
2690 182 156.548 
2691 31 166.204 
2692 13 46.7212 
2693 45 149.823 
2694 9 58.174 
2695 34 94.1563 
2696 370 58.4418 
2697 242 139.429 
2698 15 63.4256 
2699 217 120.579 
2700 94 98.7378 
2701 92 50.3146 
2702 111 102.388 
2703 44 117.118 
2704 13 89.6402 
2705 34 67.8988 
2706 5 36.4992 
2707 183 76.837 
2708 11 56.8659 
2709 24 34.2601 
2710 221 146.857 
2711 110 174.866 
2712 67 67.9362 
2713 12 49.815 
2714 22 56.1535 
2715 266 175.189 
2716 85 194.274 
2717 24 40.6504 
2718 70 95.2983 
2719 110 54.8679 
2720 199 266.491 
2721 63 103.963 
2722 101 116.67 
2723 15 149.765 
2724 28 53.7328 
2725 95 42.6987 
2726 129 127.927 
2727 8 91.4626 
2728 88 119.822 
2729 0 36.3071 
2730 16 90.4681 
2731 78 119.728 
2732 26 110.929 
2733 129 62.2583 
2734 132 118.321 
2735 228 122.449 
2736 50 60.2781 
2737 48 353.712 
2738 158 109.65 
2739 121 101.318 
2740 189 76.2236 
2741 112 215.753 
2742 39 76.674 
2743 28 60.2923 
2744 39 56.0123 
2745 9 53.0387 
2746 11 57.623 
2747 19 53.7288 
2748 63 172.591 
2749 194 134.997 
2750 181 83.8987 
2751 6 45.6255 
2752 49 72.8575 
2753 54 59.7677 
2754 16 47.5144 
2755 107 288.755 
2756 46 66.8988 
2757 38 120.128 
2758 137 157.196 
2759 12 58.9865 
2760 232 120.344 
2761 214 63.1538 
2762 1 34.2601 
2763 296 134.746 
2764 349 341.109 
2765 238 132.45 
2766 4 40.1332 
2767 86 76.6513 
2768 17 141.077 
2769 69 197.233 
2770 73 77.6827 
2771 17 72.127 
2772 5 44.6461 
2773 33 40.429 
2774 50 81.3718 
2775 28 38.8829 
2776 31 63.0396 
2777 17 68.6283 
2778 1 40.6403 
2779 36 102.955 
2780 34 74.5014 
2781 120 76.9834 
2782 142 136.73 
2783 8 35.7635 
2784 18 46.5103 
2785 93 77.5879 
2786 19 107.15 
2787 144 253.33 
2788 565 202.013 
2789 18 34.5793 
2790 0 34.5793 
2791 7 56.1044 
2792 331 141.073 
2793 74 97.6607 
2794 89 65.423 
2795 39 84.1066 
2796 489 158.217 
2797 3 56.9543 
2798 63 38.7766 
2799 171 43.5213 
2800 79 59.6441 
2801 0 34.8887 
2802 7 53.8503 
2803 47 52.2665 
2804 14 49.8822 
2805 196 172.532 
2806 14 43.3404 
2807 109 44.3618 
2808 47 68.0101 
2809 44 54.3071 
2810 33 156.217 
2811 64 118.329 
2812 112 82.6865 
2813 10 59.3833 
2814 209 231.813 
2815 272 99.3687 
2816 65 50.961 
2817 38 161.713 
2818 16 45.3422 
2819 20 60.3825 
2820 141 84.4655 
2821 52 62.1697 
2822 87 102.807 
2823 251 94.6304 
2824 112 230.745 
2825 6 43.2233 
2826 32 80.0749 
2827 37 45.0092 
2828 14 49.23 
2829 102 98.2189 
2830 85 71.4442 
2831 91 78.2936 
2832 2 36.3071 
2833 369 316.629 
2834 62 45.0629 
2835 96 91.1096 
2836 41 58.2223 
2837 22 59.5762 
2838 41 62.8794 
2839 189 335.967 
2840 16 59.7696 
2841 5 39.1356 
2842 2 48.8971 
2843 86 52.79 
2844 67 74.8322 
2845 43 48.2092 
2846 219 120.738 
2847 80 210.765 
2848 107 105.67 
2849 121 48.7753 
2850 66 61.2685 
2851 119 87.4458 
2852 76 62.4866 
2853 69 169.319 
2854 133 71.9356 
2855 223 72.694 
2856 24 87.3142 
2857 93 66.7373 
2858 35 43.7938 
2859 3 95.3856 
2860 521 249.945 
2861 61 90.1262 
2862 51 45.4015 
2863 175 54.3783 
2864 85 94.6405 
2865 93 138.098 
2866 69 66.2706 
2867 9 36.3071 
2868 41 144.557 
2869 309 351.939 
2870 133 143.422 
2871 41 60.2008 
2872 12 43.8727 
2873 282 57.1849 
2874 84 78.0799 
2875 16 76.9781 
2876 43 77.7109 
2877 53 177.235 
2878 481 132.268 
2879 0 34.2601 
2880 286 73.0412 
2881 22 64.557 
2882 221 254.951 
2883 10 49.9414 
2884 185 104.791 
2885 7 83.2049 
2886 29 80.3085 
2887 44 58.7638 
2888 49 94.2697 
2889 16 50.5118 
2890 17 45.2562 
2891 30 168.909 
2892 246 61.6715 
2893 212 86.5706 
2894 406 171.72 
2895 58 128.551 
2896 141 98.6746 
2897 30 48.711 
2898 316 218.655 
2899 36 66.969 
2900 26 72.7806 
2901 51 52.5016 
2902 6 47.5373 
2903 27 41.6999 
2904 102 107.371 
2905 37 55.7584 
2906 328 146.865 
2907 187 51.9292 
2908 116 202.724 
2909 25 59.4667 
2910 39 37.5419 
2911 37 55.7926 
2912 64 104.974 
2913 266 180.704 
2914 105 110.738 
2915 38 46.2609 
2916 19 67.6575 
2917 18 45.9934 
2918 51 86.1993 
2919 33 110.378 
2920 93 68.2054 
2921 20 80.1727 
2922 259 46.541 
2923 103 73.1291 
2924 116 49.8317 
2925 320 69.8612 
2926 341 421.163 
2927 117 53.3739 
2928 19 111.804 
2929 19 46.2738 
2930 275 313.256 
2931 217 247.989 
2932 365 202.085 
2933 34 36.5682 
2934 135 106.749 
2935 361 52.8857 
2936 52 46.7061 
2937 7 47.2301 
2938 20 47.5111 
2939 103 142.601 
2940 34 59.7505 
2941 323 175.301 
2942 29 76.6449 
2943 14 34.8887 
2944 42 73.819 
2945 301 148.125 
2946 103 101.975 
2947 5 125.788 
2948 179 56.0003 
2949 20 67.8927 
2950 0 34.5793 
2951 41 136.494 
2952 34 67.7721 
2953 48 57.7209 
2954 223 103.162 
2955 28 58.9885 
2956 34 43.5213 
2957 223 57.2771 
2958 10 50.9486 
2959 16 60.0114 
2960 64 96.063 
2961 57 81.6896 
2962 164 198.526 
2963 123 109.855 
2964 52 49.2834 
2965 45 93.1678 
2966 244 84.6255 
2967 26 190.69 
2968 2 47.0398 
2969 2 34.5793 
2970 71 44.1816 
2971 1 34.5793 
2972 59 195.421 
2973 76 70.2216 
2974 439 166.551 
2975 99 419.89 
2976 41 55.3094 
2977 9 42.7777 
2978 287 60.6378 
2979 88 45.9251 
2980 52 35.4803 
2981 149 112.572 
2982 281 46.3652 
2983 382 158.972 
2984 153 243.834 
2985 5 42.0041 
2986 38 81.6542 
2987 248 64.4015 
2988 5 60.6813 
2989 37 194.558 
2990 94 139.905 
2991 378 77.1871 
2992 36 186.975 
2993 23 81.207 
2994 110 99.4215 
2995 10 61.3271 
2996 25 91.3629 
2997 108 81.62 
2998 43 55.4339 
2999 128 134.929 
3000 133 71.9977 
3001 36 59.0191 
3002 282 119.472 
3003 25 59.8646 
3004 249 78.3156 
3005 21 52.1928 
3006 236 194.443 
3007 84 65.8225 
3008 8 92.9143 
3009 283 66.8558 
3010 10 77.2287 
3011 66 44.6565 
3012 92 172.498 
3013 69 97.3906 
3014 62 45.7514 
3015 160 131.863 
3016 250 188.786 
3017 203 258.309 
3018 1 34.2601 
3019 33 70.7157 
3020 115 267.858 
3021 266 194.275 
3022 115 106.928 
3023 22 58.174 
3024 77 90.8648 
3025 72 66.4004 
3026 46 68.7307 
3027 195 100.239 
3028 32 64.869 
3029 73 177.437 
3030 0 34.5793 
3031 26 64.7573 
3032 1 40.2034 
3033 118 92.0807 
3034 0 34.2601 
3035 58 231.759 
3036 129 137.612 
3037 112 259.392 
3038 536 196.298 
3039 10 45.0894 
3040 177 65.1122 
3041 39 205.594 
3042 25 158.168 
3043 116 205.215 
3044 0 35.4803 
3045 33 48.9036 
3046 16 51.3881 
3047 46 63.1462 
3048 64 85.1416 
3049 30 39.3504 
3050 24 66.0589 
3051 304 65.4761 
3052 12 53.7945 
3053 96 88.3586 
3054 32 60.6728 
3055 10 55.2306 
3056 5 35.4803 
3057 7 49.6635 
3058 175 234.959 
3059 105 121.529 
3060 2 40.0225 
3061 225 133.081 
3062 2 46.8253 
3063 40 38.0243 
3064 80 115.949 
3065 27 73.8955 
3066 10 49.5207 
3067 82 60.199 
3068 51 64.1417 
3069 41 62.223 
3070 58 106.515 
3071 71 98.5531 
3072 160 153.422 
3073 182 73.9365 
3074 79 37.5518 
3075 256 106.991 
3076 163 124.87 
3077 117 103.959 
3078 100 68.2851 
3079 207 116.628 
3080 57 70.3809 
3081 35 105.593 
3082 50 92.4338 
3083 45 35.7635 
3084 30 57.1984 
3085 38 46.4219 
3086 24 34.5793 
3087 9 70.1467 
3088 1 43.3735 
3089 216 126.037 
3090 143 76.5203 
3091 39 107.474 
3092 75 71.5535 
3093 61 38.8621 
3094 92 117.802 
3095 142 95.8199 
3096 62 105.845 
3097 25 45.9212 
3098 16 48.8736 
3099 25 66.1379 
3100 14 71.4798 
3101 109 131.257 
3102 30 54.3075 
3103 34 162.664 
3104 21 46.8569 
3105 45 67.4668 
3106 43 179.601 
3107 117 201.695 
3108 124 107.536 
3109 109 107.476 
3110 39 158.431 
3111 50 60.6808 
3112 202 104.361 
3113 35 88.5361 
3114 48 84.459 
3115 23 45.9989 
3116 22 67.1157 
3117 268 93.8734 
3118 50 58.9404 
3119 133 252.85 
3120 17 65.5293 
3121 697 246.279 
3122 150 44.6905 
3123 345 232.564 
3124 62 80.7465 
3125 137 76.6949 
3126 164 99.6648 
3127 257 179.674 
3128 27 56.9515 
3129 68 71.0321 
3130 184 89.9506 
3131 114 68.8401 
3132 31 59.4214 
3133 57 53.2248 
3134 197 95.234 
3135 9 46.8388 
3136 129 156.22 
3137 63 204.01 
3138 92 155.259 
3139 42 53.6397 
3140 142 101.569 
3141 4 55.5112 
3142 168 85.7356 
terror=5210.39
l1pen=57.262
l2pen=552.139
9.91903 -9.97978 -9.99999 7.37482 9.9902 9.99819 
F= 9.91903* (1/(DL - (-28.6921))) -9.97978* ( (AT *  ( (1/(HH - (-37.938))) ) ) ) -9.99999* Log[ (1/(DL - (-28.6921))) ] +7.37482* ( ( (1/(DL - (-28.6921)))  *  ( ( (AT) ) )^2 ) )^(1/2) +9.9902* (1/(DL - (-28.6921))) +9.99819* ( Sin[ (AT /  (HH - (-37.938)) ) ] ) 
6 1 -28.6921 0 0 0 0 0 0 0 1 3 0 0 4 6 2 -37.938 10 6 12 6 1 -28.6921 0 0 0 0 0 0 9 3 6 1 -28.6921 8 2 4 0 0 6 1 -28.6921 0 0 0 0 0 0 0 1 10 4 0 0 5 2 -37.938 10 9 
0 2 1 32709 0 0 1 0 2048 0 0 0 0 2 0 0 2 1 0 0 0 0 2 1 0 0 0 0 0 0 0 0 0 2 1 0 0 0 0 2 0 2 1 0 0 0 0 0 0 0 0 0 0 0 2 0 2 1 0 0 
