0 70 35.5302 
1 58 76.4844 
2 0 33.8347 
3 0 41.6294 
4 18 61.2765 
5 8 57.4478 
6 150 33.7769 
7 86 76.6669 
8 73 86.147 
9 194 109.698 
10 6 34.7028 
11 25 57.6018 
12 27 49.8876 
13 3 60.9445 
14 1 72.3455 
15 100 65.5911 
16 71 209.266 
17 101 103.503 
18 22 60.3953 
19 10 119.001 
20 1 31.413 
21 48 109.364 
22 6 112.675 
23 17 50.4542 
24 26 31.2709 
25 20 72.346 
26 28 73.6656 
27 160 73.2597 
28 73 68.8459 
29 266 117.12 
30 71 67.7429 
31 32 98.2128 
32 39 46.0867 
33 54 49.3614 
34 0 32.1636 
35 108 85.3174 
36 240 412.8 
37 50 41.9267 
38 24 109.549 
39 33 123.357 
40 17 74.7886 
41 112 73.9857 
42 16 79.7384 
43 323 364.772 
44 108 29.5741 
45 768 277.225 
46 12 62.0643 
47 164 76.2414 
48 1 45.7425 
49 94 36.5963 
50 7 43.0295 
51 180 171.652 
52 60 81.2099 
53 72 49.1205 
54 29 53.6167 
55 34 65.6496 
56 12 29.7774 
57 646 185.181 
58 122 229.015 
59 88 167.447 
60 6 55.1477 
61 504 154.306 
62 118 239.132 
63 3 53.7216 
64 10 67.7429 
65 5 28.6851 
66 776 185.844 
67 2 30.8508 
68 62 74.2455 
69 3 38.4604 
70 47 98.444 
71 3 49.396 
72 199 136.645 
73 2 132.038 
74 150 95.1563 
75 271 163.81 
76 153 116.574 
77 207 171.738 
78 17 136.608 
79 32 62.1084 
80 36 47.6802 
81 63 94.2265 
82 8 65.6329 
83 11 107.416 
84 117 107.431 
85 34 72.3455 
86 169 88.076 
87 8 69.2512 
88 103 87.8892 
89 3 30.5417 
90 85 166.329 
91 72 184.299 
92 260 146.218 
93 42 83.0594 
94 200 137.797 
95 229 85.1748 
96 40 71.5906 
97 58 46.5115 
98 144 79.6658 
99 63 76.8431 
100 16 33.8347 
101 505 170.666 
102 195 71.118 
103 63 139.251 
104 36 50.2854 
105 105 105.507 
106 33 44.2274 
107 67 41.2144 
108 169 124.148 
109 373 74.7636 
110 23 74.3246 
111 96 51.667 
112 23 108.445 
113 1 34.081 
114 151 96.5593 
115 61 60.7052 
116 5 78.7345 
117 10 60.0793 
118 23 44.7334 
119 31 99.8309 
120 86 123.019 
121 38 107.71 
122 1 56.1731 
123 85 55.9593 
124 131 58.6344 
125 8 45.1808 
126 17 88.8961 
127 103 141.693 
128 159 55.7397 
129 27 86.9817 
130 5 61.8768 
131 9 44.8878 
132 45 60.4764 
133 9 70.3858 
134 62 73.1971 
135 58 36.4006 
136 36 50.7828 
137 550 193.15 
138 186 61.9846 
139 58 71.5819 
140 105 83.0594 
141 23 27.1945 
142 23 47.8486 
143 174 120.488 
144 28 55.4874 
145 25 72.6809 
146 4 52.1962 
147 102 216.688 
148 11 59.6008 
149 22 54.9863 
150 254 266.369 
151 129 62.0226 
152 118 96.9373 
153 52 71.7416 
154 117 66.9336 
155 73 86.3557 
156 128 99.4499 
157 80 150.384 
158 34 94.3869 
159 74 63.0283 
160 57 53.997 
161 40 33.4326 
162 120 99.2146 
163 22 78.4752 
164 63 48.2852 
165 172 155.987 
166 9 48.8442 
167 58 96.1923 
168 13 37.172 
169 102 29.9345 
170 11 34.3591 
171 46 159.478 
172 21 90.7853 
173 74 70.3098 
174 2 54.9078 
175 2 71.9846 
176 221 57.7544 
177 47 69.0694 
178 12 61.6433 
179 438 185.939 
180 13 54.3351 
181 72 78.587 
182 4 82.0181 
183 229 196.13 
184 16 94.2783 
185 418 123.744 
186 407 95.0622 
187 20 36.737 
188 100 139.839 
189 52 39.7503 
190 25 92.2968 
191 26 107.487 
192 8 68.5698 
193 215 147.877 
194 2 46.8467 
195 17 70.2965 
196 12 55.9792 
197 145 194.396 
198 52 84.9549 
199 4 44.8984 
200 2 43.6078 
201 72 45.0415 
202 27 59.1933 
203 145 83.0594 
204 12 44.124 
205 12 31.4902 
206 16 63.6676 
207 40 49.386 
208 91 52.2825 
209 21 28.657 
210 18 52.47 
211 24 54.067 
212 36 157.334 
213 277 40.4517 
214 242 283.094 
215 42 44.1174 
216 45 76.3415 
217 6 54.1234 
218 24 67.9428 
219 118 115.074 
220 8 32.5704 
221 12 42.5549 
222 22 72.4975 
223 199 281.47 
224 203 105.363 
225 46 103.279 
226 2 49.2183 
227 46 119.956 
228 87 73.3104 
229 1 28.6851 
230 95 55.5668 
231 43 34.6343 
232 35 46.088 
233 2 62.1084 
234 60 66.6485 
235 81 131.364 
236 4 42.1867 
237 47 120.118 
238 11 49.4229 
239 33 46.4513 
240 35 57.541 
241 225 138.575 
242 305 68.6442 
243 287 100.036 
244 30 56.4911 
245 84 48.4097 
246 23 82.7757 
247 8 55.3135 
248 76 47.4014 
249 167 58.7086 
250 14 51.4825 
251 56 75.8159 
252 18 40.3003 
253 14 82.2737 
254 90 36.7531 
255 88 128.453 
256 126 138.598 
257 203 63.0498 
258 19 46.3108 
259 72 108.964 
260 30 75.3257 
261 266 157.764 
262 123 133.283 
263 18 79.9317 
264 162 138.114 
265 43 48.4242 
266 257 140.939 
267 8 101.319 
268 118 77.3195 
269 90 82.5435 
270 70 108.316 
271 214 190.706 
272 39 113.261 
273 27 45.9856 
274 0 63.4719 
275 19 61.2239 
276 271 69.8219 
277 57 48.8442 
278 17 42.8596 
279 52 52.8398 
280 165 65.8103 
281 14 76.7599 
282 150 154.957 
283 73 30.9368 
284 189 107.38 
285 11 60.7216 
286 92 55.3218 
287 8 73.0394 
288 72 145.907 
289 21 40.0913 
290 46 94.1972 
291 262 173.48 
292 67 89.0574 
293 77 35.2687 
294 488 240.69 
295 42 43.8467 
296 599 263.691 
297 12 64.9484 
298 32 135.608 
299 53 81.999 
300 29 97.0648 
301 11 33.6695 
302 48 47.4566 
303 228 97.578 
304 137 167.354 
305 75 161.756 
306 48 83.2123 
307 34 99.3741 
308 175 70.1996 
309 33 102.604 
310 5 32.0024 
311 2 30.3647 
312 152 94.0762 
313 143 87.5599 
314 203 320.046 
315 20 59.0551 
316 9 67.9993 
317 6 56.9957 
318 36 74.7964 
319 88 96.0132 
320 6 72.7966 
321 26 107.25 
322 15 65.6723 
323 24 72.063 
324 37 56.5349 
325 25 202.39 
326 249 91.4299 
327 8 51.3309 
328 104 67.2902 
329 25 83.1103 
330 54 53.8123 
331 242 202.23 
332 522 178.731 
333 68 78.1634 
334 7 62.3044 
335 65 48.9162 
336 243 148.633 
337 227 92.3765 
338 118 53.007 
339 273 185.634 
340 208 220.637 
341 20 43.3254 
342 178 57.9205 
343 79 108.179 
344 43 121.217 
345 7 31.6142 
346 8 60.0793 
347 14 63.5978 
348 21 59.6114 
349 3 35.5933 
350 12 47.4918 
351 33 74.7636 
352 30 56.2333 
353 77 78.587 
354 169 117.808 
355 22 91.9289 
356 68 52.1681 
357 24 55.3477 
358 72 41.3103 
359 43 103.514 
360 0 40.698 
361 168 159.472 
362 105 178.808 
363 94 89.3984 
364 365 307.328 
365 130 105.653 
366 29 52.5895 
367 54 87.6585 
368 114 89.3309 
369 512 231.867 
370 80 131.364 
371 6 42.8716 
372 104 115.191 
373 174 102.134 
374 41 51.239 
375 26 30.7216 
376 41 34.9224 
377 107 146.321 
378 159 156.165 
379 17 29.9273 
380 79 51.0573 
381 71 58.1629 
382 112 112.374 
383 87 69.2906 
384 4 57.468 
385 8 103.787 
386 12 62.1084 
387 60 80.1479 
388 174 175.517 
389 49 38.308 
390 230 228.803 
391 41 158.764 
392 42 42.6981 
393 9 32.8989 
394 38 87.6525 
395 22 30.6707 
396 0 32.1636 
397 40 30.2481 
398 474 114.964 
399 107 41.397 
400 26 41.1372 
401 309 180.725 
402 19 62.9211 
403 96 99.041 
404 22 58.4286 
405 15 43.2192 
406 50 108.553 
407 36 43.768 
408 9 63.4682 
409 67 139.445 
410 165 62.9825 
411 23 96.1567 
412 153 81.2099 
413 80 47.0269 
414 0 86.6425 
415 30 129.989 
416 17 90.1126 
417 45 86.0288 
418 94 121.572 
419 75 110.056 
420 252 98.961 
421 124 62.4348 
422 5 33.5726 
423 42 98.668 
424 63 79.866 
425 66 29.3329 
426 68 63.4705 
427 67 232.638 
428 36 169.968 
429 42 49.45 
430 33 71.9978 
431 8 133.14 
432 28 93.7684 
433 132 101.348 
434 72 43.1489 
435 138 109.757 
436 8 40.698 
437 6 50.8576 
438 51 56.7475 
439 19 86.7021 
440 128 150.841 
441 97 80.0944 
442 167 93.4506 
443 884 155.926 
444 370 171.353 
445 19 50.1134 
446 49 107.448 
447 9 39.5441 
448 19 70.3201 
449 93 54.8456 
450 389 192.904 
451 12 30.5417 
452 196 78.6378 
453 239 277.446 
454 3 45.7783 
455 17 86.7724 
456 24 81.1839 
457 19 78.2643 
458 27 136.617 
459 1 29.7048 
460 46 69.559 
461 4 124.718 
462 49 59.7815 
463 99 38.7686 
464 193 203.933 
465 43 78.8904 
466 5 59.7459 
467 5 56.6716 
468 149 89.7519 
469 18 53.4835 
470 128 129.9 
471 60 149.272 
472 197 130.417 
473 23 30.8508 
474 15 68.2424 
475 31 59.6976 
476 13 61.9977 
477 53 67.9854 
478 31 47.4247 
479 14 40.856 
480 143 89.3217 
481 6 47.8702 
482 50 98.8561 
483 60 162.526 
484 78 90.5629 
485 56 33.3365 
486 40 34.1805 
487 78 58.1435 
488 282 107.83 
489 24 54.7103 
490 8 76.8121 
491 86 104.396 
492 13 85.5677 
493 106 105.975 
494 61 141.64 
495 34 84.6445 
496 45 49.7405 
497 9 54.8389 
498 98 125.114 
499 3 43.5816 
500 223 96.0712 
501 2 46.8913 
502 4 50.8247 
503 59 45.5495 
504 49 107.201 
505 1 26.9777 
506 14 35.8399 
507 222 75.3082 
508 57 70.1436 
509 298 90.3405 
510 50 46.3293 
511 84 129.026 
512 240 123.408 
513 45 59.2028 
514 22 102.904 
515 11 100.341 
516 38 51.5932 
517 401 52.5483 
518 62 100.763 
519 348 215.588 
520 27 98.2824 
521 51 124.503 
522 57 67.4051 
523 88 247.901 
524 153 60.2994 
525 300 113.091 
526 15 76.6909 
527 181 72.4932 
528 126 77.1304 
529 7 57.7111 
530 6 29.8368 
531 9 64.2012 
532 7 53.1298 
533 37 109.588 
534 24 82.0011 
535 170 50.4542 
536 33 141.382 
537 26 49.1587 
538 0 50.1295 
539 47 138.875 
540 64 82.7048 
541 251 147.669 
542 103 45.3971 
543 36 57.3873 
544 5 42.4748 
545 20 49.7916 
546 32 75.3111 
547 242 45.5634 
548 81 70.4238 
549 98 248.47 
550 20 120.577 
551 8 52.8117 
552 92 64.3153 
553 113 172.748 
554 110 62.6294 
555 62 44.5092 
556 19 57.3606 
557 128 152.824 
558 28 41.7809 
559 1 36.3994 
560 3 31.6576 
561 65 88.4053 
562 59 67.7384 
563 64 118.885 
564 1 100.244 
565 325 93.9415 
566 6 68.3085 
567 11 57.4485 
568 73 55.7902 
569 95 74.6449 
570 153 125.7 
571 111 135.321 
572 29 71.2598 
573 21 113.953 
574 4 68.0492 
575 57 112.938 
576 48 101.416 
577 2 60.7502 
578 71 152.57 
579 280 130.593 
580 7 41.6755 
581 32 68.5711 
582 187 65.9945 
583 1 50.7286 
584 3 28.5121 
585 788 356.977 
586 66 48.0694 
587 44 68.1086 
588 100 112.89 
589 0 38.8178 
590 15 46.3842 
591 39 65.1707 
592 26 71.1628 
593 37 74.6187 
594 26 44.5101 
595 27 80.8127 
596 91 143.817 
597 0 26.8046 
598 532 314.352 
599 4 96.3534 
600 305 310.642 
601 128 105.801 
602 194 85.0019 
603 36 32.0973 
604 6 29.091 
605 201 159.95 
606 1 33.3365 
607 181 146.317 
608 39 76.9395 
609 256 70.444 
610 28 41.4646 
611 58 30.9416 
612 8 77.9724 
613 22 39.1539 
614 17 80.2961 
615 160 105.353 
616 22 30.6707 
617 7 48.3065 
618 25 117.918 
619 210 123.627 
620 76 58.8201 
621 53 77.168 
622 12 55.4848 
623 36 115.895 
624 169 74.3246 
625 174 47.9007 
626 11 56.7447 
627 61 66.0679 
628 178 138.955 
629 220 59.8921 
630 120 304.161 
631 52 52.2473 
632 26 34.0214 
633 69 101.589 
634 53 101.894 
635 32 101.672 
636 31 160.493 
637 118 62.7903 
638 18 47.1801 
639 26 31.4902 
640 92 111.204 
641 189 61.2514 
642 16 64.9147 
643 12 47.6568 
644 470 260.309 
645 25 47.7162 
646 44 122.683 
647 87 46.4152 
648 83 42.9946 
649 140 41.6447 
650 36 49.675 
651 38 61.5764 
652 17 54.1282 
653 14 82.4447 
654 228 83.1604 
655 70 90.4278 
656 6 54.0752 
657 34 96.7184 
658 43 135.919 
659 81 54.0235 
660 128 130.518 
661 195 135.229 
662 134 66.6893 
663 109 145.251 
664 135 126.367 
665 141 99.1273 
666 150 51.7819 
667 56 62.8302 
668 34 32.5376 
669 241 74.7636 
670 146 69.8513 
671 17 34.9042 
672 72 61.2011 
673 68 109.567 
674 105 148.772 
675 5 33.1232 
676 90 59.961 
677 179 117.318 
678 7 146.296 
679 402 71.5786 
680 389 93.9962 
681 73 71.2171 
682 8 42.6981 
683 41 73.6187 
684 19 75.332 
685 40 49.9372 
686 204 61.1415 
687 12 45.6174 
688 52 40.9645 
689 29 49.7204 
690 4 55.6267 
691 75 164.025 
692 21 58.4136 
693 236 83.3698 
694 7 77.3729 
695 40 233.632 
696 97 108.126 
697 71 37.5422 
698 503 173.087 
699 2 30.8508 
700 124 83.2611 
701 28 50.2125 
702 53 58.207 
703 67 54.9325 
704 474 275.516 
705 166 36.6433 
706 77 90.3936 
707 87 86.3358 
708 76 47.4247 
709 72 179.908 
710 21 50.9253 
711 138 65.9497 
712 0 29.9173 
713 48 77.5608 
714 71 183.984 
715 119 64.5872 
716 13 33.7769 
717 110 135.404 
718 48 100.35 
719 56 74.3076 
720 239 104.018 
721 36 35.4422 
722 20 50.1295 
723 2 29.9173 
724 85 110.92 
725 35 36.7094 
726 121 81.3047 
727 63 66.4006 
728 38 59.4438 
729 124 105.005 
730 166 75.9184 
731 63 35.3598 
732 14 98.312 
733 7 42.2724 
734 35 52.3842 
735 43 51.205 
736 20 105.508 
737 352 94.085 
738 226 257.339 
739 236 139.846 
740 95 40.899 
741 282 220.803 
742 2 32.5877 
743 4 47.9476 
744 138 83.0572 
745 79 41.4646 
746 15 28.1681 
747 0 31.4902 
748 36 64.7181 
749 88 55.6245 
750 24 55.0226 
751 2 43.8601 
752 126 96.0816 
753 10 41.0108 
754 2 30.0978 
755 0 44.107 
756 54 145.929 
757 80 102.346 
758 117 50.3148 
759 39 138.417 
760 179 62.1084 
761 29 60.0793 
762 101 135.292 
763 7 54.1234 
764 34 95.3895 
765 811 324.307 
766 163 98.0846 
767 98 110.9 
768 36 58.2796 
769 40 52.8117 
770 185 52.9421 
771 62 85.8747 
772 146 153.807 
773 41 58.5173 
774 5 138.215 
775 2 161.782 
776 18 53.9319 
777 34 72.2034 
778 24 55.7358 
779 153 43.1713 
780 40 53.3921 
781 39 28.6078 
782 19 59.0197 
783 38 123.973 
784 10 51.3979 
785 44 132.392 
786 52 38.9414 
787 72 40.4666 
788 35 90.2508 
789 192 38.8771 
790 49 137.981 
791 269 98.2682 
792 44 91.834 
793 349 256.166 
794 32 78.196 
795 59 105.272 
796 37 70.9576 
797 358 266.06 
798 184 39.9202 
799 47 69.3821 
800 140 77.7778 
801 64 99.0531 
802 2 30.3047 
803 261 86.3358 
804 403 160.026 
805 298 216.01 
806 53 30.4776 
807 8 63.1282 
808 12 65.7053 
809 359 334.832 
810 50 57.9498 
811 10 55.9229 
812 51 82.2002 
813 355 99.2424 
814 35 28.654 
815 145 115.588 
816 87 123.627 
817 127 33.6549 
818 35 97.3181 
819 26 29.6172 
820 26 49.7081 
821 26 114.777 
822 57 124.061 
823 3 36.7401 
824 12 51.1891 
825 193 64.9147 
826 72 43.5816 
827 5 67.7429 
828 233 77.8117 
829 227 92.7469 
830 35 59.2395 
831 137 47.035 
832 63 89.8267 
833 78 103.679 
834 15 110.116 
835 0 30.5417 
836 17 34.8915 
837 232 79.6129 
838 17 48.2975 
839 14 67.8698 
840 17 40.6925 
841 86 91.402 
842 71 72.1673 
843 103 121.572 
844 556 255.342 
845 13 89.3145 
846 214 103.52 
847 78 183.371 
848 329 95.4061 
849 355 71.644 
850 206 61.9885 
851 229 86.9828 
852 54 43.1989 
853 94 120.197 
854 22 40.8887 
855 38 105.064 
856 19 54.0103 
857 14 53.6258 
858 19 47.9855 
859 42 98.4728 
860 108 171.593 
861 116 69.5582 
862 31 56.0305 
863 34 112.545 
864 34 72.7316 
865 132 68.0414 
866 65 51.1891 
867 22 42.7504 
868 131 96.6341 
869 76 63.8133 
870 114 150.727 
871 11 52.9725 
872 38 168.863 
873 0 33.1784 
874 88 46.4733 
875 176 58.0277 
876 141 45.9163 
877 39 51.3012 
878 222 113.164 
879 22 138.913 
880 82 145.042 
881 1 45.0017 
882 38 114.164 
883 53 79.4826 
884 18 51.3442 
885 7 45.0739 
886 1 57.4406 
887 51 174.47 
888 100 59.0551 
889 47 44.3189 
890 26 60.6748 
891 113 169.876 
892 9 28.7321 
893 146 85.275 
894 4 222.035 
895 0 30.5417 
896 120 163.586 
897 49 52.1681 
898 172 43.4163 
899 170 104.117 
900 49 53.3073 
901 84 35.0112 
902 4 34.081 
903 11 74.8076 
904 4 56.9586 
905 76 107.431 
906 29 77.9097 
907 4 46.5115 
908 69 119.247 
909 3 83.3336 
910 52 31.2935 
911 33 40.4444 
912 14 116.844 
913 61 144.372 
914 94 40.0815 
915 43 186.437 
916 180 201.553 
917 177 45.0739 
918 73 53.6964 
919 11 97.7281 
920 23 60.6669 
921 71 100.524 
922 15 57.9981 
923 220 150.881 
924 1 39.6699 
925 41 72.5472 
926 217 149.456 
927 63 28.8963 
928 39 47.4239 
929 79 73.7742 
930 70 120.046 
931 44 36.7982 
932 24 47.1741 
933 5 45.7945 
934 68 87.6204 
935 27 62.8547 
936 62 94.0913 
937 26 60.731 
938 139 102.83 
939 38 82.6095 
940 0 31.5673 
941 66 85.354 
942 59 46.6791 
943 90 53.5 
944 53 114.608 
945 227 198.391 
946 135 84.9995 
947 14 95.5259 
948 139 160.439 
949 65 213.765 
950 18 60.5896 
951 4 35.287 
952 47 40.889 
953 31 32.1162 
954 30 31.5551 
955 2 29.6846 
956 18 69.9629 
957 149 71.7733 
958 193 193.768 
959 93 204.509 
960 80 119.631 
961 13 45.1236 
962 63 84.7674 
963 3 37.172 
964 122 184.497 
965 218 123.127 
966 50 45.5634 
967 34 74.0192 
968 9 56.2966 
969 73 134.336 
970 4 43.2034 
971 24 49.5903 
972 96 121.533 
973 22 150.079 
974 51 103.443 
975 9 29.5433 
976 20 74.6603 
977 103 104.929 
978 24 56.1498 
979 53 54.0103 
980 117 78.4548 
981 13 65.4251 
982 74 164.368 
983 28 56.099 
984 30 56.4646 
985 42 52.3502 
986 38 33.3365 
987 406 110.562 
988 27 37.8198 
989 5 31.1473 
990 278 345.694 
991 25 42.2991 
992 30 125.09 
993 33 163.171 
994 113 58.265 
995 33 92.3811 
996 281 86.6425 
997 1 26.6739 
998 5 36.8752 
999 460 136.918 
1000 309 90.6026 
1001 43 50.8324 
1002 26 71.2211 
1003 4 35.5634 
1004 34 62.3622 
1005 15 79.412 
1006 26 50.2854 
1007 27 72.9635 
1008 41 86.5259 
1009 274 134.974 
1010 107 75.8163 
1011 0 28.7911 
1012 266 89.2219 
1013 134 212.709 
1014 42 161.109 
1015 10 63.5186 
1016 2 74.8081 
1017 64 44.0175 
1018 108 58.231 
1019 72 103.121 
1020 2 144.77 
1021 67 78.0893 
1022 56 66.4027 
1023 6 35.9874 
1024 44 95.1563 
1025 186 102.907 
1026 95 98.5887 
1027 41 88.6614 
1028 74 56.9893 
1029 40 35.287 
1030 96 119.206 
1031 423 223.969 
1032 18 46.293 
1033 7 39.3461 
1034 7 94.7779 
1035 218 154.767 
1036 12 70.345 
1037 38 88.3506 
1038 5 76.6416 
1039 52 42.5077 
1040 7 135.779 
1041 116 150.478 
1042 10 60.8929 
1043 200 103.762 
1044 237 206.829 
1045 491 61.1551 
1046 334 184.085 
1047 55 144.836 
1048 39 124.076 
1049 77 103.682 
1050 43 58.8201 
1051 28 63.2497 
1052 3 73.9436 
1053 182 80.5412 
1054 94 175.655 
1055 47 54.5717 
1056 91 197.799 
1057 169 75.026 
1058 49 47.4283 
1059 27 69.9587 
1060 104 45.7783 
1061 66 61.8472 
1062 73 44.3189 
1063 96 98.4728 
1064 64 113.815 
1065 42 53.8698 
1066 15 48.3301 
1067 167 41.1611 
1068 75 108.937 
1069 42 92.7469 
1070 64 31.2935 
1071 12 32.4403 
1072 14 26.9777 
1073 118 70.4919 
1074 102 229.373 
1075 135 75.9165 
1076 68 31.948 
1077 26 44.556 
1078 654 149.88 
1079 114 39.9953 
1080 34 38.6 
1081 85 113.675 
1082 20 35.036 
1083 13 29.5417 
1084 229 68.1384 
1085 72 125.874 
1086 9 64.3153 
1087 15 113.703 
1088 16 59.056 
1089 21 76.5714 
1090 7 46.8008 
1091 1 74.599 
1092 1 187.313 
1093 15 69.8219 
1094 45 75.6413 
1095 71 90.1915 
1096 168 168.428 
1097 150 207.33 
1098 10 45.2351 
1099 137 109.086 
1100 10 36.0582 
1101 178 222.388 
1102 18 39.3551 
1103 12 48.7236 
1104 151 42.1012 
1105 21 48.5271 
1106 196 286.927 
1107 90 208.553 
1108 18 115.344 
1109 31 58.9263 
1110 108 199.263 
1111 44 88.0514 
1112 21 38.398 
1113 31 96.287 
1114 251 158.836 
1115 58 118.885 
1116 113 62.1749 
1117 140 76.1295 
1118 6 61.7487 
1119 9 115.717 
1120 171 96.2292 
1121 119 37.996 
1122 0 43.2074 
1123 45 84.838 
1124 12 60.7664 
1125 13 48.2852 
1126 43 34.9926 
1127 52 42.5077 
1128 48 49.4896 
1129 300 97.3679 
1130 62 43.4125 
1131 179 63.7296 
1132 191 63.7904 
1133 39 71.0535 
1134 62 30.4798 
1135 167 116.114 
1136 42 150.326 
1137 26 85.5852 
1138 29 64.9147 
1139 30 57.0044 
1140 37 98.3002 
1141 128 109.917 
1142 144 80.9079 
1143 55 67.6772 
1144 36 67.9159 
1145 45 100.478 
1146 28 32.7263 
1147 55 80.1133 
1148 66 100.791 
1149 126 71.1605 
1150 23 54.4181 
1151 626 82.2496 
1152 92 70.37 
1153 55 79.6629 
1154 5 54.6121 
1155 17 55.8332 
1156 79 146.946 
1157 47 48.4415 
1158 200 135.594 
1159 15 56.6132 
1160 656 145.24 
1161 19 46.8612 
1162 34 55.6026 
1163 29 104.878 
1164 121 95.3233 
1165 258 212.674 
1166 0 26.3832 
1167 185 159.836 
1168 179 100.563 
1169 251 94.7046 
1170 62 117.418 
1171 18 57.8764 
1172 26 67.525 
1173 40 137.167 
1174 114 36.9814 
1175 43 84.0737 
1176 57 35.9757 
1177 158 105.555 
1178 101 42.5969 
1179 49 122.425 
1180 9 61.6751 
1181 869 129.805 
1182 106 53.1384 
1183 203 274.132 
1184 64 84.9737 
1185 67 88.0147 
1186 49 50.3817 
1187 23 124.687 
1188 54 41.6695 
1189 56 91.3744 
1190 211 72.5313 
1191 22 39.9681 
1192 14 62.6294 
1193 65 71.6202 
1194 29 40.0913 
1195 126 81.874 
1196 70 72.5825 
1197 8 44.8664 
1198 10 232.99 
1199 29 62.3044 
1200 11 32.5311 
1201 23 88.422 
1202 87 52.0297 
1203 45 40.201 
1204 59 61.9312 
1205 1 87.3318 
1206 37 106.335 
1207 50 96.1195 
1208 65 135.16 
1209 13 46.4513 
1210 53 111.489 
1211 72 231.563 
1212 154 159.642 
1213 38 82.6915 
1214 25 92.7468 
1215 9 40.8902 
1216 213 126.211 
1217 127 136.455 
1218 169 110.48 
1219 12 92.9334 
1220 91 95.5349 
1221 418 115.785 
1222 96 73.006 
1223 231 97.9044 
1224 22 57.4406 
1225 22 30.1905 
1226 209 70.1148 
1227 71 94.8322 
1228 352 84.1501 
1229 21 77.2113 
1230 211 120.28 
1231 50 88.4227 
1232 3 40.2726 
1233 9 35.0208 
1234 10 73.1565 
1235 24 43.443 
1236 27 39.7593 
1237 75 87.2414 
1238 15 116.216 
1239 22 59.961 
1240 95 106.471 
1241 99 124.049 
1242 32 35.5495 
1243 36 41.1997 
1244 5 65.693 
1245 76 63.4682 
1246 19 27.5268 
1247 63 54.0918 
1248 72 34.1258 
1249 5 41.6695 
1250 185 100.217 
1251 3 28.4275 
1252 43 107.216 
1253 97 73.7086 
1254 68 56.4646 
1255 154 56.0063 
1256 180 205.78 
1257 56 50.689 
1258 39 86.3358 
1259 83 186.878 
1260 376 112.565 
1261 28 61.0335 
1262 68 96.6055 
1263 185 116.574 
1264 93 129.703 
1265 72 50.0932 
1266 253 185.204 
1267 48 35.5068 
1268 53 96.7979 
1269 14 19.3825 
1270 12 68.8668 
1271 5 33.7769 
1272 199 111.012 
1273 316 197.924 
1274 96 75.3154 
1275 74 96.7436 
1276 72 209.738 
1277 179 63.4682 
1278 116 64.6403 
1279 4 49.8876 
1280 45 101.087 
1281 105 37.2077 
1282 11 21.7468 
1283 62 35.6486 
1284 5 42.7751 
1285 35 53.8644 
1286 165 148.082 
1287 38 34.6102 
1288 94 60.3815 
1289 38 32.4403 
1290 311 32.7741 
1291 183 48.0586 
1292 30 73.2674 
1293 14 43.0335 
1294 10 71.2008 
1295 162 176.809 
1296 22 49.1993 
1297 43 43.9247 
1298 76 68.085 
1299 46 81.252 
1300 128 133.45 
1301 135 78.6383 
1302 286 127.584 
1303 185 145.283 
1304 34 97.3819 
1305 0 35.5374 
1306 0 63.7127 
1307 279 142.204 
1308 92 138.102 
1309 64 101.892 
1310 212 146.607 
1311 16 68.997 
1312 70 73.8842 
1313 57 33.6412 
1314 9 200.586 
1315 6 49.386 
1316 13 33.1232 
1317 33 75.5334 
1318 58 59.5686 
1319 392 130.158 
1320 106 102.82 
1321 12 35.5495 
1322 13 33.5443 
1323 409 83.6726 
1324 24 61.1088 
1325 106 54.4486 
1326 29 52.4856 
1327 143 62.6413 
1328 0 32.1636 
1329 3 74.9746 
1330 58 105.093 
1331 51 80.0944 
1332 38 84.8082 
1333 114 111.514 
1334 96 59.5578 
1335 44 88.1025 
1336 6 33.6549 
1337 12 51.2672 
1338 111 167.523 
1339 67 70.6454 
1340 67 63.4797 
1341 229 174.029 
1342 94 112.274 
1343 55 36.7401 
1344 18 204.463 
1345 9 45.6961 
1346 68 46.6207 
1347 118 64.0107 
1348 11 31.2536 
1349 206 170.446 
1350 282 224.092 
1351 3 47.2998 
1352 16 63.8441 
1353 277 42.694 
1354 215 68.8668 
1355 24 45.7783 
1356 16 71.7733 
1357 187 171.553 
1358 163 78.7023 
1359 47 26.3832 
1360 69 35.0617 
1361 1 33.8347 
1362 454 199.041 
1363 4 86.2958 
1364 123 39.6361 
1365 149 259.741 
1366 7 57.1218 
1367 143 78.7611 
1368 74 121.69 
1369 99 57.1168 
1370 36 67.2902 
1371 325 228.503 
1372 54 68.9955 
1373 45 126.676 
1374 6 34.8915 
1375 107 108.683 
1376 559 100.768 
1377 73 80.9558 
1378 21 60.6194 
1379 5 42.1506 
1380 361 118.485 
1381 134 131.796 
1382 107 115.902 
1383 43 80.2961 
1384 2 23.3562 
1385 23 34.2593 
1386 31 39.0386 
1387 14 59.1702 
1388 115 67.1702 
1389 239 454.165 
1390 6 26.4948 
1391 268 106.077 
1392 116 71.2766 
1393 85 103.341 
1394 186 60.2561 
1395 144 137.174 
1396 8 44.3629 
1397 14 31.1702 
1398 45 145.63 
1399 14 44.3089 
1400 25 56.7863 
1401 296 114.654 
1402 90 30.0495 
1403 11 47.0817 
1404 38 109.509 
1405 32 81.8311 
1406 38 68.2494 
1407 4 62.3354 
1408 60 64.5709 
1409 112 84.5794 
1410 495 171.256 
1411 276 158.978 
1412 107 60.0391 
1413 54 87.9307 
1414 37 170.53 
1415 277 264.317 
1416 4 33.7769 
1417 24 45.2625 
1418 76 82.2849 
1419 9 43.8695 
1420 132 51.3794 
1421 8 42.1331 
1422 39 57.575 
1423 230 150.96 
1424 20 96.8611 
1425 34 67.5419 
1426 81 92.6417 
1427 294 152.68 
1428 9 47.6322 
1429 42 54.7103 
1430 72 76.7641 
1431 60 77.0391 
1432 114 164.264 
1433 27 52.1732 
1434 11 57.468 
1435 136 126.56 
1436 3 83.2213 
1437 39 125.403 
1438 12 63.621 
1439 170 87.115 
1440 72 81.1971 
1441 40 55.0669 
1442 15 48.468 
1443 47 92.9699 
1444 115 77.8654 
1445 35 36.7531 
1446 80 90.7869 
1447 13 68.2965 
1448 262 107.073 
1449 449 95.7901 
1450 31 132.279 
1451 270 51.6731 
1452 12 62.3044 
1453 11 46.9163 
1454 35 39.9233 
1455 3 34.143 
1456 41 43.3254 
1457 13 36.7094 
1458 28 84.1696 
1459 0 29.9173 
1460 402 64.0951 
1461 107 74.8318 
1462 0 28.5121 
1463 212 111.502 
1464 29 55.6564 
1465 74 32.0208 
1466 36 38.9828 
1467 67 56.3653 
1468 45 97.0661 
1469 22 40.0538 
1470 189 232.466 
1471 122 68.9899 
1472 149 224.55 
1473 16 43.2192 
1474 23 32.7285 
1475 76 63.1071 
1476 91 106.58 
1477 48 96.7436 
1478 57 56.3028 
1479 25 61.103 
1480 495 102.486 
1481 26 28.6851 
1482 349 152.773 
1483 20 72.7971 
1484 14 40.3624 
1485 72 72.6421 
1486 68 61.9885 
1487 36 108.672 
1488 147 69.8525 
1489 88 117.466 
1490 109 40.8456 
1491 37 43.6927 
1492 55 66.4148 
1493 51 51.8959 
1494 37 40.6175 
1495 237 138.483 
1496 12 206.735 
1497 231 71.633 
1498 338 67.6213 
1499 52 121.106 
1500 62 66.9788 
1501 7 119.822 
1502 140 43.4601 
1503 144 36.9814 
1504 8 42.2991 
1505 62 297.784 
1506 6 61.139 
1507 109 45.7337 
1508 23 90.2157 
1509 561 141.982 
1510 79 101.589 
1511 95 152.598 
1512 24 36.1137 
1513 289 45.898 
1514 82 131.079 
1515 33 46.4929 
1516 4 60.7185 
1517 197 121.809 
1518 9 88.3267 
1519 53 61.3804 
1520 76 111.44 
1521 9 56.8103 
1522 78 44.0299 
1523 322 265.501 
1524 28 89.9743 
1525 24 80.8148 
1526 101 125.348 
1527 0 43.5868 
1528 421 135.989 
1529 6 73.0078 
1530 4 68.6492 
1531 101 105.554 
1532 13 62.5072 
1533 10 33.4249 
1534 1 30.5417 
1535 143 133.036 
1536 0 28.2537 
1537 13 69.8687 
1538 80 51.7327 
1539 40 42.3185 
1540 201 175.986 
1541 63 58.0986 
1542 57 35.6486 
1543 28 131.739 
1544 0 26.8046 
1545 23 157.112 
1546 25 53.9692 
1547 72 178.727 
1548 167 139.883 
1549 200 91.7613 
1550 57 66.3634 
1551 527 216.094 
1552 53 74.4925 
1553 120 98.6953 
1554 42 84.1613 
1555 136 94.2265 
1556 153 163.701 
1557 10 44.3629 
1558 252 147.297 
1559 40 103.44 
1560 2 38.6055 
1561 114 175.806 
1562 81 41.2564 
1563 30 93.0411 
1564 76 103.73 
1565 61 111.058 
1566 18 30.7948 
1567 33 42.5868 
1568 144 202.557 
1569 8 70.5004 
1570 688 140.15 
1571 35 133.129 
1572 19 70.4643 
1573 318 93.7626 
1574 22 79.9343 
1575 110 46.5196 
1576 45 113.103 
1577 62 87.209 
1578 153 76.923 
1579 763 266.475 
1580 61 166.213 
1581 13 108.741 
1582 119 48.1837 
1583 45 110.685 
1584 151 62.2412 
1585 5 33.0073 
1586 20 37.0298 
1587 190 218.298 
1588 10 29.7048 
1589 63 51.239 
1590 7 123.107 
1591 142 110.461 
1592 1 39.7463 
1593 81 38.1506 
1594 127 29.621 
1595 363 51.2242 
1596 24 35.7948 
1597 5 34.4784 
1598 22 64.4576 
1599 34 80.7283 
1600 16 45.5008 
1601 33 33.8347 
1602 33 81.8839 
1603 214 133.781 
1604 29 250.391 
1605 29 41.1188 
1606 4 29.082 
1607 22 55.4424 
1608 212 74.7636 
1609 34 69.6562 
1610 169 47.4918 
1611 3 48.106 
1612 352 163.014 
1613 211 453.656 
1614 225 180.856 
1615 75 115.89 
1616 142 118.079 
1617 429 253.146 
1618 132 71.633 
1619 30 68.1097 
1620 25 57.4132 
1621 34 47.4247 
1622 160 39.5363 
1623 77 137.896 
1624 32 51.4863 
1625 95 95.1531 
1626 70 142.955 
1627 319 143.318 
1628 36 83.3336 
1629 153 105.051 
1630 277 82.8685 
1631 61 113.346 
1632 6 47.7642 
1633 43 89.5596 
1634 22 135.619 
1635 46 106.26 
1636 554 194.851 
1637 197 157.764 
1638 399 159.058 
1639 16 61.2902 
1640 53 64.6499 
1641 94 123.985 
1642 1 86.4729 
1643 174 105.925 
1644 12 73.2904 
1645 64 46.656 
1646 37 98.4197 
1647 21 78.0893 
1648 38 61.0368 
1649 114 82.2958 
1650 37 272.606 
1651 41 32.1162 
1652 3 32.8989 
1653 35 132.254 
1654 20 68.5698 
1655 51 85.6459 
1656 56 123.597 
1657 9 64.1601 
1658 79 35.6224 
1659 25 50.5867 
1660 65 105.04 
1661 10 64.8956 
1662 338 121.44 
1663 236 128.573 
1664 19 35.0266 
1665 113 74.7587 
1666 2 79.2474 
1667 409 95.2322 
1668 229 98.5686 
1669 1 99.8236 
1670 25 39.4254 
1671 9 105.299 
1672 15 39.0386 
1673 71 98.2614 
1674 123 36.8744 
1675 0 62.6682 
1676 46 66.2281 
1677 124 123.926 
1678 0 35.036 
1679 3 30.5417 
1680 57 154.586 
1681 207 164.972 
1682 11 31.0187 
1683 51 173.727 
1684 35 65.8823 
1685 5 32.0349 
1686 467 226.975 
1687 79 72.3359 
1688 41 53.0951 
1689 16 62.7354 
1690 8 70.0947 
1691 0 32.1636 
1692 146 166.179 
1693 331 81.0507 
1694 195 109.376 
1695 14 70.1085 
1696 150 119.613 
1697 54 114.032 
1698 128 103.316 
1699 353 115.724 
1700 213 90.0301 
1701 90 84.178 
1702 76 43.2585 
1703 78 145.262 
1704 11 35.7559 
1705 20 52.0297 
1706 16 68.0173 
1707 102 72.2689 
1708 33 53.8123 
1709 13 42.694 
1710 109 83.7464 
1711 55 79.9317 
1712 149 81.028 
1713 61 142.041 
1714 118 121.146 
1715 84 153.603 
1716 91 102.31 
1717 37 40.8887 
1718 15 45.7783 
1719 8 59.133 
1720 51 111.077 
1721 43 54.7064 
1722 0 27.0985 
1723 22 80.2633 
1724 52 44.2086 
1725 7 39.553 
1726 3 52.379 
1727 87 198.928 
1728 195 75.4883 
1729 28 54.3772 
1730 30 139.254 
1731 101 55.5479 
1732 506 266.746 
1733 166 97.4514 
1734 84 61.4786 
1735 7 36.8837 
1736 18 29.3246 
1737 88 132.17 
1738 101 98.0831 
1739 26 79.6387 
1740 252 137.925 
1741 6 38.6279 
1742 39 42.1012 
1743 99 23.2766 
1744 147 211.411 
1745 21 95.1563 
1746 8 54.7103 
1747 46 42.5549 
1748 126 102.929 
1749 33 99.3372 
1750 17 71.3032 
1751 60 113.936 
1752 22 53.3021 
1753 10 52.6026 
1754 97 142.643 
1755 20 140.214 
1756 93 185.262 
1757 384 127.23 
1758 120 78.4912 
1759 237 84.5481 
1760 7 37.2083 
1761 82 98.9704 
1762 83 68.1384 
1763 10 39.2947 
1764 31 85.4226 
1765 8 56.746 
1766 0 30.2481 
1767 41 34.5014 
1768 9 50.2125 
1769 3 45.7783 
1770 106 193.287 
1771 342 98.9929 
1772 97 70.4888 
1773 142 127.893 
1774 65 153.673 
1775 87 50.315 
1776 151 153.536 
1777 27 37.2077 
1778 1 75.8163 
1779 141 64.9147 
1780 142 73.9436 
1781 5 98.3266 
1782 22 57.3363 
1783 2 31.4902 
1784 13 56.6163 
1785 57 94.9259 
1786 4 59.7455 
1787 53 53.3807 
1788 50 108.707 
1789 38 81.1246 
1790 17 37.6808 
1791 28 160.223 
1792 88 149.096 
1793 6 44.2285 
1794 0 32.8415 
1795 171 90.9381 
1796 83 56.4223 
1797 57 52.2659 
1798 48 58.4136 
1799 74 37.303 
1800 161 144.995 
1801 426 130.519 
1802 29 61.6751 
1803 201 92.7209 
1804 44 47.3323 
1805 98 96.6017 
1806 2 82.9914 
1807 79 108.974 
1808 75 97.9629 
1809 185 78.5164 
1810 273 223.86 
1811 35 37.0731 
1812 158 176.34 
1813 13 54.9341 
1814 26 86.3046 
1815 181 147.955 
1816 28 74.6171 
1817 18 55.195 
1818 15 120.294 
1819 30 150.306 
1820 9 50.8128 
1821 238 174.681 
1822 13 82.7148 
1823 105 66.0176 
1824 155 294.802 
1825 195 77.5862 
1826 76 29.6074 
1827 0 47.3762 
1828 595 268.875 
1829 202 61.9885 
1830 63 34.913 
1831 4 31.2153 
1832 96 128.037 
1833 101 72.148 
1834 36 85.1346 
1835 27 29.5493 
1836 9 84.6616 
1837 210 195.126 
1838 59 160.712 
1839 47 31.2347 
1840 625 101.075 
1841 165 106.894 
1842 5 44.6693 
1843 175 78.6383 
1844 136 76.2304 
1845 44 212.341 
1846 301 273.178 
1847 303 123.713 
1848 213 138.605 
1849 70 118.855 
1850 10 93.3677 
1851 76 58.5388 
1852 45 91.8921 
1853 40 74.1456 
1854 120 43.6242 
1855 29 50.7933 
1856 35 36.3479 
1857 29 98.6138 
1858 217 49.9397 
1859 26 62.0643 
1860 297 145.244 
1861 15 41.5838 
1862 8 29.4845 
1863 73 74.599 
1864 65 67.8499 
1865 25 57.6564 
1866 83 207.929 
1867 26 82.8607 
1868 13 85.6323 
1869 88 105.875 
1870 57 60.9445 
1871 66 84.3639 
1872 48 106.342 
1873 131 86.9828 
1874 1 47.7642 
1875 181 32.0685 
1876 7 48.3313 
1877 22 38.8144 
1878 0 32.1636 
1879 151 111.147 
1880 120 158.572 
1881 53 81.4719 
1882 1 36.4972 
1883 20 30.0445 
1884 0 79.0232 
1885 63 42.4169 
1886 93 86.8239 
1887 151 84.3268 
1888 30 51.0735 
1889 1 47.8702 
1890 21 92.1015 
1891 152 31.5673 
1892 24 74.6449 
1893 84 133.352 
1894 19 37.8771 
1895 18 124.88 
1896 20 49.6284 
1897 229 113.912 
1898 16 63.3551 
1899 21 70.3774 
1900 53 68.997 
1901 167 53.1298 
1902 0 29.9173 
1903 167 75.1072 
1904 11 130.351 
1905 6 29.4845 
1906 105 65.1707 
1907 110 32.9823 
1908 12 58.9696 
1909 19 42.5721 
1910 76 67.328 
1911 200 38.4943 
1912 5 40.8292 
1913 542 287.416 
1914 47 46.4579 
1915 28 98.448 
1916 90 43.506 
1917 111 96.5016 
1918 144 115.545 
1919 110 40.6175 
1920 101 149.666 
1921 103 120.68 
1922 12 50.392 
1923 165 60.6228 
1924 40 32.1636 
1925 169 124.718 
1926 4 223.678 
1927 23 72.3103 
1928 4 112.066 
1929 52 74.4499 
1930 38 65.3717 
1931 3 101.058 
1932 48 115.104 
1933 38 61.3589 
1934 0 34.7028 
1935 150 102.905 
1936 115 171.534 
1937 49 179.91 
1938 21 49.3614 
1939 34 97.5381 
1940 280 187.651 
1941 467 159.283 
1942 30 99.6947 
1943 19 62.403 
1944 109 65.5394 
1945 71 91.1865 
1946 107 69.2894 
1947 64 77.7907 
1948 2 50.4257 
1949 117 63.6387 
1950 28 158.111 
1951 83 37.0702 
1952 178 173.699 
1953 93 66.1418 
1954 106 118.335 
1955 41 42.0009 
1956 27 99.6645 
1957 279 137.696 
1958 54 39.1539 
1959 4 32.7439 
1960 17 35.6796 
1961 270 83.021 
1962 137 231.732 
1963 4 77.2472 
1964 15 31.8373 
1965 53 71.9978 
1966 60 127.488 
1967 35 62.4529 
1968 120 75.8101 
1969 76 82.2496 
1970 16 57.9981 
1971 76 130.593 
1972 15 66.6575 
1973 19 99.1703 
1974 193 222.407 
1975 14 62.0643 
1976 2 35.1982 
1977 14 50.0932 
1978 19 93.499 
1979 35 34.6249 
1980 67 121.013 
1981 0 33.8347 
1982 24 30.7867 
1983 31 120.751 
1984 17 35.3845 
1985 96 102.115 
1986 221 89.5203 
1987 42 64.4738 
1988 119 52.7972 
1989 1 42.6981 
1990 277 96.8863 
1991 0 32.0286 
1992 58 115.67 
1993 93 94.3136 
1994 142 194.317 
1995 8 49.3614 
1996 56 68.4153 
1997 191 134.492 
1998 140 166.131 
1999 28 61.8025 
2000 371 136.847 
2001 105 58.9901 
2002 7 80.08 
2003 4 32.346 
2004 39 135.987 
2005 66 42.9398 
2006 15 69.0008 
2007 35 32.346 
2008 25 60.0793 
2009 76 46.2273 
2010 251 135.218 
2011 403 200.55 
2012 35 56.711 
2013 10 44.5953 
2014 81 93.9962 
2015 104 140.939 
2016 34 80.09 
2017 84 76.578 
2018 183 53.2945 
2019 0 94.1394 
2020 77 80.0608 
2021 124 141.122 
2022 41 249.097 
2023 29 100.96 
2024 745 148.12 
2025 109 63.358 
2026 170 153.218 
2027 70 75.4775 
2028 54 56.4646 
2029 38 52.6597 
2030 632 169.427 
2031 443 264.836 
2032 111 50.7243 
2033 4 34.8731 
2034 92 61.7743 
2035 36 36.2042 
2036 73 132.334 
2037 110 83.3225 
2038 92 69.2965 
2039 20 83.2567 
2040 42 64.7478 
2041 189 113.407 
2042 66 52.8645 
2043 54 54.1234 
2044 37 90.9769 
2045 181 62.1749 
2046 145 158.224 
2047 118 98.8655 
2048 76 134.311 
2049 28 79.8573 
2050 116 51.486 
2051 44 79.421 
2052 169 137.114 
2053 22 27.4937 
2054 4 38.9828 
2055 37 138.902 
2056 7 58.3496 
2057 53 38.4943 
2058 62 32.4061 
2059 72 80.5412 
2060 37 117.251 
2061 182 226.231 
2062 15 58.664 
2063 2 29.1366 
2064 22 40.6127 
2065 33 132.716 
2066 4 52.1375 
2067 73 88.7502 
2068 31 36.3997 
2069 96 123.921 
2070 76 79.9585 
2071 38 53.0182 
2072 3 70.345 
2073 32 50.3829 
2074 101 84.6161 
2075 73 67.7698 
2076 48 55.1353 
2077 14 30.9368 
2078 167 103.907 
2079 24 87.2656 
2080 151 170.298 
2081 5 47.6322 
2082 6 80.5708 
2083 8 32.5311 
2084 20 51.3304 
2085 72 121.76 
2086 0 42.5495 
2087 1 26.6739 
2088 41 133.152 
2089 251 82.1538 
2090 6 99.8377 
2091 20 92.9699 
2092 55 152.724 
2093 281 179.313 
2094 17 37.7333 
2095 10 52.5396 
2096 2 40.5243 
2097 13 36.4972 
2098 161 99.9625 
2099 483 128.414 
2100 189 127.094 
2101 12 40.7042 
2102 58 61.7743 
2103 105 204.03 
2104 39 132.83 
2105 91 136.863 
2106 144 79.3304 
2107 71 55.3667 
2108 69 71.5816 
2109 6 28.2537 
2110 41 94.9988 
2111 82 61.2347 
2112 174 226.118 
2113 248 78.17 
2114 28 45.4191 
2115 99 68.4153 
2116 667 256.026 
2117 47 45.6285 
2118 9 46.0761 
2119 3 42.6371 
2120 479 90.8086 
2121 41 43.0587 
2122 106 84.7282 
2123 217 226.269 
2124 5 99.4375 
2125 84 52.1962 
2126 76 127.71 
2127 82 64.3491 
2128 40 72.0309 
2129 49 36.4407 
2130 16 77.3475 
2131 123 329.582 
2132 5 82.7048 
2133 255 117.714 
2134 67 60.0793 
2135 115 42.0493 
2136 0 85.116 
2137 51 79.1046 
2138 26 85.6657 
2139 6 47.5013 
2140 11 76.6707 
2141 13 92.704 
2142 30 95.2792 
2143 69 48.2616 
2144 188 75.6413 
2145 42 177.774 
2146 134 58.41 
2147 7 67.933 
2148 39 40.9769 
2149 66 169.183 
2150 20 73.2597 
2151 593 326.716 
2152 123 204.471 
2153 155 105.051 
2154 102 165.16 
2155 7 37.8771 
2156 10 37.8771 
2157 86 104.039 
2158 185 149.033 
2159 171 82.7473 
2160 159 116.254 
2161 285 119.492 
2162 19 35.7559 
2163 158 52.6597 
2164 148 68.997 
2165 37 91.8039 
2166 38 59.7459 
2167 6 57.4706 
2168 92 116.402 
2169 31 93.3894 
2170 46 51.5273 
2171 15 211.992 
2172 54 92.1262 
2173 34 38.1087 
2174 322 103.44 
2175 103 53.0973 
2176 101 100.623 
2177 174 160.75 
2178 217 125.212 
2179 128 88.542 
2180 31 38.6013 
2181 23 54.6061 
2182 47 70.0015 
2183 38 108.094 
2184 72 83.3146 
2185 148 112.461 
2186 6 55.62 
2187 3 35.287 
2188 5 40.447 
2189 105 58.5141 
2190 11 68.4757 
2191 136 142.982 
2192 8 60.5514 
2193 3 97.6733 
2194 178 169.589 
2195 137 50.0682 
2196 59 73.632 
2197 24 62.2197 
2198 442 469.14 
2199 12 29.6846 
2200 86 52.2825 
2201 26 120.438 
2202 13 124.255 
2203 29 122.798 
2204 11 40.4517 
2205 19 30.5417 
2206 24 28.874 
2207 116 54.3407 
2208 99 137.604 
2209 98 132.054 
2210 261 119.582 
2211 7 32.1162 
2212 53 174.843 
2213 39 66.0791 
2214 175 103.663 
2215 18 56.2921 
2216 29 74.6187 
2217 28 50.0541 
2218 18 50.4542 
2219 143 128.333 
2220 123 191.464 
2221 10 27.8024 
2222 320 105.037 
2223 0 62.0643 
2224 61 52.1763 
2225 50 63.6159 
2226 25 73.8208 
2227 7 38.2618 
2228 103 141.284 
2229 0 45.3399 
2230 256 114.248 
2231 121 160.696 
2232 69 85.2358 
2233 1 99.5328 
2234 0 30.5417 
2235 38 52.2098 
2236 40 159.758 
2237 59 45.9584 
2238 1 30.7163 
2239 98 76.1467 
2240 83 113.541 
2241 103 63.4487 
2242 16 35.953 
2243 10 124.581 
2244 11 46.7046 
2245 2 68.1086 
2246 5 31.1679 
2247 60 85.8313 
2248 34 50.4992 
2249 37 107.826 
2250 3 42.9398 
2251 102 104.869 
2252 86 45.0761 
2253 53 113.495 
2254 123 168.183 
2255 77 78.6681 
2256 136 145.1 
2257 24 44.2285 
2258 68 76.7514 
2259 85 67.4069 
2260 142 61.7194 
2261 156 216.581 
2262 15 70.9747 
2263 0 35.5374 
2264 6 72.2556 
2265 235 92.154 
2266 92 103.762 
2267 6 40.0185 
2268 83 62.7903 
2269 122 34.6702 
2270 10 69.2217 
2271 142 77.7132 
2272 79 41.807 
2273 168 117.742 
2274 317 89.5693 
2275 54 133.614 
2276 92 18.5901 
2277 19 32.346 
2278 78 92.3765 
2279 86 117.441 
2280 46 51.7451 
2281 0 28.7911 
2282 203 83.5079 
2283 44 49.1493 
2284 8 44.5149 
2285 46 68.7081 
2286 211 131.711 
2287 11 75.3094 
2288 65 89.6231 
2289 28 104.652 
2290 84 85.4418 
2291 16 34.5689 
2292 26 75.3082 
2293 31 32.9949 
2294 10 37.7817 
2295 21 47.7642 
2296 113 133.422 
2297 21 78.0888 
2298 200 354.387 
2299 79 96.6679 
2300 271 187.037 
2301 106 159.44 
2302 57 85.3205 
2303 20 32.6363 
2304 47 44.4615 
2305 63 82.6334 
2306 1 65.9149 
2307 321 280.393 
2308 61 75.8635 
2309 27 69.7733 
2310 36 105.464 
2311 45 55.1512 
2312 17 49.0353 
2313 48 56.6339 
2314 100 55.2024 
2315 26 85.8815 
2316 346 95.6317 
2317 9 65.4116 
2318 2 34.6249 
2319 144 119.414 
2320 80 55.3477 
2321 13 100.326 
2322 39 121.794 
2323 148 31.8426 
2324 85 51.4825 
2325 83 130.389 
2326 76 112.409 
2327 4 98.1929 
2328 103 31.0224 
2329 153 179.089 
2330 89 113.365 
2331 121 173.922 
2332 123 93.2784 
2333 25 41.193 
2334 43 61.0889 
2335 12 38.9828 
2336 5 121.223 
2337 88 118.064 
2338 81 42.5495 
2339 235 345.165 
2340 106 122.182 
2341 17 33.2987 
2342 40 82.3002 
2343 9 74.6544 
2344 51 100.623 
2345 52 121.82 
2346 38 59.2827 
2347 124 101.589 
2348 50 128.919 
2349 57 51.6582 
2350 127 161.13 
2351 50 85.0414 
2352 104 62.6705 
2353 73 112.716 
2354 35 102.199 
2355 340 68.3121 
2356 34 61.8796 
2357 37 60.9445 
2358 211 33.9256 
2359 220 123.667 
2360 73 230.691 
2361 54 59.0642 
2362 132 69.7504 
2363 136 140.343 
2364 225 272.043 
2365 22 61.1271 
2366 187 129.63 
2367 159 96.3226 
2368 204 83.8942 
2369 48 49.552 
2370 75 154.001 
2371 74 80.8538 
2372 235 69.3821 
2373 70 90.764 
2374 67 122.289 
2375 42 55.6282 
2376 2 43.6868 
2377 15 107.135 
2378 378 216.126 
2379 19 90.0028 
2380 9 96.2501 
2381 13 52.2825 
2382 38 241.812 
2383 61 92.0155 
2384 81 42.0318 
2385 222 106.18 
2386 33 126.735 
2387 88 62.9825 
2388 4 28.874 
2389 36 177.751 
2390 217 162.942 
2391 6 51.4618 
2392 337 181.952 
2393 172 65.8635 
2394 105 42.1096 
2395 11 112.137 
2396 22 77.316 
2397 6 71.2266 
2398 149 78.5875 
2399 135 128.391 
2400 313 167.159 
2401 4 37.9163 
2402 31 216.447 
2403 6 26.0565 
2404 101 111.159 
2405 99 54.3351 
2406 40 71.7517 
2407 22 29.0872 
2408 22 112.066 
2409 28 40.856 
2410 5 88.5703 
2411 15 54.3145 
2412 303 78.8927 
2413 10 127.326 
2414 38 49.2881 
2415 41 79.0278 
2416 3 27.5378 
2417 26 112.327 
2418 67 93.0001 
2419 46 32.9949 
2420 1 52.8645 
2421 99 163.149 
2422 43 31.9382 
2423 80 101.466 
2424 6 54.3828 
2425 87 98.867 
2426 70 102.309 
2427 6 60.2998 
2428 15 46.9318 
2429 51 62.852 
2430 108 56.3983 
2431 2 41.7809 
2432 38 66.6893 
2433 124 129.452 
2434 69 92.7209 
2435 104 108.983 
2436 113 66.1304 
2437 127 120.5 
2438 83 71.5906 
2439 12 178.815 
2440 56 50.8962 
2441 69 105.698 
2442 34 88.751 
2443 108 64.166 
2444 101 87.8836 
2445 18 108.757 
2446 5 59.4801 
2447 17 96.8087 
2448 34 61.6433 
2449 67 111.189 
2450 131 73.6712 
2451 15 68.1533 
2452 28 30.5398 
2453 0 214.745 
2454 72 83.5189 
2455 31 96.3568 
2456 25 39.3888 
2457 295 107.066 
2458 29 74.8318 
2459 24 34.487 
2460 6 28.6851 
2461 8 41.0214 
2462 250 53.9065 
2463 3 52.8645 
2464 82 156.154 
2465 93 102.95 
2466 29 128.847 
2467 53 97.9527 
2468 27 46.4513 
2469 3 36.7982 
2470 92 195.949 
2471 76 85.1317 
2472 159 100.097 
2473 130 48.9418 
2474 248 189.608 
2475 130 131.669 
2476 37 52.5092 
2477 138 165.207 
2478 49 81.1104 
2479 7 11.7374 
2480 17 79.4806 
2481 21 93.2554 
2482 72 83.9205 
2483 345 527.358 
2484 142 246.684 
2485 5 132.008 
2486 125 44.124 
2487 11 39.0389 
2488 177 109.994 
2489 4 30.5417 
2490 57 89.6657 
2491 519 242.958 
2492 385 141.658 
2493 7 65.7663 
2494 76 98.7968 
2495 207 117.327 
2496 21 40.3957 
2497 200 104.061 
2498 130 50.9357 
2499 27 73.9539 
2500 21 35.8231 
2501 144 51.6582 
2502 101 165.792 
2503 107 99.7055 
2504 108 68.6151 
2505 22 67.7051 
2506 87 51.2554 
2507 216 201.734 
2508 21 61.0783 
2509 110 320.292 
2510 21 123.468 
2511 7 32.0973 
2512 13 84.1846 
2513 216 175.15 
2514 6 67.3412 
2515 7 44.2086 
2516 23 36.4972 
2517 12 34.5014 
2518 35 76.7599 
2519 143 91.2145 
2520 135 36.0211 
2521 48 58.6243 
2522 106 198.807 
2523 16 81.6048 
2524 101 107.924 
2525 140 69.1785 
2526 122 128.567 
2527 2 68.5817 
2528 44 69.3663 
2529 287 125.028 
2530 2 84.6161 
2531 78 88.2059 
2532 4 33.0275 
2533 715 205.261 
2534 77 103.202 
2535 41 80.4827 
2536 93 57.0755 
2537 48 97.8571 
2538 84 102.827 
2539 129 90.2157 
2540 9 49.4425 
2541 98 120.578 
2542 22 56.793 
2543 85 80.0538 
2544 339 166.145 
2545 57 124.387 
2546 0 33.8347 
2547 54 89.6916 
2548 10 105.958 
2549 6 73.9654 
2550 56 84.0494 
2551 19 124.718 
2552 41 112.007 
2553 11 53.0098 
2554 87 109.332 
2555 189 49.7777 
2556 138 86.5708 
2557 109 102.851 
2558 23 166.535 
2559 0 32.1636 
2560 160 58.8085 
2561 23 85.9633 
2562 40 60.3135 
2563 297 64.4214 
2564 8 76.6541 
2565 56 199.804 
2566 1 44.8403 
2567 339 196.42 
2568 11 50.6349 
2569 238 98.8506 
2570 72 112.385 
2571 134 143.909 
2572 46 69.3832 
2573 226 43.5023 
2574 42 42.6297 
2575 53 169.015 
2576 16 49.4407 
2577 45 108.851 
2578 16 63.8672 
2579 35 85.3837 
2580 129 56.1967 
2581 205 82.4865 
2582 555 535.867 
2583 51 199.63 
2584 32 100.96 
2585 3 63.6387 
2586 130 72.346 
2587 136 126.814 
2588 32 48.0735 
2589 2 87.1529 
2590 11 35.9975 
2591 6 44.6506 
2592 377 69.7334 
2593 74 71.5813 
2594 49 64.179 
2595 114 36.3199 
2596 217 58.3168 
2597 3 28.7911 
2598 4 103.826 
2599 2 58.2204 
2600 29 61.8364 
2601 110 74.0776 
2602 188 80.6193 
2603 15 32.0316 
2604 112 96.9191 
2605 37 83.5567 
2606 57 98.3616 
2607 177 97.6352 
2608 84 40.9828 
2609 37 85.8446 
2610 100 46.2936 
2611 11 70.9384 
2612 23 94.6357 
2613 61 63.9627 
2614 66 88.0514 
2615 140 197.697 
2616 8 108.965 
2617 81 76.7831 
2618 32 79.3944 
2619 41 69.3141 
2620 23 65.6329 
2621 63 59.5578 
2622 189 47.8702 
2623 145 142.764 
2624 3 73.9792 
2625 18 71.7381 
2626 171 85.6657 
2627 9 64.9415 
2628 69 133.748 
2629 3 72.6008 
2630 293 113.093 
2631 178 75.3111 
2632 3 45.7783 
2633 157 75.4775 
2634 75 155.994 
2635 25 118.956 
2636 16 48.4456 
2637 69 178.592 
2638 192 45.8557 
2639 22 64.6893 
2640 57 62.9667 
2641 56 109.482 
2642 85 118.407 
2643 63 102.654 
2644 18 64.5596 
2645 86 92.8743 
2646 5 92.7209 
2647 23 76.8788 
2648 120 67.4226 
2649 115 239.09 
2650 72 90.9145 
2651 35 57.8074 
2652 36 42.4059 
2653 4 55.4068 
2654 60 77.4209 
2655 319 175.862 
2656 41 101.939 
2657 44 83.1274 
2658 83 82.4827 
2659 9 60.8439 
2660 26 33.1976 
2661 61 69.8513 
2662 0 27.7836 
2663 132 100.96 
2664 21 52.8645 
2665 49 83.6898 
2666 54 123.773 
2667 362 77.5608 
2668 43 70.5004 
2669 27 56.8353 
2670 65 64.954 
2671 12 29.71 
2672 61 73.9206 
2673 211 43.0198 
2674 75 96.6633 
2675 141 129.073 
2676 39 59.7937 
2677 263 117.965 
2678 1 115.923 
2679 21 34.3398 
2680 1 36.3994 
2681 153 154.789 
2682 28 35.9915 
2683 205 37.7842 
2684 59 46.2698 
2685 8 45.4683 
2686 231 116.192 
2687 6 50.4834 
2688 7 119.952 
2689 43 64.0476 
2690 25 55.509 
2691 116 58.6289 
2692 103 147.194 
2693 156 167.088 
2694 59 305.267 
2695 9 63.4719 
2696 138 66.5906 
2697 22 58.7819 
2698 56 87.8268 
2699 215 83.6726 
2700 180 102.047 
2701 20 46.7675 
2702 128 45.257 
2703 0 40.8562 
2704 16 50.1233 
2705 102 47.2873 
2706 15 81.2099 
2707 3 27.446 
2708 66 45.4448 
2709 37 204.166 
2710 17 69.201 
2711 81 69.4135 
2712 40 221.261 
2713 7 70.5837 
2714 0 34.8915 
2715 24 49.6695 
2716 28 96.5948 
2717 101 159.473 
2718 154 221.221 
2719 160 80.9254 
2720 23 77.5641 
2721 27 94.9675 
2722 185 136.179 
2723 28 64.3491 
2724 236 201.386 
2725 100 86.0725 
2726 143 96.6895 
2727 0 36.107 
2728 230 58.41 
2729 172 132.367 
2730 252 215.349 
2731 32 78.0692 
2732 229 113.033 
2733 17 85.4586 
2734 0 27.8453 
2735 12 73.2674 
2736 61 122.391 
2737 5 44.9517 
2738 229 94.5011 
2739 58 155.18 
2740 43 116.841 
2741 106 197.273 
2742 165 157.445 
2743 66 95.2346 
2744 236 84.8144 
2745 89 39.9681 
2746 33 63.4719 
2747 176 93.6869 
2748 2 71.5024 
2749 213 143.352 
2750 43 93.096 
2751 203 114.654 
2752 112 73.881 
2753 3 90.681 
2754 15 88.6614 
2755 35 49.4306 
2756 30 51.0212 
2757 9 78.0642 
2758 12 36.9346 
2759 125 84.8142 
2760 210 39.2165 
2761 56 34.8253 
2762 24 118.409 
2763 178 45.4448 
2764 12 69.5515 
2765 28 64.777 
2766 33 52.4736 
2767 44 88.9541 
2768 82 116.955 
2769 30 131.392 
2770 13 44.4674 
2771 70 155.356 
2772 56 131.123 
2773 2 125.123 
2774 60 78.3775 
2775 162 95.2434 
2776 136 70.2026 
2777 155 143.657 
2778 55 83.1706 
2779 27 84.8316 
2780 6 55.4874 
2781 8 39.7636 
2782 15 46.0357 
2783 11 60.9445 
2784 60 51.9937 
2785 7 66.4678 
2786 67 116.49 
2787 376 187.817 
2788 91 149.031 
2789 42 76.421 
2790 37 109.364 
2791 78 124.961 
2792 44 92.9385 
2793 18 69.6562 
2794 205 123.181 
2795 42 38.5493 
2796 366 122.15 
2797 42 51.2672 
2798 30 73.821 
2799 74 161.032 
2800 84 73.4641 
2801 8 47.1085 
2802 12 54.0103 
2803 13 54.6668 
2804 70 84.6714 
2805 38 103.474 
2806 99 57.0705 
2807 99 38.6226 
2808 92 37.3343 
2809 84 142.622 
2810 8 30.5417 
2811 239 108.683 
2812 88 61.4648 
2813 12 50.6167 
2814 12 58.8977 
2815 4 50.8442 
2816 320 220.927 
2817 13 32.4403 
2818 43 72.9017 
2819 75 139.603 
2820 12 43.2074 
2821 9 36.5758 
2822 54 54.9578 
2823 67 55.509 
2824 4 44.529 
2825 3 29.508 
2826 123 173.295 
2827 50 93.7931 
2828 401 175.928 
2829 169 66.1418 
2830 5 39.2539 
2831 0 37.3558 
2832 59 117.764 
2833 18 56.7804 
2834 160 68.4374 
2835 42 110.446 
2836 202 66.9642 
2837 171 106.935 
2838 58 139.258 
2839 18 55.9818 
2840 11 182.127 
2841 1 26.6739 
2842 56 69.6064 
2843 5 78.9663 
2844 165 153.6 
2845 88 55.3135 
2846 57 50.1396 
2847 0 42.4142 
2848 7 57.21 
2849 32 46.9706 
2850 12 91.9823 
2851 69 111.463 
2852 84 115.558 
2853 151 96.9373 
2854 286 112.473 
2855 236 87.2656 
2856 267 93.4432 
2857 236 91.1143 
2858 42 66.5323 
2859 66 188.161 
2860 315 138.65 
2861 62 75.1464 
2862 235 106.707 
2863 64 102.716 
2864 2 36.6432 
2865 54 87.712 
2866 211 177.605 
2867 363 338.604 
2868 66 52.2306 
2869 38 44.7402 
2870 11 55.6089 
2871 13 35.8231 
2872 8 27.8707 
2873 10 175.043 
2874 135 59.5615 
2875 54 53.5686 
2876 50 145.016 
2877 63 206.586 
2878 27 157.471 
2879 17 34.1258 
2880 147 78.4481 
2881 9 94.375 
2882 225 130.258 
2883 9 63.4394 
2884 43 79.5116 
2885 48 224.087 
2886 79 63.621 
2887 105 55.0161 
2888 12 38.9828 
2889 45 43.1689 
2890 27 110.71 
2891 42 36.4835 
2892 43 55.1232 
2893 35 49.6113 
2894 18 59.7455 
2895 192 107.826 
2896 7 36.7418 
2897 12 63.2225 
2898 11 39.5363 
2899 14 89.9257 
2900 208 113.626 
2901 25 63.4487 
2902 38 104.188 
2903 3 93.9889 
2904 110 53.5847 
2905 37 33.9822 
2906 22 92.4887 
2907 117 125.291 
2908 7 55.0332 
2909 52 188.367 
2910 32 49.396 
2911 232 116.692 
2912 300 117.742 
2913 154 88.3162 
2914 136 105.925 
2915 16 63.6101 
2916 54 52.4116 
2917 162 131.922 
2918 71 149.013 
2919 11 78.2347 
2920 17 181.593 
2921 39 73.9692 
2922 20 132.352 
2923 40 85.9013 
2924 166 85.8961 
2925 5 35.7829 
2926 76 130.96 
2927 2 61.2011 
2928 19 104.464 
2929 21 55.5381 
2930 23 54.5691 
2931 22 37.172 
2932 64 175.432 
2933 56 87.5224 
2934 57 77.1184 
2935 14 38.6226 
2936 465 134.187 
2937 53 48.5244 
2938 88 44.5539 
2939 37 87.6544 
2940 13 78.7021 
2941 114 130.518 
2942 1 53.1139 
2943 60 33.6695 
2944 43 111.855 
2945 270 92.6982 
2946 32 40.3003 
2947 0 34.7975 
2948 48 59.8498 
2949 192 204.445 
2950 341 249.624 
2951 19 44.9658 
2952 32 40.201 
2953 44 150.932 
2954 23 62.2171 
2955 16 51.5439 
2956 110 43.9601 
2957 30 69.9095 
2958 31 73.2597 
2959 66 88.4754 
2960 30 45.4051 
2961 199 125.485 
2962 65 53.6167 
2963 45 46.579 
2964 225 109.258 
2965 10 38.2839 
2966 5 40.9613 
2967 31 81.5829 
2968 85 44.1904 
2969 115 116.467 
2970 51 102.119 
2971 72 43.5816 
2972 0 68.4717 
2973 56 29.6074 
2974 41 172.251 
2975 213 46.3272 
2976 230 147.788 
2977 34 25.0217 
2978 116 58.4136 
2979 182 152.098 
2980 42 98.574 
2981 6 160.301 
2982 87 66.1377 
2983 126 68.8521 
2984 30 71.4354 
2985 4 27.3284 
2986 352 80.8538 
2987 26 49.2881 
2988 47 134.925 
2989 49 60.4764 
2990 118 133.158 
2991 38 73.0297 
2992 223 86.0987 
2993 119 109.986 
2994 28 57.3279 
2995 3 73.4653 
2996 68 107.265 
2997 44 101.206 
2998 19 42.0493 
2999 5 57.6564 
3000 77 94.9988 
3001 34 90.1666 
3002 128 199.428 
3003 5 49.0441 
3004 22 64.4765 
3005 17 55.9633 
3006 122 37.1335 
3007 400 105.035 
3008 103 40.2912 
3009 20 42.1506 
3010 29 106.746 
3011 124 268.659 
3012 17 54.7446 
3013 53 88.8246 
3014 215 79.2733 
3015 7 63.3517 
3016 36 115.147 
3017 70 118.439 
3018 70 84.4059 
3019 21 29.5417 
3020 35 59.8776 
3021 5 29.3329 
3022 27 65.1923 
3023 38 92.3184 
3024 33 71.2187 
3025 54 91.566 
3026 15 62.0226 
3027 8 89.5247 
3028 106 51.2554 
3029 30 71.4354 
3030 3 57.1218 
3031 12 75.4023 
3032 13 36.7531 
3033 128 195.62 
3034 181 134.129 
3035 33 56.2333 
3036 202 202.873 
3037 30 96.1195 
3038 200 62.0643 
3039 66 93.8889 
3040 319 39.0926 
3041 122 157.977 
3042 288 216.873 
3043 302 104.038 
3044 126 74.484 
3045 60 41.7201 
3046 8 43.1738 
3047 295 180.048 
3048 3 42.8596 
3049 333 103.526 
3050 16 151.729 
3051 35 48.8074 
3052 37 64.9089 
3053 3 40.2726 
3054 3 102.277 
3055 55 38.1934 
3056 19 95.2792 
3057 1 42.1625 
3058 43 120.257 
3059 19 84.401 
3060 63 69.0651 
3061 105 95.5776 
3062 89 40.4705 
3063 54 93.3941 
3064 10 92.8466 
3065 152 105.057 
3066 83 57.5415 
3067 6 66.336 
3068 163 189.117 
3069 0 28.2537 
3070 35 76.8471 
3071 69 80.8357 
3072 59 32.4403 
3073 23 60.5647 
3074 291 87.1898 
3075 70 33.8524 
3076 181 87.4987 
3077 51 123.641 
3078 74 187.111 
3079 2 38.4844 
3080 30 79.3304 
3081 127 57.4139 
3082 68 39.2718 
3083 25 86.9278 
3084 57 104.364 
3085 53 62.2413 
3086 9 59.1079 
3087 24 126.857 
3088 30 74.0238 
3089 112 85.275 
3090 1 37.4209 
3091 230 123.109 
3092 8 48.6099 
3093 215 78.0253 
3094 38 97.1199 
3095 11 33.914 
3096 139 154.429 
3097 37 92.2794 
3098 115 127.742 
3099 136 161.252 
3100 42 98.8898 
3101 16 37.9102 
3102 12 62.3646 
3103 10 34.9258 
3104 6 77.7316 
3105 21 50.8521 
3106 156 179.842 
3107 1 29.4845 
3108 36 78.886 
3109 13 55.4683 
3110 4 41.2937 
3111 15 30.3647 
3112 47 108.754 
3113 11 34.7975 
3114 3 51.6582 
3115 21 73.3908 
3116 15 193.622 
3117 21 61.468 
3118 4 47.277 
3119 95 81.2804 
3120 3 30.7678 
3121 302 119.44 
3122 82 33.2987 
3123 228 99.3857 
3124 33 16.985 
3125 131 218.994 
3126 63 42.5118 
3127 37 90.666 
3128 18 19.5929 
3129 5 104.172 
3130 70 61.9846 
3131 28 40.698 
3132 195 229.604 
3133 58 41.3579 
3134 61 62.6171 
3135 276 96.9272 
3136 97 159.727 
3137 193 139.489 
3138 0 29.082 
3139 0 26.1904 
3140 39 49.9735 
3141 137 52.1732 
3142 12 131.69 
3143 36 58.4532 
3144 16 61.9789 
3145 50 71.3387 
3146 2 30.5417 
3147 17 95.1563 
3148 21 43.0972 
3149 21 100.674 
3150 125 89.1382 
3151 105 48.2998 
3152 89 69.0606 
3153 125 98.1929 
3154 91 69.0439 
3155 35 34.4027 
3156 64 65.6662 
3157 1 31.4902 
3158 21 99.5954 
3159 724 229.132 
3160 1 46.0111 
3161 33 53.0973 
3162 3 27.1522 
3163 97 82.9361 
3164 3 96.9405 
3165 97 70.6325 
3166 43 169.38 
3167 25 58.265 
3168 71 55.2346 
3169 3 43.3254 
3170 203 156.257 
3171 16 97.3934 
3172 49 35.036 
3173 29 69.4469 
3174 38 37.7842 
3175 2 43.4425 
3176 39 157.335 
3177 24 125.001 
3178 3 29.9173 
3179 20 62.2818 
3180 260 121.398 
3181 145 214.19 
3182 27 49.9848 
3183 204 115.813 
3184 30 82.1523 
3185 6 32.749 
3186 169 213.077 
3187 12 34.9395 
3188 0 33.6695 
3189 47 71.1346 
3190 82 91.0729 
3191 41 61.7743 
3192 22 58.326 
3193 284 213.212 
3194 6 39.3387 
3195 107 41.7201 
3196 43 52.6022 
3197 46 173.785 
3198 43 61.139 
3199 15 59.311 
3200 4 75.786 
3201 71 151.872 
3202 6 44.892 
3203 4 47.4014 
3204 12 55.62 
3205 160 62.4986 
3206 22 157.808 
3207 38 54.2299 
3208 82 44.0299 
3209 47 66.7891 
3210 31 51.5273 
3211 136 185.97 
3212 18 39.6976 
3213 112 50.0644 
3214 61 85.0019 
3215 14 44.124 
3216 206 76.2646 
3217 88 84.4059 
3218 65 52.4969 
3219 388 123.147 
3220 18 55.0956 
3221 293 62.8547 
3222 37 62.2413 
3223 56 115.846 
3224 17 61.8768 
3225 15 36.7039 
3226 141 59.2292 
3227 14 99.7879 
3228 252 231.257 
3229 27 102.742 
3230 520 204.527 
3231 102 111.058 
3232 33 105.971 
3233 35 69.2225 
3234 60 174.814 
3235 12 107.959 
3236 37 65.1073 
3237 14 31.6741 
3238 21 38.2093 
3239 11 38.229 
3240 14 67.578 
3241 18 56.3573 
3242 2 45.2243 
3243 41 77.6893 
3244 161 42.7112 
3245 347 163.613 
3246 0 27.9058 
3247 39 48.9418 
3248 4 33.7823 
3249 8 95.9095 
3250 49 73.7852 
3251 104 41.3579 
3252 6 45.2582 
3253 11 95.9169 
3254 8 43.229 
3255 37 75.026 
3256 132 90.2613 
3257 34 61.0071 
3258 24 110.685 
3259 33 42.5077 
3260 151 125.171 
3261 37 160.817 
3262 50 53.8123 
3263 26 38.1506 
3264 39 40.3265 
3265 83 76.6416 
3266 18 40.2813 
3267 24 86.4071 
3268 10 115.444 
3269 135 105.911 
3270 36 121.086 
3271 381 124.448 
3272 30 47.8702 
3273 16 34.8599 
3274 153 132.279 
3275 0 30.5863 
3276 38 80.6977 
3277 35 89.9257 
3278 224 96.2997 
3279 82 122.669 
3280 62 84.3408 
3281 17 125.403 
3282 58 83.8347 
3283 193 100.126 
3284 3 49.6284 
3285 13 33.6244 
3286 25 81.8027 
3287 8 47.1741 
3288 62 43.8695 
3289 61 77.7132 
3290 12 32.1636 
3291 166 88.8197 
3292 9 66.4678 
3293 86 94.59 
3294 321 127.949 
3295 16 65.6496 
3296 157 100.813 
3297 0 36.4006 
3298 47 45.6962 
3299 1 30.7216 
3300 24 160.506 
3301 25 69.3145 
3302 71 69.5515 
3303 40 40.6726 
3304 111 107.632 
3305 30 56.9818 
3306 66 60.2561 
3307 74 131.868 
3308 87 104.642 
3309 363 105.054 
3310 274 98.867 
3311 0 34.516 
3312 136 90.0301 
3313 218 69.0082 
3314 61 33.1232 
3315 296 91.2001 
3316 85 125.754 
3317 87 77.9421 
3318 90 50.0932 
3319 41 110.48 
3320 25 39.1625 
3321 84 42.6981 
3322 166 125.315 
3323 31 103.485 
3324 129 103.526 
3325 30 43.6983 
3326 95 84.4245 
3327 0 57.139 
3328 148 49.8008 
3329 312 125.873 
3330 323 465.313 
3331 11 90.1411 
3332 270 228.316 
3333 1 51.0573 
3334 34 299.127 
3335 70 97.8287 
3336 32 66.1901 
3337 146 79.0807 
3338 573 212.677 
3339 79 53.8123 
3340 6 65.4068 
3341 69 60.817 
3342 57 85.5902 
3343 210 214.77 
3344 278 107.216 
3345 273 235.322 
3346 10 69.6842 
3347 35 100.39 
3348 35 47.1741 
3349 14 34.8917 
3350 16 49.0751 
3351 36 66.6211 
3352 18 56.2921 
3353 11 74.0238 
3354 13 130.56 
3355 128 67.3255 
3356 341 109.521 
3357 21 34.2649 
3358 15 30.5881 
3359 59 68.8931 
3360 10 141.604 
3361 105 94.7419 
3362 143 166.739 
3363 17 36.8106 
3364 226 64.9415 
3365 120 64.0898 
3366 257 177.704 
3367 379 249.426 
3368 104 123.734 
3369 9 33.287 
3370 3 40.8637 
3371 18 120.465 
3372 173 67.9037 
3373 198 95.2752 
3374 628 176.605 
3375 28 58.0277 
3376 30 56.1327 
3377 52 35.3845 
3378 0 39.2785 
3379 9 34.0214 
3380 287 125.661 
3381 107 87.8526 
3382 83 114.659 
3383 204 160.3 
3384 70 55.4424 
3385 11 238.867 
3386 6 47.9007 
3387 95 106.902 
3388 187 80.3397 
3389 8 49.1384 
3390 230 205.523 
3391 42 59.5615 
3392 53 179.052 
3393 84 115.717 
3394 139 120.43 
3395 43 40.912 
3396 41 52.182 
3397 111 68.7396 
3398 21 35.7559 
3399 26 127.798 
3400 284 79.1098 
3401 13 48.7436 
3402 317 184.252 
3403 120 105.843 
3404 63 100.865 
3405 9 38.9182 
3406 58 81.874 
3407 199 89.5954 
3408 11 63.8089 
3409 91 45.645 
3410 45 121.846 
3411 2 11.8542 
3412 228 44.9277 
3413 29 51.0289 
3414 24 59.6482 
3415 19 53.6808 
3416 159 96.9262 
3417 52 62.7951 
3418 4 71.0546 
3419 0 140.316 
3420 63 38.4352 
3421 9 74.7885 
3422 6 27.8453 
3423 66 52.2825 
3424 50 56.4174 
3425 28 105.628 
3426 13 44.398 
3427 16 61.3804 
3428 72 35.7948 
3429 53 34.9224 
3430 61 73.5115 
3431 0 159.835 
3432 135 116.544 
3433 37 66.3491 
3434 75 146.064 
3435 338 110.932 
3436 83 66.4006 
3437 86 84.1846 
3438 14 201.932 
3439 163 54.7725 
3440 53 93.7908 
3441 72 135.961 
3442 97 104.061 
3443 114 125.578 
3444 35 67.7384 
3445 18 93.2594 
3446 48 85.9013 
3447 30 121.146 
3448 28 84.3008 
3449 177 89.1159 
3450 19 55.5381 
3451 88 41.9441 
3452 4 53.7276 
3453 39 111.695 
3454 85 69.4589 
3455 3 42.9257 
3456 51 35.1755 
3457 0 34.1258 
3458 17 32.5704 
3459 23 83.303 
3460 28 164.415 
3461 8 39.5664 
3462 3 34.2593 
3463 72 44.8119 
3464 82 239.538 
3465 6 46.0111 
3466 45 115.959 
3467 146 123.671 
3468 28 46.2451 
3469 22 57.1141 
3470 415 114.334 
3471 83 93.0001 
3472 5 76.1467 
3473 3 35.5606 
3474 1 60.8413 
3475 14 68.3085 
3476 17 41.6156 
3477 35 100.686 
3478 156 78.8268 
3479 146 45.0225 
3480 5 275.404 
3481 15 47.9007 
3482 192 98.9935 
3483 118 79.1981 
3484 115 92.6167 
3485 61 44.8403 
3486 17 128.334 
3487 39 44.6715 
3488 7 45.844 
3489 84 45.8884 
3490 61 62.5459 
3491 186 103.555 
3492 16 54.1653 
3493 4 100.284 
3494 343 131.757 
3495 8 46.9081 
3496 193 501.821 
3497 181 186.526 
3498 32 71.2649 
3499 220 108.097 
3500 77 142.658 
3501 42 33.9156 
3502 118 66.4678 
3503 20 124.539 
3504 83 43.9684 
3505 88 39.7547 
3506 121 110.908 
3507 0 46.6207 
3508 263 80.08 
3509 44 41.6069 
3510 63 120.068 
3511 155 60.6228 
3512 4 125.054 
3513 56 29.3246 
3514 369 80.8538 
3515 65 38.2093 
3516 53 199.398 
3517 27 45.2582 
3518 29 42.0318 
3519 75 80.1564 
3520 145 128.295 
3521 5 48.8074 
3522 26 88.3281 
3523 5 35.287 
3524 15 80.3443 
3525 27 58.7699 
3526 20 94.7519 
3527 8 35.5374 
3528 278 117.076 
3529 62 68.1342 
3530 9 62.0643 
3531 83 105.1 
3532 213 249.363 
3533 91 68.1533 
3534 91 111.613 
3535 130 128.02 
3536 84 102.033 
3537 308 82.1538 
3538 6 46.0111 
3539 299 107.388 
3540 27 42.1096 
3541 86 144.39 
3542 362 76.7046 
3543 164 152.372 
3544 170 89.1103 
3545 152 88.542 
3546 39 97.9994 
3547 246 61.6433 
3548 21 112.739 
3549 283 98.1673 
3550 26 81.1246 
3551 45 91.2943 
3552 209 126.777 
3553 123 92.6867 
3554 58 98.4323 
3555 14 37.6319 
3556 100 38.2308 
3557 252 114.047 
3558 119 233.937 
3559 0 33.7294 
3560 57 58.6258 
3561 33 42.0694 
3562 9 37.3163 
3563 86 94.8844 
3564 72 88.966 
3565 7 49.477 
3566 42 45.6325 
3567 1 34.3398 
3568 20 51.5076 
3569 319 113.705 
3570 63 60.6228 
3571 105 187.562 
3572 384 219.469 
3573 6 55.6515 
3574 48 86.7597 
3575 11 30.1688 
3576 50 122.839 
3577 9 36.8837 
3578 369 144.356 
3579 46 258.415 
3580 40 30.2281 
3581 96 57.9255 
3582 53 106.235 
3583 232 303.656 
3584 157 63.1282 
3585 45 84.3494 
3586 20 79.0022 
3587 63 125.349 
3588 341 103.812 
3589 110 66.1852 
3590 31 104.389 
3591 8 83.7106 
3592 18 40.8902 
3593 87 130.754 
3594 15 82.8542 
3595 0 73.3908 
3596 59 145.254 
3597 52 193.759 
3598 28 57.5582 
3599 22 57.9034 
3600 27 134.605 
3601 153 246.778 
3602 63 55.5805 
3603 26 43.0335 
3604 198 138.517 
3605 2 38.9289 
3606 349 129.452 
3607 278 85.0257 
3608 31 61.7743 
3609 168 223.508 
3610 177 118.146 
3611 13 136.254 
3612 26 65.0573 
3613 227 119.219 
3614 49 130.667 
3615 32 77.4657 
3616 9 40.6127 
3617 187 36.3199 
3618 57 59.5268 
3619 67 94.9661 
3620 72 83.008 
3621 6 117.154 
3622 70 45.8884 
3623 6 53.8061 
3624 11 45.7783 
3625 35 50.8292 
3626 93 106.285 
3627 26 112.89 
3628 42 47.7445 
3629 17 159.267 
3630 96 59.1468 
3631 8 54.9578 
3632 145 76.1639 
3633 4 34.7975 
3634 14 82.6908 
3635 43 97.7298 
3636 62 91.4973 
3637 19 37.6576 
3638 104 73.5727 
3639 14 40.6304 
3640 2 30.2322 
3641 156 75.9767 
3642 48 49.7107 
3643 63 182.872 
3644 37 42.5077 
3645 11 30.5417 
3646 45 131.59 
3647 20 45.9153 
3648 71 191.685 
3649 231 138.857 
3650 66 64.9321 
3651 370 195.935 
3652 5 39.5897 
3653 4 59.4018 
3654 52 104.449 
3655 5 64.0068 
3656 309 282.919 
3657 9 76.3112 
3658 30 135.17 
3659 67 75.9889 
3660 22 120.057 
3661 3 32.5164 
3662 81 109.509 
3663 14 78.49 
3664 36 19.3501 
3665 39 56.4911 
3666 524 198.842 
3667 28 23.1996 
3668 62 32.0922 
3669 36 80.3397 
3670 161 127.029 
3671 1 37.6576 
3672 4 62.4073 
3673 9 138.875 
3674 246 133.16 
3675 205 114.778 
3676 23 71.3254 
3677 21 61.8796 
3678 29 53.1515 
3679 122 117.156 
3680 15 33.8347 
3681 318 202.061 
3682 29 142.037 
3683 72 158.912 
3684 26 41.7201 
3685 34 62.3614 
3686 49 63.2019 
3687 0 30.5417 
3688 14 38.8144 
3689 62 110.337 
3690 70 53.5847 
3691 29 48.7599 
3692 0 62.6362 
3693 73 70.512 
3694 47 41.6309 
3695 100 76.7647 
3696 12 56.1716 
3697 75 51.7819 
3698 38 84.7986 
3699 11 158.093 
3700 356 150.346 
3701 14 60.583 
3702 0 27.446 
3703 24 88.7412 
3704 139 111.234 
3705 242 198.417 
3706 92 90.9952 
3707 69 69.4177 
3708 80 123.048 
3709 208 233.859 
3710 34 102.134 
3711 7 179.735 
3712 59 57.8186 
3713 18 27.6375 
3714 98 77.9652 
3715 130 30.0495 
3716 109 81.3449 
3717 3 84.4386 
3718 470 118.716 
3719 55 60.7216 
3720 40 61.4239 
3721 8 93.3677 
3722 7 33.4326 
3723 647 112.89 
3724 28 42.6714 
3725 32 49.8876 
3726 27 177.333 
3727 245 111.28 
3728 49 95.0596 
3729 49 49.9372 
3730 50 95.3926 
3731 23 58.5388 
3732 42 59.0898 
3733 42 60.3371 
3734 14 46.2655 
3735 185 62.6568 
3736 131 131.121 
3737 13 61.5567 
3738 20 92.2794 
3739 13 45.3971 
3740 49 107.446 
3741 17 96.1893 
3742 225 76.3784 
3743 45 115.681 
3744 11 26.9777 
3745 23 74.9832 
3746 243 131.396 
3747 13 54.416 
3748 4 110.298 
3749 234 109.012 
3750 102 175.769 
3751 21 88.5919 
3752 93 38.1087 
3753 14 45.0017 
3754 50 76.3415 
3755 0 29.3329 
3756 61 60.2998 
3757 39 105.143 
3758 184 203.84 
3759 17 64.0107 
3760 97 39.5441 
3761 86 78.7791 
3762 2 142.008 
3763 4 26.2579 
3764 4 35.287 
3765 207 151.284 
3766 206 307.054 
3767 15 61.8656 
3768 66 205.901 
3769 35 31.3911 
3770 0 84.8142 
3771 232 76.2989 
3772 101 125.734 
3773 169 39.6727 
3774 1 38.9828 
3775 27 53.2492 
3776 75 217.497 
3777 67 64.7478 
3778 79 47.2998 
3779 22 54.8177 
3780 51 74.978 
3781 37 124.296 
3782 243 112.327 
3783 92 107.748 
3784 34 69.5582 
3785 30 124.602 
3786 141 118.986 
3787 164 124.632 
3788 23 96.7325 
3789 5 73.821 
3790 31 66.1316 
3791 200 172.364 
3792 55 99.3741 
3793 11 20.8218 
3794 6 55.4082 
3795 1 30.5417 
3796 151 117.483 
3797 53 40.509 
3798 168 141.641 
3799 6 61.0071 
3800 203 167.701 
3801 50 80.4859 
3802 55 161.219 
3803 38 34.4997 
3804 17 42.8596 
3805 20 54.8955 
3806 75 56.9985 
3807 33 89.8951 
3808 41 99.8723 
3809 73 64.2081 
3810 47 45.6724 
3811 122 76.441 
3812 43 77.102 
3813 11 32.38 
3814 187 73.1574 
3815 262 186.833 
3816 130 114.63 
3817 261 213.077 
3818 75 39.7593 
3819 56 110.49 
3820 7 29.1628 
3821 39 66.4027 
3822 52 81.028 
3823 13 47.1741 
3824 44 91.1104 
3825 6 74.6791 
3826 26 109.154 
3827 9 46.8913 
3828 11 52.5796 
3829 36 57.6128 
3830 32 70.69 
3831 55 43.0296 
3832 47 149.774 
3833 15 92.3765 
3834 26 94.243 
3835 547 144.388 
3836 7 38.6055 
3837 138 105.037 
3838 28 63.5476 
3839 57 169.963 
3840 10 65.5492 
3841 125 161.639 
3842 67 67.9891 
3843 54 91.636 
3844 69 51.1025 
3845 30 53.3576 
3846 1 62.403 
3847 292 132.841 
3848 6 26.8554 
3849 231 76.6756 
3850 66 61.3206 
3851 18 53.0098 
3852 19 49.9559 
3853 127 113.868 
3854 4 66.9894 
3855 3 32.0973 
3856 48 38.5348 
3857 356 194.232 
3858 105 65.073 
3859 137 70.6572 
3860 71 75.8163 
3861 144 63.0323 
3862 292 105.047 
3863 228 41.1503 
3864 26 43.0228 
3865 140 46.6904 
3866 18 53.8638 
3867 90 90.9254 
3868 64 131.973 
3869 203 178.702 
3870 44 74.1456 
3871 8 42.8596 
3872 3 44.8863 
3873 381 139.662 
3874 92 124.138 
3875 7 47.7642 
3876 101 51.6626 
3877 22 35.5491 
3878 33 168.464 
3879 15 114.029 
3880 230 142.203 
3881 0 45.7783 
3882 145 45.9147 
3883 103 59.961 
3884 63 41.1611 
3885 39 44.8403 
3886 35 36.3199 
3887 9 33.6695 
3888 38 80.9731 
3889 82 128.18 
3890 9 84.9995 
3891 48 58.9148 
3892 29 85.3973 
3893 0 40.856 
3894 241 49.2441 
3895 91 53.1669 
3896 102 51.3136 
3897 335 95.0622 
3898 42 149.546 
3899 324 181.359 
3900 37 87.6841 
3901 26 56.9818 
3902 21 118.722 
3903 46 149.486 
3904 153 45.9368 
3905 5 44.0526 
3906 17 29.1682 
3907 93 78.9663 
3908 88 98.9704 
3909 76 109.673 
3910 71 78.3612 
3911 34 87.115 
3912 64 76.1526 
3913 23 57.3873 
3914 39 52.0929 
3915 13 48.3557 
3916 159 139.962 
3917 58 62.8486 
3918 2 41.6309 
3919 324 243.12 
3920 56 50.9253 
3921 14 29.6074 
3922 2 77.7316 
3923 88 140.636 
3924 177 65.6723 
3925 96 119.969 
3926 22 69.2564 
3927 2 43.9576 
3928 39 62.8902 
3929 483 396.33 
3930 12 41.1188 
3931 73 95.4803 
3932 109 56.0409 
3933 24 65.5043 
3934 6 38.8696 
3935 47 48.2467 
3936 20 54.3828 
3937 11 24.0292 
3938 154 153.396 
3939 17 51.5987 
3940 146 138.439 
3941 56 133.158 
3942 20 51.3309 
3943 2 30.5417 
3944 35 43.2585 
3945 104 89.3734 
3946 118 154.605 
3947 109 81.8073 
3948 11 27.2568 
3949 42 86.2889 
3950 20 92.7173 
3951 21 33.0804 
3952 38 52.2473 
3953 19 50.0932 
3954 7 57.4294 
3955 6 87.4987 
3956 11 50.7794 
3957 158 72.7316 
3958 27 48.1117 
3959 38 37.7972 
3960 121 231.355 
3961 176 89.2744 
3962 94 124.871 
3963 3 39.553 
3964 56 148.762 
3965 37 32.4691 
3966 71 67.5857 
3967 53 65.7952 
3968 40 72.0213 
3969 32 85.5753 
3970 146 55.62 
3971 80 133.435 
3972 64 74.3379 
3973 104 189.091 
3974 7 33.2669 
3975 227 98.8878 
3976 44 156.307 
3977 62 156.343 
3978 12 26.2579 
3979 35 49.1384 
3980 177 93.112 
3981 7 29.0872 
3982 8 50.6383 
3983 126 94.0043 
3984 191 212.192 
3985 252 109.677 
3986 51 58.9734 
3987 39 42.0694 
3988 252 62.7329 
3989 2 48.2975 
3990 65 263.88 
3991 56 88.751 
3992 50 69.2902 
3993 43 154.27 
3994 55 74.6449 
3995 50 63.708 
3996 32 31.6014 
3997 144 104.243 
3998 151 177.781 
3999 13 139.864 
4000 11 191.705 
4001 22 36.9582 
4002 304 94.6689 
4003 18 37.996 
4004 28 49.6284 
4005 8 38.398 
4006 126 31.5079 
4007 12 53.3073 
4008 14 59.6894 
4009 39 130.411 
4010 132 115.272 
4011 9 49.7368 
4012 131 234.971 
4013 52 38.7823 
4014 11 43.768 
4015 15 30.9368 
4016 17 60.3021 
4017 159 139.917 
4018 34 37.785 
4019 7 55.1935 
4020 274 84.3008 
4021 40 85.4739 
4022 67 55.6339 
4023 8 96.5307 
4024 42 55.6717 
4025 188 119.347 
4026 112 58.4286 
4027 285 110.624 
4028 199 106.237 
4029 0 58.5388 
4030 26 67.9217 
4031 31 137.907 
4032 2 41.6069 
4033 5 73.4824 
4034 73 31.4993 
4035 18 138.16 
4036 10 43.8695 
4037 9 73.4653 
4038 291 94.5824 
4039 134 123.437 
4040 64 49.2959 
4041 14 85.6657 
4042 194 128.579 
4043 120 123.283 
4044 65 40.1339 
4045 1 41.2937 
4046 12 47.9904 
4047 13 46.9819 
4048 11 46.3081 
4049 126 93.6889 
4050 34 131.093 
4051 193 105.214 
4052 43 31.4254 
4053 11 63.3517 
4054 44 73.1086 
4055 119 50.7243 
4056 30 41.9503 
4057 1 30.6588 
4058 41 47.9817 
4059 76 34.3923 
4060 230 70.7137 
4061 0 57.0146 
4062 16 54.799 
4063 164 128.755 
4064 96 69.989 
4065 10 84.5838 
4066 146 212.963 
4067 55 92.2794 
4068 23 35.5302 
4069 119 84.4143 
4070 10 60.8522 
4071 133 68.3085 
4072 112 66.7158 
4073 420 102.3 
4074 127 37.7125 
4075 125 202.061 
4076 8 61.9909 
4077 210 138.644 
4078 14 38.9242 
4079 130 65.5107 
4080 356 82.953 
4081 68 143.577 
4082 31 133.07 
4083 381 54.9179 
4084 0 30.5417 
4085 32 89.7705 
4086 168 123.552 
4087 225 75.6459 
4088 20 42.7177 
4089 246 110.458 
4090 40 113.774 
4091 30 57.8144 
4092 31 84.8293 
4093 6 64.9029 
4094 24 91.4307 
4095 2 42.3185 
4096 93 58.6599 
4097 17 67.8612 
4098 1 46.7675 
4099 253 361.363 
4100 28 76.0107 
4101 1 33.5279 
4102 168 121.537 
4103 104 237.604 
4104 0 31.7884 
4105 14 38.2093 
4106 93 92.0779 
4107 26 60.8616 
4108 343 108.299 
4109 28 181.485 
4110 73 46.9276 
4111 17 110.606 
4112 336 194.528 
4113 195 62.7992 
4114 123 159.319 
4115 10 49.5457 
4116 52 95.1425 
4117 22 63.0655 
4118 4 42.4199 
4119 28 124.86 
4120 199 114.85 
4121 22 83.7666 
4122 105 181.297 
4123 157 94.5226 
4124 29 54.2721 
4125 191 183.625 
4126 70 80.6983 
4127 56 35.8646 
4128 43 76.6329 
4129 49 63.8508 
4130 38 181.982 
4131 4 69.4075 
4132 6 54.9341 
4133 373 243.214 
4134 13 80.883 
4135 122 145.096 
4136 74 67.8708 
4137 136 91.0783 
4138 107 52.0297 
4139 64 93.844 
4140 333 40.1508 
4141 141 124.741 
4142 40 89.6909 
4143 9 57.5582 
4144 7 29.2989 
4145 15 111.349 
4146 130 174.705 
4147 29 52.4083 
4148 22 38.308 
4149 37 61.4786 
4150 48 45.645 
4151 79 95.1333 
4152 41 41.9441 
4153 36 94.1537 
4154 12 49.5903 
4155 94 62.6568 
4156 57 184.063 
4157 58 63.4023 
4158 79 108.543 
4159 45 80.8133 
4160 100 68.085 
4161 42 114.318 
4162 17 112.642 
4163 29 105.953 
4164 130 124.896 
4165 78 109.812 
4166 32 69.21 
4167 52 196.204 
4168 60 119.819 
4169 258 246.698 
4170 9 246.066 
4171 19 51.6626 
4172 129 79.2927 
4173 86 54.9607 
4174 0 26.2287 
4175 0 34.8784 
4176 118 189.287 
4177 158 137.241 
4178 196 496.236 
4179 18 29.8008 
4180 7 158.477 
4181 59 138.511 
4182 9 70.8899 
4183 127 84.2711 
4184 44 38.6 
4185 38 48.3065 
4186 11 81.1459 
4187 49 51.7861 
4188 118 196.436 
4189 39 51.989 
4190 20 46.8913 
4191 24 116.755 
4192 19 48.9565 
4193 31 43.0335 
4194 700 135.744 
4195 13 49.552 
4196 7 55.229 
4197 5 51.3309 
4198 107 77.5292 
4199 13 44.8403 
4200 11 88.8443 
4201 16 87.9617 
4202 49 38.4604 
4203 410 106.148 
4204 0 37.2574 
4205 19 62.6065 
4206 58 70.4172 
4207 315 86.585 
4208 6 31.5551 
4209 79 103.126 
4210 108 68.1354 
4211 109 133.974 
4212 2 92.5999 
4213 143 288.809 
4214 48 44.5101 
4215 4 35.5491 
4216 0 40.856 
4217 47 42.6981 
4218 50 68.6151 
4219 18 33.4844 
4220 24 48.2893 
4221 59 299.191 
4222 145 89.8919 
4223 188 148.278 
4224 8 32.5376 
4225 22 26.5658 
4226 36 100.798 
4227 109 140.215 
4228 3 44.3717 
4229 5 48.5037 
4230 27 42.6714 
4231 37 34.8549 
4232 123 53.2187 
4233 57 35.1045 
4234 15 36.4136 
4235 18 46.293 
4236 77 86.8362 
4237 34 80.2961 
4238 1 34.1017 
4239 2 34.2465 
4240 109 48.5037 
4241 7 72.5362 
4242 16 112.401 
4243 1 30.2481 
4244 33 61.2884 
4245 17 37.4401 
4246 34 61.563 
4247 10 148.866 
4248 3 51.8959 
4249 10 71.1132 
4250 248 79.2085 
4251 322 76.7912 
4252 21 76.4395 
4253 76 190.3 
4254 17 43.7604 
4255 50 101.718 
4256 508 97.7225 
4257 54 61.6751 
4258 83 68.2424 
4259 19 64.1497 
4260 78 49.0155 
4261 71 50.2125 
4262 132 99.3733 
4263 27 64.9796 
4264 19 91.2001 
4265 251 97.274 
4266 76 89.7519 
4267 199 65.2793 
4268 93 48.6938 
4269 842 324.042 
4270 123 76.5358 
4271 99 43.7594 
4272 36 75.0468 
4273 70 203.674 
4274 29 40.3313 
4275 168 101.187 
4276 250 95.9093 
4277 0 26.1807 
4278 1 49.8876 
4279 256 105.505 
4280 131 62.8486 
4281 53 104.097 
4282 2 28.8873 
4283 192 129.983 
4284 113 208.46 
4285 34 39.095 
4286 45 88.6955 
4287 66 84.1941 
4288 69 102.53 
4289 299 116.842 
4290 141 120.924 
4291 103 33.9538 
4292 16 31.1426 
4293 25 82.2499 
4294 242 134.324 
4295 584 63.621 
4296 27 43.4601 
4297 6 41.0822 
4298 53 91.2001 
4299 6 72.1198 
4300 7 62.6568 
4301 137 75.8028 
4302 26 72.8562 
4303 137 79.3767 
4304 39 88.2149 
4305 37 125.987 
4306 168 112.659 
4307 111 73.1574 
4308 114 76.7831 
4309 96 69.4471 
4310 139 35.6486 
4311 18 26.183 
4312 28 48.3757 
4313 68 45.0225 
4314 4 172.91 
4315 26 24.817 
4316 34 54.7103 
4317 10 74.2978 
4318 38 45.6702 
4319 2 40.2199 
4320 109 52.6344 
4321 321 177.902 
4322 41 66.156 
4323 3 47.1741 
4324 95 101.277 
4325 81 98.2861 
4326 14 36.7094 
4327 27 107.666 
4328 50 38.6013 
4329 95 77.0786 
4330 59 96.9373 
4331 2 47.8583 
4332 15 29.1377 
4333 89 131.043 
4334 14 34.7828 
4335 40 76.5395 
4336 254 99.5144 
4337 264 370.698 
4338 88 132.313 
4339 84 73.0547 
4340 297 129.541 
4341 119 102.702 
4342 161 93.9889 
4343 39 67.2275 
4344 45 28.2944 
4345 82 63.0206 
4346 34 49.1842 
4347 37 50.8126 
4348 4 54.7051 
4349 24 108.968 
4350 27 86.5708 
4351 46 49.8876 
4352 76 111.556 
4353 131 83.2329 
4354 20 71.644 
4355 68 40.0617 
4356 304 168 
4357 14 31.1679 
4358 360 74.8918 
4359 12 57.2534 
4360 33 41.5147 
4361 38 42.5495 
4362 17 40.0913 
4363 21 39.2454 
4364 98 109.935 
4365 33 90.6917 
4366 122 164.15 
4367 39 74.4609 
4368 5 58.6566 
4369 30 54.2324 
4370 35 50.8247 
4371 8 69.0869 
4372 37 73.8385 
4373 106 148.584 
4374 115 51.6878 
4375 157 91.566 
4376 91 55.9905 
4377 362 262.459 
4378 3 58.0277 
4379 69 240.956 
4380 48 109.154 
4381 129 121.55 
4382 41 45.8884 
4383 153 42.5512 
4384 194 170.863 
4385 20 76.0178 
4386 276 32.4691 
4387 23 49.1586 
4388 21 44.6693 
4389 7 38.3517 
4390 63 88.5128 
4391 59 36.9346 
4392 62 51.8959 
4393 59 77.168 
4394 94 113.953 
4395 184 88.194 
4396 10 34.7975 
4397 224 53.1974 
4398 153 42.308 
4399 459 422.32 
4400 2 32.1636 
4401 95 50.0322 
4402 43 85.8842 
4403 121 97.3679 
4404 15 80.2743 
4405 564 231.522 
4406 1 60.6213 
4407 28 38.453 
4408 208 178.252 
4409 50 51.7473 
4410 20 61.103 
4411 0 100.922 
4412 28 37.9163 
4413 8 52.6022 
4414 8 49.4229 
4415 50 68.1086 
4416 34 148.04 
4417 1 36.8106 
4418 53 83.6273 
4419 11 28.9856 
4420 8 23.7702 
4421 7 38.8771 
4422 24 62.0684 
4423 3 34.7975 
4424 19 104.134 
4425 176 28.8033 
4426 0 47.4529 
4427 4 56.7008 
4428 61 81.2467 
4429 146 103.057 
4430 157 97.4501 
4431 137 60.9729 
4432 33 46.0898 
4433 48 31.2709 
4434 347 178.428 
4435 255 70.2745 
4436 190 229.075 
4437 34 51.5379 
4438 14 57.5582 
4439 24 43.7756 
4440 187 28.6673 
4441 9 46.6207 
4442 157 65.1707 
4443 172 94.7368 
4444 60 60.3651 
4445 16 38.229 
4446 16 29.7774 
4447 15 31.5551 
4448 73 127.981 
4449 6 46.4568 
4450 42 122.943 
4451 6 141.478 
4452 167 124.59 
4453 58 51.6805 
4454 183 55.1652 
4455 466 78.5787 
4456 25 73.3505 
4457 227 138.857 
4458 26 47.3762 
4459 35 79.0022 
4460 281 177.953 
4461 132 96.7325 
4462 31 61.8691 
4463 17 92.9341 
4464 86 98.0282 
4465 149 76.9906 
4466 125 73.2211 
4467 36 158.093 
4468 331 193.235 
4469 23 62.0226 
4470 56 77.8623 
4471 29 28.874 
4472 173 173.455 
4473 32 63.6387 
4474 97 73.2211 
4475 20 88.9779 
4476 158 92.7598 
4477 76 43.3615 
4478 120 91.8836 
4479 264 137.322 
4480 9 58.3332 
4481 390 92.1182 
4482 11 40.3599 
4483 94 72.7613 
4484 210 159.074 
4485 14 38.2353 
4486 22 61.1088 
4487 27 57.7627 
4488 79 67.2944 
4489 99 150.282 
4490 102 165.861 
4491 180 41.7552 
4492 6 41.1188 
4493 0 30.5417 
4494 66 88.542 
4495 28 165.485 
4496 14 82.2002 
4497 18 40.0913 
4498 625 169.153 
4499 158 226.344 
4500 6 38.2093 
4501 20 72.1202 
4502 53 63.3517 
4503 24 57.7301 
4504 86 112.266 
4505 11 37.4508 
4506 32 147.113 
4507 62 128.158 
4508 74 132.376 
4509 457 171.112 
4510 27 47.4247 
4511 53 74.58 
4512 365 195.155 
4513 59 62.0357 
4514 13 50.4811 
4515 186 144.438 
4516 74 78.6536 
4517 37 71.3541 
4518 0 60.9445 
4519 15 50.0307 
4520 75 170.811 
4521 99 56.3032 
4522 36 215.892 
4523 94 32.9548 
4524 71 39.8028 
terror=6084
l1pen=32.3735
l2pen=285.929
9.99503 10 2.49833 -8.89356 -0.173221 0.813371 
F= 9.99503* Sin[ Cos[ ( (1/(DL - (-49.8317)))  *  (HH - (-82.1523)) ) ] ] +10* Cos[ ( ( (HH - (-82.1523))  /  (DL - (-49.8317)) ) )^2 ] +2.49833*(0)-8.89356* Sin[ (1/(HH - (-82.1523))) ] -0.173221*HH+0.813371* ( (1/(HH - (-82.1523)))  +  (DL - (-49.8317)) ) 
10 11 3 6 0 -49.8317 5 1 -82.1523 0 11 8 4 5 1 -82.1523 5 0 -49.8317 0 1 2 1 11 4 3 10 4 1 3 10 6 1 -82.1523 0 0 0 0 0 0 0 1 0 0 0 0 0 0 0 0 1 6 1 -82.1523 5 0 -49.8317 0 0 0 
0 0 0 0 2 1 0 2 1 0 0 0 0 0 2 1 0 2 1 0 0 0 0 0 0 0 0 0 0 0 0 0 2 1 0 0 0 0 0 0 0 2 0 0 0 0 0 0 0 0 0 0 2 1 0 2 1 0 0 0 
