0 78 85.8483 
1 102 88.4984 
2 65 41.6287 
3 177 87.1526 
4 43 100.03 
5 30 62.8767 
6 63 84.6649 
7 296 91.9589 
8 12 90.3871 
9 381 84.8066 
10 50 104.767 
11 17 100.401 
12 8 83.0272 
13 179 94.8491 
14 279 90.0968 
15 208 101.513 
16 185 109.737 
17 42 103.153 
18 47 95.9993 
19 98 103.17 
20 2 80.7438 
21 71 69.7177 
22 182 93.7011 
23 0 65.3402 
24 70 98.0222 
25 44 84.2066 
26 55 107.453 
27 102 82.4154 
28 125 78.6907 
29 37 107.13 
30 168 98.0985 
31 129 88.7073 
32 61 94.7262 
33 37 85.2815 
34 33 86.7434 
35 14 103.765 
36 70 84.7077 
37 193 76.2674 
38 39 94.2289 
39 214 111.329 
40 11 97.2605 
41 32 103.583 
42 243 70.4379 
43 6 108.895 
44 73 100.686 
45 22 90.6638 
46 169 78.3635 
47 96 61.9688 
48 51 91.5163 
49 70 106.445 
50 60 81.7123 
51 48 101.913 
52 6 80.3876 
53 173 95.0053 
54 290 111.503 
55 144 117.055 
56 31 78.2821 
57 12 83.0053 
58 8 121.521 
59 183 99.7911 
60 179 107.566 
61 11 116.514 
62 234 127.507 
63 47 97.2574 
64 507 80.7354 
65 7 94.384 
66 225 112.054 
67 103 114.381 
68 0 90.5895 
69 108 106.826 
70 3 71.9245 
71 6 107.655 
72 4 70.9633 
73 77 80.3642 
74 64 111.465 
75 13 110.927 
76 44 59.9624 
77 129 81.4201 
78 66 102.423 
79 13 103.573 
80 156 107.222 
81 175 111.968 
82 165 94.9022 
83 19 92.4842 
84 43 81.4389 
85 114 88.0599 
86 250 105.869 
87 66 119.212 
88 11 102.626 
89 35 104.31 
90 271 118.952 
91 46 100.92 
92 225 95.4234 
93 17 59.5001 
94 3 76.989 
95 33 72.6621 
96 16 81.9795 
97 4 84.4683 
98 326 100.484 
99 7 104.516 
100 173 101.196 
101 50 113.529 
102 80 113.107 
103 30 93.9633 
104 92 84.1886 
105 44 130.98 
106 39 120.679 
107 13 105.119 
108 200 97.5645 
109 32 96.3032 
110 28 68.614 
111 592 83.1981 
112 50 69.776 
113 20 77.4649 
114 125 105.885 
115 1 65.221 
116 84 80.0718 
117 8 94.4214 
118 39 96.579 
119 16 68.7806 
120 30 110.866 
121 14 110.679 
122 86 87.7419 
123 66 110.615 
124 248 89.258 
125 112 99.4567 
126 55 93.8612 
127 15 100.573 
128 116 97.5507 
129 0 65.7584 
130 449 135.847 
131 166 109.749 
132 17 51.2404 
133 40 106.328 
134 128 87.1403 
135 10 83.6624 
136 27 78.2976 
137 63 91.4106 
138 25 83.9557 
139 302 124.776 
140 305 105.979 
141 100 132.749 
142 3 95.5063 
143 26 115.172 
144 12 98.973 
145 521 94.42 
146 130 104.737 
147 78 78.6398 
148 104 92.2496 
149 94 111.618 
150 56 119.212 
151 58 73.71 
152 83 99.0576 
153 15 98.8887 
154 15 73.03 
155 203 109.146 
156 89 82.1249 
157 193 106.32 
158 6 97.9604 
159 53 124.59 
160 2 64.8158 
161 320 95.3825 
162 41 76.5353 
163 216 105.165 
164 396 73.6276 
165 35 97.3754 
166 132 108.417 
167 17 73.7653 
168 35 88.6425 
169 18 75.728 
170 200 107.136 
171 25 91.1895 
172 151 106.315 
173 152 109.969 
174 9 87.5981 
175 49 108.378 
176 25 108.731 
177 141 120.818 
178 32 91.9158 
179 69 117.755 
180 100 117.698 
181 49 66.5824 
182 94 89.3963 
183 28 111.844 
184 22 82.3653 
185 6 71.9245 
186 26 117.206 
187 40 91.1497 
188 25 58.8903 
189 103 100.216 
190 87 77.2457 
191 13 98.9643 
192 48 101.491 
193 10 78.1226 
194 20 87.1023 
195 12 74.6919 
196 140 99.4416 
197 10 101.572 
198 387 99.3206 
199 89 81.9753 
200 132 93.4809 
201 4 83.7262 
202 261 86.8031 
203 19 91.4218 
204 51 63.9383 
205 25 77.6353 
206 7 118.556 
207 97 98.2141 
208 3 123.369 
209 119 91.9086 
210 11 54.8644 
211 9 93.3734 
212 104 79.8366 
213 45 109.464 
214 150 126.285 
215 52 89.123 
216 181 71.3218 
217 160 95.1964 
218 226 100.606 
219 35 76.2303 
220 36 119.888 
221 52 98.9196 
222 8 115.388 
223 205 122.94 
224 14 102.229 
225 8 88.6998 
226 9 69.7238 
227 204 115.907 
228 1 69.776 
229 39 101.954 
230 44 130.462 
231 46 108.662 
232 0 63.7632 
233 94 106.32 
234 73 51.289 
235 191 90.2872 
236 133 92.6462 
237 216 111.113 
238 148 93.7605 
239 11 93.1662 
240 185 89.5774 
241 114 85.1718 
242 25 89.3722 
243 167 100.768 
244 24 99.9398 
245 153 83.4761 
246 20 76.6503 
247 11 74.6096 
248 35 111.432 
249 6 85.3466 
250 363 141.456 
251 71 74.3376 
252 14 94.9563 
253 0 87.197 
254 85 94.7448 
255 105 112.244 
256 17 89.9584 
257 236 92.2334 
258 9 77.6444 
259 0 72.7928 
260 17 97.1116 
261 36 108.113 
262 22 108.044 
263 57 94.3736 
264 121 106.237 
265 48 100.994 
266 130 95.5715 
267 157 98.1103 
268 160 92.0739 
269 39 81.6363 
270 149 116.963 
271 49 101.037 
272 39 102.762 
273 386 110.426 
274 48 150.977 
275 21 102.724 
276 1 75.8489 
277 637 83.7963 
278 19 68.9507 
279 38 82.8027 
280 15 101.709 
281 2 77.6444 
282 11 98.5712 
283 19 101.543 
284 158 123.464 
285 238 104.189 
286 2 71.4664 
287 188 110.805 
288 40 106.972 
289 46 74.8916 
290 56 103.636 
291 11 103.88 
292 417 101.929 
293 83 89.5718 
294 168 107.944 
295 306 83.4143 
296 23 95.9802 
297 166 72.7928 
298 5 74.4388 
299 381 116.825 
300 10 81.2982 
301 0 108.996 
302 5 76.8465 
303 80 55.6604 
304 47 92.3272 
305 110 111.008 
306 9 117.221 
307 193 108.96 
308 115 101.123 
309 8 75.8283 
310 78 98.2551 
311 35 96.461 
312 87 105.684 
313 89 101.483 
314 80 84.9661 
315 145 94.5071 
316 116 107.766 
317 184 100.88 
318 55 109.859 
319 192 88.7767 
320 74 84.2793 
321 114 73.024 
322 523 100.994 
323 88 95.2863 
324 15 96.856 
325 79 91.277 
326 122 101.924 
327 3 85.9077 
328 108 101.153 
329 23 103.432 
330 60 82.4393 
331 30 73.6671 
332 1 78.9565 
333 39 153.66 
334 102 70.2938 
335 74 122.513 
336 72 106.797 
337 143 86.6108 
338 139 109.038 
339 110 94.6476 
340 104 104.947 
341 46 118.434 
342 43 74.4549 
343 9 81.7374 
344 63 104.035 
345 56 103.775 
346 126 74.1372 
347 8 63.9389 
348 32 129.829 
349 73 98.9784 
350 13 56.9559 
351 218 102.167 
352 252 101.639 
353 38 95.364 
354 134 109.686 
355 299 116.253 
356 47 104.95 
357 167 79.8619 
358 22 88.9384 
359 12 97.7698 
360 119 129.238 
361 18 93.5192 
362 163 63.0389 
363 207 104.503 
364 13 85.7908 
365 9 88.5218 
366 22 90.1795 
367 18 89.0651 
368 28 90.3531 
369 20 92.1526 
370 32 119.208 
371 11 75.8026 
372 205 104.306 
373 22 78.8509 
374 72 106.549 
375 23 75.7048 
376 65 103.596 
377 7 89.629 
378 40 107.756 
379 24 88.2314 
380 75 95.9083 
381 137 105.888 
382 55 81.2213 
383 7 109.42 
384 189 82.4509 
385 2 73.842 
386 140 80.0657 
387 74 103.839 
388 23 96.3084 
389 11 89.5439 
390 17 82.9095 
391 10 98.4841 
392 63 126.423 
393 144 128.234 
394 36 104.567 
395 29 82.0138 
396 96 75.7552 
397 93 102.78 
398 50 60.0844 
399 263 90.4551 
400 95 80.6042 
401 32 85.1233 
402 120 85.4674 
403 52 68.026 
404 66 65.3279 
405 46 82.4231 
406 55 102.541 
407 283 99.5339 
408 15 116.019 
409 60 100.906 
410 192 99.1126 
411 333 101.231 
412 17 85.9294 
413 32 102.618 
414 9 115.738 
415 147 131.533 
416 111 96.8363 
417 63 98.6482 
418 28 88.2227 
419 37 97.9359 
420 27 97.7808 
421 522 103.152 
422 161 94.7848 
423 109 94.6336 
424 55 116.109 
425 21 103.595 
426 110 75.8249 
427 7 68.1629 
428 160 106.475 
429 24 97.9838 
430 453 127.895 
431 354 100.393 
432 106 104.457 
433 9 100.082 
434 92 61.3302 
435 65 59.4712 
436 184 96.6678 
437 193 96.3603 
438 125 97.5549 
439 130 84.481 
440 163 95.1964 
441 108 69.0848 
442 173 85.7709 
443 291 86.7642 
444 135 95.6941 
445 6 74.7935 
446 318 102.92 
447 19 67.9582 
448 32 80.1184 
449 13 56.268 
450 17 99.3244 
451 56 107.13 
452 11 68.8829 
453 173 116.253 
454 12 70.4037 
455 52 77.7208 
456 133 99.1366 
457 60 91.4131 
458 57 100.699 
459 30 82.3477 
460 153 71.9245 
461 206 131.331 
462 366 108.099 
463 0 109.086 
464 8 82.7526 
465 108 88.6486 
466 135 117.472 
467 179 105.256 
468 39 120.225 
469 37 49.4402 
470 51 77.5799 
471 57 76.8767 
472 21 109.231 
473 68 93.9752 
474 40 92.3776 
475 21 79.4254 
476 10 84.5536 
477 59 97.2123 
478 54 98.6904 
479 76 128.902 
480 192 86.5907 
481 82 91.7057 
482 78 69.008 
483 95 96.4323 
484 16 113.93 
485 134 97.5341 
486 13 86.5643 
487 77 104.683 
488 325 122.841 
489 71 105.357 
490 23 85.9608 
491 1 76.2013 
492 74 75.2308 
493 41 107.627 
494 247 118.081 
495 64 93.2771 
496 16 83.8255 
497 49 80.2582 
498 154 82.7526 
499 249 104.106 
500 42 105.887 
501 99 95.4824 
502 12 88.4311 
503 8 76.1695 
504 211 138.444 
505 199 96.0181 
506 33 103.668 
507 48 96.0696 
508 17 108.536 
509 0 69.776 
510 27 99.3293 
511 450 118.592 
512 180 88.5435 
513 91 112.131 
514 113 109.157 
515 16 108.949 
516 1 72.1463 
517 56 117.868 
518 7 94.3196 
519 15 101.559 
520 76 79.8737 
521 47 108.745 
522 165 104.712 
523 123 80.4593 
524 57 55.358 
525 134 79.0652 
526 73 105.732 
527 137 75.6171 
528 169 112.4 
529 50 111.255 
530 15 118.092 
531 127 105.165 
532 40 103.507 
533 306 103.795 
534 111 83.8206 
535 41 96.5943 
536 100 74.363 
537 26 119.203 
538 212 89.2938 
539 95 105.64 
540 18 89.8095 
541 85 95.5715 
542 285 104.915 
543 69 118.285 
544 44 69.4214 
545 54 34.6304 
546 23 122.787 
547 8 114.596 
548 99 88.2637 
549 73 104.054 
550 98 123.809 
551 58 96.4704 
552 180 129.257 
553 73 75.3313 
554 90 30.4883 
555 18 125.831 
556 177 126.983 
557 16 109.231 
558 99 47.7741 
559 34 109.57 
560 16 82.4766 
561 286 89.5625 
562 31 66.3743 
563 179 102.603 
564 3 95.0252 
565 9 69.776 
566 13 108.912 
567 174 96.3021 
568 82 102.06 
569 4 88.8323 
570 49 39.7523 
571 120 97.7792 
572 123 100.417 
573 94 99.0137 
574 35 100.517 
575 100 56.6884 
576 96 90.4551 
577 121 113.584 
578 31 122.67 
579 64 102.651 
580 108 109.624 
581 132 116.936 
582 12 88.4006 
583 196 91.428 
584 26 97.7498 
585 40 106.304 
586 16 113.85 
587 63 103.827 
588 178 101.145 
589 26 73.3813 
590 34 98.4841 
591 151 108.697 
592 89 109.727 
593 436 113.008 
594 36 98.601 
595 104 105.609 
596 182 103.908 
597 50 82.9502 
598 6 108.445 
599 310 84.7946 
600 0 102.745 
601 102 90.0571 
602 12 92.4047 
603 126 58.0638 
604 5 94.8619 
605 39 90.6412 
606 31 106.388 
607 127 90.4705 
608 120 99.036 
609 52 55.2309 
610 779 105.773 
611 136 73.4015 
612 49 78.8175 
613 157 129.006 
614 75 88.242 
615 180 79.2317 
616 16 80.3191 
617 28 92.6859 
618 12 107.465 
619 55 87.1403 
620 15 121.08 
621 167 100.768 
622 321 114.791 
623 216 108.665 
624 173 114.509 
625 88 76.2523 
626 101 106.244 
627 24 109.386 
628 196 100.912 
629 84 95.9121 
630 5 86.7392 
631 153 86.7986 
632 276 114.872 
633 281 100.451 
634 144 105.222 
635 27 115.536 
636 218 81.0724 
637 38 111.603 
638 115 104.185 
639 0 68.7234 
640 58 109.357 
641 1 64.8158 
642 136 102.745 
643 26 74.3539 
644 22 100.636 
645 82 91.6058 
646 11 95.6467 
647 20 97.6524 
648 37 101.634 
649 19 84.3211 
650 11 104.003 
651 60 75.9621 
652 20 89.5146 
653 35 94.7208 
654 139 103.025 
655 268 94.8108 
656 1 64.8158 
657 41 88.0663 
658 27 98.3102 
659 9 106.853 
660 17 97.7808 
661 243 104.095 
662 149 130.609 
663 1 59.6587 
664 90 102.875 
665 174 49.5172 
666 34 94.6447 
667 8 71.102 
668 3 96.6351 
669 48 103.832 
670 114 93.3015 
671 15 106.003 
672 9 77.106 
673 67 102.041 
674 8 72.867 
675 67 81.7962 
676 40 87.132 
677 25 91.313 
678 26 75.569 
679 58 96.2656 
680 54 73.6671 
681 2 85.3724 
682 58 90.2872 
683 5 77.2322 
684 8 74.9025 
685 174 89.1658 
686 132 112.705 
687 49 105.724 
688 11 96.7897 
689 11 61.7562 
690 150 88.621 
691 8 64.8158 
692 63 87.5114 
693 69 94.2974 
694 71 122.526 
695 18 95.6941 
696 55 103.577 
697 136 89.1189 
698 3 98.771 
699 30 65.867 
700 152 89.6877 
701 53 117.755 
702 236 87.8426 
703 129 97.5154 
704 57 81.0777 
705 41 76.7423 
706 101 107.425 
707 158 92.965 
708 141 88.0599 
709 0 82.1996 
710 73 50.4099 
711 77 97.4597 
712 88 152.942 
713 18 99.1207 
714 142 91.486 
715 94 73.3666 
716 22 107.038 
717 456 79.3489 
718 0 89.6072 
719 192 100.278 
720 15 89.809 
721 13 97.6654 
722 6 98.2551 
723 27 94.1032 
724 72 101.614 
725 9 82.7525 
726 10 49.5261 
727 70 86.5124 
728 25 81.6064 
729 56 89.8521 
730 31 68.301 
731 47 91.7873 
732 143 111.35 
733 28 77.4793 
734 53 70.9186 
735 61 95.1754 
736 6 62.9538 
737 117 102.929 
738 56 107.834 
739 0 87.1388 
740 43 62.4052 
741 19 112.958 
742 157 67.7839 
743 97 91.0821 
744 69 85.447 
745 187 100.896 
746 292 115.138 
747 12 91.9182 
748 34 86.2926 
749 16 104.96 
750 27 81.0227 
751 106 82.4475 
752 67 81.9843 
753 108 88.3001 
754 83 108.766 
755 3 75.1217 
756 144 96.2121 
757 27 120.839 
758 94 79.8611 
759 55 98.9721 
760 60 69.1457 
761 26 72.774 
762 162 101.605 
763 292 105.357 
764 88 96.2915 
765 287 95.5151 
766 197 90.4705 
767 116 109.507 
768 42 69.26 
769 0 64.8158 
770 328 89.6347 
771 18 76.5832 
772 170 72.7902 
773 51 117.441 
774 8 112.943 
775 11 102.531 
776 34 76.1733 
777 146 89.0486 
778 107 88.1196 
779 178 87.9575 
780 35 108.123 
781 194 83.7358 
782 21 64.9907 
783 69 88.1324 
784 142 89.7832 
785 138 98.5509 
786 35 116.116 
787 44 109.292 
788 3 64.8158 
789 27 144.111 
790 21 119.302 
791 0 78.1226 
792 157 82.6075 
793 5 97.4631 
794 123 85.4962 
795 250 19.8997 
796 89 92.0739 
797 18 101.122 
798 116 81.805 
799 92 83.2151 
800 137 115.369 
801 219 99.9899 
802 174 92.4355 
803 119 86.526 
804 54 86.3482 
805 5 80.7678 
806 113 92.5131 
807 199 91.1004 
808 38 72.867 
809 198 103.164 
810 217 111.051 
811 1 94.5351 
812 3 101.416 
813 124 80.0758 
814 34 74.1915 
815 108 82.57 
816 3 97.0625 
817 3 83.9409 
818 70 89.7963 
819 136 101.798 
820 132 97.5082 
821 26 120.152 
822 7 87.7572 
823 25 96.8952 
824 0 68.927 
825 148 104.242 
826 25 98.343 
827 50 96.6303 
828 393 78.7749 
829 165 105.086 
830 33 107.235 
831 3 92.7607 
832 286 101.85 
833 63 131.992 
834 370 70.7731 
835 8 105.601 
836 53 78.9305 
837 43 133.646 
838 52 96.8223 
839 51 74.8535 
840 60 102.762 
841 22 107.222 
842 14 118.915 
843 96 110.368 
844 21 94.384 
845 94 89.3973 
846 6 86.2013 
847 127 127.332 
848 13 110.916 
849 68 98.0845 
850 351 100.164 
851 14 88.0059 
852 25 81.445 
853 6 108.074 
854 36 75.1217 
855 394 102.799 
856 89 84.1251 
857 52 109.695 
858 150 99.0182 
859 39 73.7523 
860 11 85.7044 
861 17 87.9749 
862 425 87.5474 
863 191 107.389 
864 8 90.8192 
865 190 106.542 
866 413 113.507 
867 11 95.7436 
868 52 93.7693 
869 23 105.086 
870 32 103.411 
871 86 107.418 
872 88 103.615 
873 143 87.9322 
874 322 97.2114 
875 8 96.4196 
876 88 90.5015 
877 80 94.5532 
878 43 99.5688 
879 382 109.644 
880 105 102.855 
881 358 94.4728 
882 29 92.9792 
883 421 92.5166 
884 116 101.95 
885 6 95.0122 
886 4 95.4939 
887 21 75.5735 
888 79 76.6102 
889 25 48.6859 
890 2 98.5065 
891 84 110.905 
892 54 102.533 
893 13 108.768 
894 65 118.331 
895 390 88.0184 
896 48 68.587 
897 156 98.6395 
898 38 110.444 
899 9 107.222 
900 29 84.5503 
901 200 84.8686 
902 214 76.2523 
903 74 86.9121 
904 35 77.106 
905 87 127.585 
906 34 76.5748 
907 18 60.3043 
908 73 89.4179 
909 143 78.0575 
910 75 77.6377 
911 3 79.0652 
912 110 77.5042 
913 21 118.165 
914 16 82.681 
915 63 105.891 
916 1 78.2976 
917 60 96.5431 
918 8 72.6056 
919 32 69.5048 
920 126 126.42 
921 69 78.0823 
922 103 98.0431 
923 130 110.138 
924 73 114.019 
925 61 78.4886 
926 28 57.9234 
927 100 97.0579 
928 54 83.4567 
929 43 85.7316 
930 50 98.0925 
931 461 83.2914 
932 37 54.073 
933 14 117.623 
934 174 113.438 
935 115 109.509 
936 25 68.692 
937 8 107.865 
938 143 113.103 
939 204 129.286 
940 212 111.181 
941 21 85.8173 
942 3 80.6042 
943 2 84.8387 
944 50 92.3323 
945 3 95.4939 
946 28 99.4301 
947 57 103.284 
948 189 106.432 
949 21 83.3893 
950 183 83.3814 
951 29 79.8547 
952 33 82.5931 
953 157 99.5536 
954 97 81.6541 
955 55 79.4033 
956 105 87.5532 
957 91 108.71 
958 95 132.809 
959 167 103.13 
960 130 116.853 
961 57 103.827 
962 220 100.515 
963 76 92.8185 
964 183 123.799 
965 15 51.0297 
966 50 100.733 
967 33 72.8967 
968 273 107.593 
969 37 77.9867 
970 127 91.7787 
971 186 107.274 
972 210 115.71 
973 71 84.1276 
974 115 109.077 
975 133 89.0619 
976 31 101.067 
977 224 126.789 
978 59 70.8168 
979 20 77.8618 
980 17 104.889 
981 14 67.6707 
982 28 92.2839 
983 159 103.727 
984 15 99.036 
985 197 122.441 
986 92 105.827 
987 128 82.7526 
988 283 95.3209 
989 62 104.181 
990 111 87.6576 
991 24 75.16 
992 176 92.7139 
993 0 70.3369 
994 27 122.241 
995 276 37.3479 
996 48 98.1331 
997 5 81.4219 
998 0 63.9389 
999 26 71.0965 
1000 44 106.445 
1001 18 82.3589 
1002 13 21.1921 
1003 155 109.029 
1004 39 110.13 
1005 264 86.968 
1006 3 70.0737 
1007 237 69.1092 
1008 15 52.0162 
1009 30 100.27 
1010 48 92.5719 
1011 85 98.7294 
1012 81 80.0411 
1013 279 104.905 
1014 534 72.8942 
1015 6 79.5167 
1016 142 56.7785 
1017 112 81.6541 
1018 51 100.953 
1019 111 118.38 
1020 5 104.908 
1021 125 103.609 
1022 20 85.7887 
1023 37 106.75 
1024 159 79.8217 
1025 125 107.411 
1026 7 81.9753 
1027 38 104.391 
1028 42 106.445 
1029 167 104.205 
1030 108 80.8975 
1031 53 107.794 
1032 0 75.8249 
1033 34 109.464 
1034 38 117.1 
1035 48 109.754 
1036 20 77.2262 
1037 40 93.549 
1038 121 123.561 
1039 61 64.305 
1040 41 84.8205 
1041 96 108.159 
1042 3 101.669 
1043 21 86.5326 
1044 4 92.8184 
1045 135 96.3974 
1046 547 104.189 
1047 63 104.035 
1048 78 79.0939 
1049 48 106.762 
1050 6 77.9718 
1051 34 106.346 
1052 197 99.782 
1053 3 96.6601 
1054 180 98.9506 
1055 24 80.4593 
1056 39 93.0176 
1057 119 107.84 
1058 8 42.0102 
1059 0 63.7632 
1060 71 99.2531 
1061 164 108.086 
1062 98 100.371 
1063 84 95.868 
1064 153 106.579 
1065 122 99.3841 
1066 48 64.5155 
1067 26 86.7404 
1068 196 82.0175 
1069 214 108.003 
1070 14 95.364 
1071 160 108.662 
1072 91 78.2429 
1073 68 109.175 
1074 7 64.8158 
1075 8 81.3017 
1076 209 98.2744 
1077 68 104.704 
1078 143 89.2322 
1079 13 86.5643 
1080 63 104.244 
1081 236 108.306 
1082 188 100.987 
1083 30 109.163 
1084 10 89.5774 
1085 131 70.2992 
1086 17 63.9227 
1087 51 83.054 
1088 11 99.0137 
1089 72 90.9197 
1090 165 130.291 
1091 17 78.4572 
1092 90 115.075 
1093 109 88.0599 
1094 140 112.779 
1095 69 111.479 
1096 13 101.354 
1097 199 76.0617 
1098 115 109.734 
1099 35 79.3545 
1100 80 89.2938 
1101 233 125.232 
1102 441 82.7014 
1103 249 100.547 
1104 122 98.6395 
1105 132 99.2236 
1106 80 102.247 
1107 3 100.81 
1108 60 72.1463 
1109 674 104.395 
1110 157 102.803 
1111 56 108.662 
1112 86 100.738 
1113 128 108.754 
1114 121 75.8988 
1115 22 92.7931 
1116 14 101.793 
1117 233 119.143 
1118 62 100.43 
1119 11 91.5892 
1120 91 126.165 
1121 90 99.1475 
1122 44 47.218 
1123 182 96.54 
1124 79 96.8479 
1125 2 103.383 
1126 218 100.686 
1127 170 99.1398 
1128 32 93.8612 
1129 8 77.316 
1130 190 95.3663 
1131 5 100.464 
1132 163 118.959 
1133 98 43.1121 
1134 61 114.273 
1135 286 127.735 
1136 177 89.4166 
1137 136 118.07 
1138 33 110.594 
1139 7 75.9219 
1140 16 99.7854 
1141 46 70.0435 
1142 250 92.3575 
1143 8 63.9389 
1144 45 75.728 
1145 54 133.78 
1146 11 60.2333 
1147 65 102.317 
1148 4 87.3559 
1149 224 114.644 
1150 50 105.979 
1151 5 90.4826 
1152 1 71.7588 
1153 60 78.647 
1154 305 109.719 
1155 10 85.6356 
1156 115 101.53 
1157 32 118.285 
1158 200 75.7552 
1159 58 83.5201 
1160 5 91.9158 
1161 63 85.5505 
1162 4 64.8158 
1163 49 91.8801 
1164 18 62.5498 
1165 20 73.4015 
1166 112 116.828 
1167 86 77.2457 
1168 139 74.1782 
1169 96 101.877 
1170 73 69.0552 
1171 17 74.7149 
1172 114 96.3974 
1173 15 92.0644 
1174 141 108.984 
1175 317 109.668 
1176 92 87.6797 
1177 161 126.717 
1178 46 106.748 
1179 186 93.0226 
1180 3 83.9548 
1181 145 101.235 
1182 14 104.35 
1183 22 116.728 
1184 23 73.6173 
1185 268 111.05 
1186 12 95.6607 
1187 68 115.615 
1188 146 97.5405 
1189 154 122.672 
1190 14 78.2726 
1191 21 88.1264 
1192 26 90.5705 
1193 50 88.044 
1194 22 122.176 
1195 12 115.874 
1196 121 37.1458 
1197 28 63.0455 
1198 33 87.0361 
1199 24 98.1599 
1200 9 65.0211 
1201 22 53.8279 
1202 141 81.5386 
1203 14 91.9242 
1204 204 94.6758 
1205 148 103.594 
1206 6 82.8175 
1207 14 79.8509 
1208 17 79.9378 
1209 5 84.5369 
1210 52 85.5505 
1211 37 132.512 
1212 164 104.622 
1213 74 106.904 
1214 233 76.7422 
1215 5 121.823 
1216 25 87.3309 
1217 91 108.768 
1218 14 95.8047 
1219 65 83.6257 
1220 31 106.797 
1221 50 134.424 
1222 180 105.198 
1223 99 51.2067 
1224 35 115.169 
1225 25 96.9662 
1226 78 86.5884 
1227 185 103.259 
1228 41 98.9776 
1229 19 85.1044 
1230 370 54.9019 
1231 50 67.8987 
1232 72 120.319 
1233 14 103.742 
1234 19 80.3953 
1235 117 91.8401 
1236 82 117.091 
1237 58 102.246 
1238 0 77.2457 
1239 41 118.509 
1240 79 113.99 
1241 130 103.636 
1242 2 104.431 
1243 6 99.6184 
1244 216 113.361 
1245 146 97.6652 
1246 91 101.793 
1247 90 92.6492 
1248 146 84.201 
1249 55 84.8838 
1250 0 64.8158 
1251 163 94.0559 
1252 4 109.002 
1253 410 100.178 
1254 39 95.0342 
1255 19 88.9467 
1256 149 108.442 
1257 46 119.909 
1258 150 91.6058 
1259 23 90.9258 
1260 35 74.3539 
1261 16 72.5656 
1262 25 113.764 
1263 31 83.2952 
1264 168 84.458 
1265 235 114.006 
1266 278 113.524 
1267 95 122.819 
1268 165 102.345 
1269 286 106.095 
1270 67 108.526 
1271 200 117.175 
1272 18 77.3462 
1273 211 102.799 
1274 73 79.4033 
1275 21 99.9899 
1276 20 96.2888 
1277 35 115.467 
1278 178 117.539 
1279 64 104.773 
1280 167 95.9083 
1281 1 91.2053 
1282 4 102.487 
1283 71 110.266 
1284 13 82.6109 
1285 14 89.5226 
1286 71 106.018 
1287 108 85.5125 
1288 61 89.1602 
1289 46 82.4786 
1290 47 102.947 
1291 18 110.857 
1292 364 79.729 
1293 36 94.4631 
1294 53 136.028 
1295 47 87.3375 
1296 105 112.677 
1297 10 121.242 
1298 147 101.247 
1299 331 100.165 
1300 194 114.398 
1301 442 142.436 
1302 33 111.867 
1303 11 91.313 
1304 55 122.838 
1305 10 95.7197 
1306 22 85.7887 
1307 101 101.617 
1308 64 94.0691 
1309 168 109.592 
1310 93 90.7554 
1311 33 77.0701 
1312 45 111.429 
1313 142 88.242 
1314 113 102.465 
1315 15 86.9045 
1316 501 89.7436 
1317 25 92.7698 
1318 2 93.7528 
1319 43 76.1733 
1320 78 78.6967 
1321 136 99.457 
1322 274 122.525 
1323 52 115.341 
1324 43 103.43 
1325 49 117.324 
1326 129 66.1032 
1327 33 87.5301 
1328 8 101.727 
1329 183 70.1071 
1330 21 84.9373 
1331 14 90.0371 
1332 16 83.2561 
1333 62 78.9079 
1334 201 94.4378 
1335 31 80.3373 
1336 9 73.3365 
1337 98 78.1226 
1338 107 108.103 
1339 17 70.8719 
1340 19 95.7012 
1341 21 94.4214 
1342 16 109.404 
1343 42 82.2122 
1344 143 77.0929 
1345 36 84.5399 
1346 20 112.596 
1347 7 74.3539 
1348 68 77.7208 
1349 106 123.446 
1350 160 58.7961 
1351 32 106.462 
1352 78 67.7367 
1353 83 77.2677 
1354 268 108.064 
1355 21 79.729 
1356 10 73.9855 
1357 67 80.6181 
1358 86 96.09 
1359 179 103.305 
1360 7 95.4127 
1361 33 87.4735 
1362 329 73.9376 
1363 13 77.4016 
1364 66 93.2416 
1365 317 105.178 
1366 4 82.2725 
1367 62 94.9087 
1368 141 55.3588 
1369 140 96.2656 
1370 44 91.3853 
1371 65 91.7873 
1372 27 71.7953 
1373 57 110.811 
1374 10 94.3918 
1375 49 106.315 
1376 122 96.4634 
1377 71 81.22 
1378 177 115.787 
1379 78 73.3813 
1380 75 81.6881 
1381 42 90.2885 
1382 36 68.7633 
1383 177 106.082 
1384 29 61.4671 
1385 16 88.5622 
1386 104 95.0122 
1387 29 98.0153 
1388 29 87.4326 
1389 66 85.9747 
1390 178 60.519 
1391 164 102.615 
1392 156 94.5338 
1393 200 78.9423 
1394 26 98.1493 
1395 190 110.419 
1396 120 96.1088 
1397 154 84.1701 
1398 12 101.077 
1399 2 117.487 
1400 15 101.235 
1401 61 83.3833 
1402 17 92.847 
1403 95 73.6671 
1404 42 75.9288 
1405 154 118.939 
1406 201 103.881 
1407 229 108.138 
1408 273 105.136 
1409 144 140.044 
1410 134 98.9771 
1411 49 108.432 
1412 13 93.6853 
1413 103 94.0513 
1414 55 111.508 
1415 71 106.106 
1416 54 71.7615 
1417 8 95.8137 
1418 101 104.683 
1419 54 108.609 
1420 88 72.7902 
1421 15 103.191 
1422 26 99.7086 
1423 66 103.742 
1424 28 86.144 
1425 23 108.123 
1426 102 31.5271 
1427 127 31.93 
1428 22 76.0315 
1429 195 96.5356 
1430 56 103.474 
1431 123 112.636 
1432 29 85.5125 
1433 51 94.6941 
1434 31 68.0204 
1435 71 92.9543 
1436 82 104.443 
1437 19 116.048 
1438 20 58.1253 
1439 140 83.8206 
1440 138 82.1489 
1441 7 123.223 
1442 59 73.024 
1443 23 48.4099 
1444 6 81.235 
1445 25 90.9424 
1446 60 98.7937 
1447 94 71.2564 
1448 116 79.559 
1449 15 74.3539 
1450 50 100.248 
1451 587 112.522 
1452 12 86.9138 
1453 26 80.6042 
1454 42 134.86 
1455 71 79.5167 
1456 7 87.8575 
1457 16 100.87 
1458 7 93.2086 
1459 140 115.006 
1460 161 94.5099 
1461 34 86.2187 
1462 42 88.2455 
1463 143 91.7787 
1464 116 83.7819 
1465 176 69.7449 
1466 55 125.747 
1467 165 106.758 
1468 51 60.7404 
1469 3 103.241 
1470 140 103.773 
1471 118 107.929 
1472 57 103.795 
1473 4 120.516 
1474 142 114.955 
1475 100 99.7526 
1476 51 76.2731 
1477 96 114.409 
1478 11 89.5754 
1479 31 70.9633 
1480 92 114.729 
1481 83 122.157 
1482 129 86.3649 
1483 54 84.5539 
1484 37 78.3818 
1485 124 109.686 
1486 95 93.0925 
1487 166 133.42 
1488 66 89.3868 
1489 34 88.1468 
1490 15 70.8719 
1491 8 109.146 
1492 60 87.3319 
1493 9 81.4389 
1494 40 89.3766 
1495 6 68.5273 
1496 103 95.3577 
1497 1 86.8966 
1498 13 74.5011 
1499 233 98.6395 
1500 214 120.211 
1501 28 89.3558 
1502 104 102.382 
1503 140 123.486 
1504 22 90.9395 
1505 114 104.353 
1506 51 122.57 
1507 125 90.6199 
1508 203 113.607 
1509 245 107.531 
1510 44 57.6072 
1511 54 116.002 
1512 242 97.7459 
1513 44 88.4193 
1514 56 106.945 
1515 21 88.4823 
1516 1 75.181 
1517 135 104.135 
1518 70 104.764 
1519 9 89.1045 
1520 10 97.5488 
1521 72 81.7123 
1522 31 58.2252 
1523 40 110.574 
1524 28 86.8527 
1525 82 100.737 
1526 105 73.3716 
1527 21 115.919 
1528 157 107.031 
1529 70 94.0584 
1530 46 91.5163 
1531 101 102.608 
1532 296 95.5383 
1533 404 103.437 
1534 12 106.956 
1535 4 77.3099 
1536 484 88.3391 
1537 85 41.9416 
1538 117 97.9586 
1539 41 65.5814 
1540 99 91.9749 
1541 264 88.0111 
1542 21 106.213 
1543 38 105.4 
1544 44 101.804 
1545 286 99.4969 
1546 15 96.9382 
1547 21 101.812 
1548 6 84.2179 
1549 131 94.2925 
1550 44 106.68 
1551 40 90.7617 
1552 97 97.0409 
1553 343 83.8644 
1554 19 84.888 
1555 97 68.3958 
1556 87 78.1261 
1557 10 85.0182 
1558 201 107.158 
1559 27 102.411 
1560 2 74.419 
1561 63 99.0927 
1562 42 64.7649 
1563 140 98.7668 
1564 26 86.1772 
1565 144 116.223 
1566 2 82.5297 
1567 31 78.2976 
1568 234 90.045 
1569 58 96.6069 
1570 33 101.631 
1571 29 91.239 
1572 5 106.415 
1573 21 81.8173 
1574 13 93.8908 
1575 49 97.6047 
1576 362 79.3486 
1577 180 94.167 
1578 344 108.667 
1579 206 98.6064 
1580 97 115.903 
1581 37 71.083 
1582 295 91.927 
1583 85 98.751 
1584 105 93.4809 
1585 18 117.96 
1586 63 91.6595 
1587 167 94.155 
1588 22 96.8636 
1589 37 65.5615 
1590 7 92.0651 
1591 25 107.89 
1592 94 83.7692 
1593 850 89.9629 
1594 9 95.9365 
1595 168 96.4323 
1596 41 89.1721 
1597 0 51.9647 
1598 407 91.8801 
1599 31 76.689 
1600 52 108.99 
1601 109 107.308 
1602 73 84.5883 
1603 62 114.976 
1604 188 118.356 
1605 264 85.4521 
1606 24 105.279 
1607 56 99.826 
1608 5 97.687 
1609 91 83.8206 
1610 100 106.182 
1611 175 102.115 
1612 26 78.3102 
1613 251 80.0206 
1614 150 93.8579 
1615 85 98.3584 
1616 206 99.4487 
1617 202 107.093 
1618 108 67.9582 
1619 36 93.3015 
1620 504 95.8565 
1621 52 78.6398 
1622 46 103.447 
1623 11 86.0935 
1624 207 91.0474 
1625 56 56.8007 
1626 41 104.794 
1627 21 94.6478 
1628 51 47.2273 
1629 219 104.96 
1630 93 91.7551 
1631 32 103.366 
1632 323 107.897 
1633 103 112.1 
1634 44 90.3685 
1635 217 100.618 
1636 169 114.531 
1637 25 76.8622 
1638 21 84.6398 
1639 75 104.549 
1640 14 96.8915 
1641 69 96.4099 
1642 81 95.9365 
1643 14 111.934 
1644 19 89.6433 
1645 27 122.327 
1646 191 91.0317 
1647 0 107.303 
1648 18 104.747 
1649 168 79.1542 
1650 40 85.3934 
1651 119 102.069 
1652 17 80.0206 
1653 31 125.748 
1654 133 115.772 
1655 97 87.2061 
1656 8 104.378 
1657 133 90.3508 
1658 25 80.9207 
1659 101 94.4183 
1660 99 98.5551 
1661 68 114.955 
1662 10 107.114 
1663 76 72.763 
1664 108 87.3939 
1665 185 96.6303 
1666 128 130.195 
1667 317 110.872 
1668 175 110.319 
1669 2 71.4664 
1670 361 99.6611 
1671 0 62.4052 
1672 32 85.3967 
1673 105 69.7161 
1674 17 105.666 
1675 232 110.566 
1676 108 66.2472 
1677 0 68.7234 
1678 19 94.2791 
1679 65 118.234 
1680 106 102.943 
1681 31 92.0022 
1682 25 91.5642 
1683 45 89.4166 
1684 72 103.727 
1685 6 88.7107 
1686 180 104.584 
1687 32 103.304 
1688 46 81.22 
1689 32 64.1062 
1690 23 102.703 
1691 9 121.06 
1692 44 95.0318 
1693 95 111.655 
1694 172 106.342 
1695 85 111.609 
1696 69 86.035 
1697 101 108.45 
1698 154 94.1899 
1699 40 109.165 
1700 266 75.7948 
1701 71 78.4852 
1702 120 72.403 
1703 65 103.765 
1704 29 89.3911 
1705 18 114.034 
1706 276 119.533 
1707 30 97.5354 
1708 209 75.7101 
1709 18 70.8458 
1710 17 75.0705 
1711 23 68.7898 
1712 160 102.541 
1713 198 95.3086 
1714 412 125.881 
1715 15 94.8692 
1716 284 108.336 
1717 10 106.748 
1718 89 115.456 
1719 152 102.664 
1720 38 85.2568 
1721 120 94.8101 
1722 10 64.8158 
1723 35 78.3668 
1724 36 110.109 
1725 216 87.0894 
1726 9 90.9197 
1727 8 70.9748 
1728 43 75.158 
1729 203 99.3004 
1730 29 81.9054 
1731 154 106.945 
1732 174 153.853 
1733 111 87.8416 
1734 0 75.4057 
1735 119 86.0704 
1736 101 76.5189 
1737 3 80.3935 
1738 66 100.419 
1739 19 79.8449 
1740 683 116.827 
1741 148 110.262 
1742 132 101.53 
1743 16 116.314 
1744 14 113.932 
1745 50 82.3681 
1746 136 79.4359 
1747 48 105.256 
1748 10 118.47 
1749 20 93.1293 
1750 86 102.598 
1751 130 101.063 
1752 40 94.9458 
1753 131 108.098 
1754 97 84.5883 
1755 26 99.9241 
1756 101 106.278 
1757 81 75.5605 
1758 149 87.8989 
1759 220 90.3203 
1760 181 99.8665 
1761 87 93.6916 
1762 157 93.8705 
1763 322 121.121 
1764 88 114.989 
1765 104 103.583 
1766 185 94.6758 
1767 30 88.8324 
1768 24 106.96 
1769 19 103.276 
1770 59 88.9525 
1771 6 91.8134 
1772 310 81.6859 
1773 37 85.5801 
1774 20 77.6549 
1775 20 85.5682 
1776 24 88.3355 
1777 56 105.67 
1778 120 97.5354 
1779 100 92.587 
1780 35 83.6681 
1781 23 80.611 
1782 22 96.8636 
1783 226 113.834 
1784 20 91.7984 
1785 90 72.3365 
1786 161 109.662 
1787 116 105.202 
1788 8 103.367 
1789 46 101.974 
1790 116 98.9869 
1791 148 89.5124 
1792 111 97.6085 
1793 63 114.68 
1794 45 112.515 
1795 135 102.487 
1796 28 112.089 
1797 25 87.6273 
1798 40 57.1768 
1799 244 112.451 
1800 46 110.012 
1801 149 106.635 
1802 53 144.691 
1803 181 84.9927 
1804 55 124.874 
1805 137 101.402 
1806 27 63.2743 
1807 53 118.203 
1808 57 97.3584 
1809 95 103.278 
1810 30 73.7973 
1811 4 88.5356 
1812 77 94.1785 
1813 121 80.0718 
1814 22 120.86 
1815 168 93.3689 
1816 28 85.5098 
1817 79 89.4252 
1818 4 63.2951 
1819 89 110.287 
1820 15 89.9132 
1821 79 109.531 
1822 105 81.3956 
1823 86 124.782 
1824 54 111.243 
1825 221 105.376 
1826 11 107.683 
1827 155 97.3168 
1828 41 123.447 
1829 212 128.178 
1830 50 89.2175 
1831 2 94.2802 
1832 6 64.8158 
1833 47 95.1192 
1834 171 86.6159 
1835 31 93.929 
1836 115 86.9121 
1837 113 103.867 
1838 338 108.45 
1839 317 106.512 
1840 48 108.573 
1841 187 91.8401 
1842 87 95.071 
1843 127 108.384 
1844 122 103.527 
1845 14 55.5966 
1846 347 95.8158 
1847 36 96.5943 
1848 54 85.0151 
1849 22 104.107 
1850 7 66.9341 
1851 128 110.897 
1852 147 78.1768 
1853 64 110.547 
1854 255 90.7168 
1855 62 111.134 
1856 79 106.005 
1857 21 100.548 
1858 150 3.65955 
1859 150 102.359 
1860 7 103.751 
1861 20 124.32 
1862 17 106.882 
1863 76 60.9068 
1864 171 85.3466 
1865 35 90.8472 
1866 76 104.901 
1867 103 69.0552 
1868 15 88.242 
1869 76 76.8621 
1870 81 81.84 
1871 24 89.1048 
1872 62 82.2725 
1873 119 81.0724 
1874 31 109.07 
1875 82 112.69 
1876 167 83.2839 
1877 216 81.3168 
1878 12 91.2954 
1879 13 94.1094 
1880 40 88.5078 
1881 90 105.837 
1882 173 94.647 
1883 501 116.871 
1884 203 88.1559 
1885 7 61.767 
1886 97 75.787 
1887 26 103.601 
1888 141 90.9023 
1889 211 113.766 
1890 65 82.5471 
1891 20 108.724 
1892 110 104.872 
1893 134 83.054 
1894 67 82.8407 
1895 21 80.0411 
1896 10 64.8158 
1897 13 75.5605 
1898 91 89.3973 
1899 35 78.0922 
1900 346 83.1404 
1901 11 60.1964 
1902 25 85.5986 
1903 4 86.0594 
1904 52 91.9128 
1905 100 106.886 
1906 197 137.564 
1907 46 82.9565 
1908 28 117.557 
1909 4 98.8503 
1910 19 102.189 
1911 254 103.831 
1912 41 91.4517 
1913 200 112.511 
1914 219 91.2193 
1915 46 83.8206 
1916 0 64.8158 
1917 60 72.2178 
1918 56 89.8664 
1919 81 122.213 
1920 93 109.435 
1921 23 99.8205 
1922 60 99.1419 
1923 10 79.8737 
1924 62 118.785 
1925 35 113.861 
1926 31 92.0644 
1927 549 109.131 
1928 156 103.615 
1929 137 103.609 
1930 22 88.389 
1931 16 75.6492 
1932 103 94.5964 
1933 19 81.0437 
1934 17 87.0917 
1935 91 99.2899 
1936 118 94.8262 
1937 8 85.9609 
1938 7 64.8158 
1939 102 110.288 
1940 5 70.7856 
1941 109 101.488 
1942 28 89.3779 
1943 17 36.6553 
1944 84 139.865 
1945 16 90.1391 
1946 178 110.769 
1947 5 104.504 
1948 61 76.715 
1949 34 106.759 
1950 149 106.005 
1951 20 95.9763 
1952 444 80.0043 
1953 3 83.5201 
1954 109 97.2382 
1955 206 103.538 
1956 36 59.1442 
1957 50 113.695 
1958 73 69.5138 
1959 62 113.404 
1960 11 94.683 
1961 127 104.706 
1962 48 90.9492 
1963 52 97.9542 
1964 14 89.4539 
1965 169 100.413 
1966 27 91.2477 
1967 48 41.1022 
1968 119 123.809 
1969 141 101.169 
1970 44 85.4015 
1971 58 78.3087 
1972 284 102.221 
1973 30 91.5836 
1974 314 87.6089 
1975 112 105.398 
1976 14 85.4779 
1977 158 92.3095 
1978 129 108.336 
1979 11 90.6455 
1980 37 100.135 
1981 189 111.503 
1982 41 100.527 
1983 2 68.1982 
1984 69 106.848 
1985 43 102.367 
1986 4 64.8158 
1987 232 104.172 
1988 8 80.7962 
1989 114 90.7159 
1990 110 106.415 
1991 52 87.8531 
1992 3 84.0061 
1993 18 68.8991 
1994 269 103.212 
1995 234 79.8366 
1996 83 103.871 
1997 64 78.4641 
1998 152 107.929 
1999 4 96.6885 
2000 393 112.034 
2001 76 96.0023 
2002 155 100.976 
2003 276 84.6056 
2004 32 91.2558 
2005 100 87.7572 
2006 36 153.603 
2007 39 119.982 
2008 246 102.402 
2009 45 81.7374 
2010 20 114.456 
2011 232 94.683 
2012 135 101.137 
2013 184 101.273 
2014 31 88.8062 
2015 73 151.241 
2016 32 93.8218 
2017 24 72.4497 
2018 254 84.551 
2019 0 104.574 
2020 8 99.3973 
2021 10 97.6654 
2022 0 67.534 
2023 44 73.6671 
2024 146 113.274 
2025 172 93.4759 
2026 17 106.575 
2027 56 90.7255 
2028 131 111.229 
2029 99 106.278 
2030 63 100.315 
2031 11 88.1553 
2032 133 93.6445 
2033 213 95.934 
2034 19 102.487 
2035 132 83.6457 
2036 92 99.0925 
2037 80 136.601 
2038 40 106.341 
2039 39 99.4969 
2040 77 67.3271 
2041 344 118.511 
2042 83 95.9393 
2043 218 105.087 
2044 172 76.6424 
2045 86 58.0656 
2046 13 101.709 
2047 498 132.282 
2048 53 82.3157 
2049 51 39.388 
2050 42 113.918 
2051 0 69.7177 
2052 60 78.5662 
2053 117 90.4705 
2054 9 113.823 
2055 55 88.5004 
2056 212 81.7538 
2057 47 97.066 
2058 29 75.7779 
2059 70 79.6838 
2060 166 86.9121 
2061 9 83.6474 
2062 37 99.1907 
2063 8 77.4572 
2064 34 108.431 
2065 12 79.4557 
2066 56 89.0924 
2067 100 97.7476 
2068 49 120.197 
2069 171 81.0524 
2070 62 84.8573 
2071 50 107.547 
2072 93 102.471 
2073 35 97.4357 
2074 74 85.7835 
2075 172 99.9036 
2076 6 68.4936 
2077 36 94.8944 
2078 160 90.4827 
2079 150 102.803 
2080 57 112.384 
2081 130 111.503 
2082 86 104.932 
2083 17 88.1726 
2084 50 105.058 
2085 19 89.9925 
2086 39 91.0021 
2087 9 91.7458 
2088 17 98.1675 
2089 95 116.551 
2090 8 82.7815 
2091 217 105.187 
2092 12 80.0657 
2093 106 92.958 
2094 14 102.511 
2095 156 63.8181 
2096 41 105.665 
2097 4 72.6145 
2098 166 67.0396 
2099 82 75.6077 
2100 94 90.5015 
2101 74 85.3466 
2102 20 105.02 
2103 143 92.2207 
2104 97 123.242 
2105 99 105.98 
2106 24 106.506 
2107 64 104.168 
2108 110 104.908 
2109 89 97.4172 
2110 79 94.5099 
2111 57 80.3813 
2112 119 69.776 
2113 173 105.956 
2114 114 80.2096 
2115 27 85.8346 
2116 51 13.6608 
2117 69 77.705 
2118 7 74.7924 
2119 98 99.2176 
2120 57 99.527 
2121 274 102.875 
2122 39 84.2833 
2123 35 116.158 
2124 49 106.219 
2125 12 76.2615 
2126 15 65.6062 
2127 80 100.927 
2128 72 105.566 
2129 5 86.9709 
2130 22 72.7857 
2131 82 107.208 
2132 35 109.939 
2133 38 78.236 
2134 5 100.515 
2135 5 105.087 
2136 7 68.3301 
2137 242 94.7262 
2138 18 108.463 
2139 32 73.9386 
2140 67 84.1251 
2141 134 102.762 
2142 302 109.158 
2143 46 108.056 
2144 137 91.265 
2145 101 81.9375 
2146 91 105.03 
2147 38 114.847 
2148 25 100.492 
2149 152 108.182 
2150 354 81.6828 
2151 18 80.6279 
2152 25 103.557 
2153 15 75.817 
2154 34 115.615 
2155 106 104.132 
2156 196 63.138 
2157 365 108.082 
2158 3 52.9479 
2159 139 108.061 
2160 37 90.0074 
2161 196 78.459 
2162 9 86.7984 
2163 256 97.8232 
2164 98 104.934 
2165 22 138.902 
2166 217 83.2667 
2167 65 -15.722 
2168 32 64.1974 
2169 103 49.9133 
2170 87 84.4928 
2171 141 109.664 
2172 54 93.1925 
2173 176 78.809 
2174 318 92.3837 
2175 29 100.52 
2176 259 98.9252 
2177 73 79.7004 
2178 143 103.643 
2179 19 85.3368 
2180 37 133.787 
2181 95 102.664 
2182 45 85.0376 
2183 1 90.2872 
2184 7 103.351 
2185 50 97.0397 
2186 207 113.094 
2187 83 80.6145 
2188 64 118.54 
2189 27 86.5643 
2190 10 95.6922 
2191 297 91.4708 
2192 589 109.055 
2193 14 96.7712 
2194 113 102.843 
2195 264 121.222 
2196 154 101.617 
2197 49 99.7911 
2198 57 108.013 
2199 84 121.158 
2200 49 101.833 
2201 42 79.1787 
2202 19 109.865 
2203 178 93.8725 
2204 153 89.3973 
2205 15 94.2138 
2206 278 96.2855 
2207 64 89.6433 
2208 52 96.289 
2209 43 110.868 
2210 35 86.6022 
2211 78 107.168 
2212 377 90.2396 
2213 170 116.487 
2214 25 104.003 
2215 53 69.776 
2216 25 80.3271 
2217 14 137.69 
2218 127 80.601 
2219 7 103.797 
2220 202 99.1366 
2221 203 58.8655 
2222 35 83.093 
2223 129 75.9033 
2224 105 78.4641 
2225 209 104.992 
2226 226 96.856 
2227 30 90.1469 
2228 32 119.276 
2229 68 82.33 
2230 0 74.6096 
2231 126 96.4048 
2232 52 116.924 
2233 175 80.7518 
2234 15 99.1154 
2235 29 118.804 
2236 1169 113.343 
2237 42 77.5054 
2238 41 75.6269 
2239 20 115.539 
2240 51 86.9138 
2241 31 27.886 
2242 72 105.981 
2243 199 98.9252 
2244 192 106.813 
2245 177 103.011 
2246 231 132.727 
2247 4 68.4265 
2248 20 97.4704 
2249 18 98.0089 
2250 109 101.767 
2251 79 86.4274 
2252 196 87.6576 
2253 7 79.7367 
2254 73 80.0206 
2255 351 116.489 
2256 178 103.729 
2257 182 96.954 
2258 169 86.9121 
2259 97 95.9674 
2260 17 85.7887 
2261 5 72.1671 
2262 100 99.6217 
2263 2 63.7632 
2264 4 69.7161 
2265 35 77.6444 
2266 92 101.011 
2267 19 86.1934 
2268 17 100.925 
2269 420 78.5944 
2270 22 104.872 
2271 146 99.4605 
2272 16 73.7653 
2273 27 97.881 
2274 17 83.8956 
2275 6 82.4509 
2276 17 91.6058 
2277 91 99.8807 
2278 121 115.095 
2279 42 90.5124 
2280 12 97.6739 
2281 13 90.1152 
2282 69 85.7887 
2283 43 90.7137 
2284 32 119.034 
2285 203 95.2863 
2286 97 108.839 
2287 203 104.683 
2288 24 101.189 
2289 64 113.528 
2290 60 84.8686 
2291 149 80.3373 
2292 67 94.7208 
2293 0 101.424 
2294 46 93.0525 
2295 26 67.7723 
2296 166 120.225 
2297 226 105.269 
2298 38 124.953 
2299 149 74.8582 
2300 452 103.704 
2301 12 93.0884 
2302 50 142.247 
2303 165 92.8973 
2304 145 124.639 
2305 65 93.4888 
2306 90 79.9529 
2307 414 103.077 
2308 172 102.947 
2309 102 124.549 
2310 136 97.7808 
2311 71 77.6866 
2312 114 91.7787 
2313 116 89.1877 
2314 86 108.711 
2315 24 98.1151 
2316 60 105.483 
2317 124 99.2599 
2318 0 68.8991 
2319 28 129.408 
2320 19 116.149 
2321 304 95.4614 
2322 43 78.6506 
2323 9 97.3187 
2324 237 101.146 
2325 13 78.8376 
2326 29 118.45 
2327 262 94.7262 
2328 77 111.538 
2329 12 90.3842 
2330 266 99.182 
2331 197 83.4761 
2332 45 127.891 
2333 19 90.1925 
2334 108 89.4166 
2335 350 101.787 
2336 59 108.779 
2337 18 74.5154 
2338 36 69.2531 
2339 42 103.883 
2340 47 83.5967 
2341 53 95.0342 
2342 77 103.316 
2343 24 51.3801 
2344 44 90.2837 
2345 53 85.8661 
2346 61 109.684 
2347 13 97.9923 
2348 86 80.7518 
2349 217 106.639 
2350 19 79.2054 
2351 62 110.479 
2352 13 94.897 
2353 41 77.3847 
2354 18 41.064 
2355 42 110.78 
2356 37 127.9 
2357 83 94.9493 
2358 2 90.2498 
2359 261 102.539 
2360 147 101.186 
2361 28 60.2124 
2362 3 102.487 
2363 262 95.7325 
2364 200 98.1599 
2365 11 109.692 
2366 61 116.696 
2367 48 98.274 
2368 525 77.4069 
2369 29 91.014 
2370 3 77.6444 
2371 90 113.625 
2372 103 35.4509 
2373 62 98.5572 
2374 58 110.736 
2375 315 96.3667 
2376 89 109.177 
2377 22 85.8734 
2378 91 72.0994 
2379 231 103.691 
2380 0 64.8158 
2381 53 105.811 
2382 127 92.0115 
2383 16 89.5614 
2384 106 97.0599 
2385 97 101.617 
2386 125 80.0508 
2387 298 96.4626 
2388 28 69.2063 
2389 138 86.2365 
2390 43 71.7072 
2391 34 111.87 
2392 80 104.62 
2393 5 89.0311 
2394 54 102.741 
2395 297 120.115 
2396 115 120.315 
2397 104 86.7047 
2398 104 117.675 
2399 25 113.794 
2400 198 91.9829 
2401 24 101.113 
2402 201 95.1945 
2403 42 79.3514 
2404 93 97.4382 
2405 208 105.979 
2406 49 114.616 
2407 327 84.7058 
2408 28 75.3445 
2409 86 100.912 
2410 11 78.0282 
2411 18 41.917 
2412 11 69.3238 
2413 40 109.556 
2414 21 93.6561 
2415 24 88.4193 
2416 200 103.178 
2417 75 84.1886 
2418 118 94.8577 
2419 133 119.972 
2420 81 105.03 
2421 30 106.315 
2422 90 104.958 
2423 16 68.9787 
2424 194 115.681 
2425 148 136.389 
2426 342 118.143 
2427 2 94.7028 
2428 100 91.7057 
2429 3 87.3507 
2430 22 73.71 
2431 110 125.741 
2432 44 91.2894 
2433 44 103.978 
2434 65 98.3273 
2435 18 74.1683 
2436 5 73.8908 
2437 26 82.7815 
2438 5 93.2071 
2439 7 101.734 
2440 156 101.455 
2441 147 143.766 
2442 41 102.861 
2443 19 86.9138 
2444 62 105.285 
2445 8 96.2699 
2446 73 97.1067 
2447 38 85.8545 
2448 72 76.0779 
2449 66 65.3822 
2450 12 108.979 
2451 48 110.536 
2452 28 83.656 
2453 81 107.305 
2454 222 94.0084 
2455 16 97.5699 
2456 25 106.458 
2457 4 71.306 
2458 46 105.335 
2459 223 95.1063 
2460 113 103.212 
2461 161 91.9885 
2462 98 102.339 
2463 39 64.5793 
2464 116 85.89 
2465 49 89.1056 
2466 50 77.6444 
2467 69 96.8109 
2468 64 104.857 
2469 53 79.4254 
2470 338 111.786 
2471 159 91.4355 
2472 51 127.963 
2473 18 64.9907 
2474 1 85.0182 
2475 33 85.6679 
2476 262 120.941 
2477 21 65.3274 
2478 112 97.2126 
2479 85 103.692 
2480 123 114.429 
2481 229 105.325 
2482 32 106.363 
2483 131 96.0493 
2484 268 104.958 
2485 108 60.7774 
2486 24 67.4528 
2487 98 101.727 
2488 168 107.889 
2489 235 88.5131 
2490 0 64.8158 
2491 7 90.241 
2492 50 83.2561 
2493 62 57.8802 
2494 129 87.9672 
2495 9 119.533 
2496 110 120.849 
2497 4 104.963 
2498 20 75.4816 
2499 106 95.8627 
2500 169 103.586 
2501 11 92.2345 
2502 72 112.005 
2503 7 103.707 
2504 29 141.171 
2505 31 136.71 
2506 31 93.5661 
2507 428 99.276 
2508 72 103.448 
2509 0 64.9907 
2510 40 110.011 
2511 160 106.918 
2512 182 97.4842 
2513 89 74.495 
2514 396 130.766 
2515 87 106.919 
2516 123 82.7526 
2517 48 90.4489 
2518 161 118.073 
2519 71 76.8621 
2520 94 103.463 
2521 2 103.181 
2522 44 96.856 
2523 43 118.201 
2524 173 100.079 
2525 22 121.686 
2526 8 68.2383 
2527 80 98.2867 
2528 10 101.054 
2529 5 103.609 
2530 36 96.3101 
2531 241 75.5775 
2532 124 65.2685 
2533 274 99.8884 
2534 6 84.7049 
2535 47 90.3181 
2536 5 82.0175 
2537 29 89.3229 
2538 40 77.6549 
2539 22 113.417 
2540 15 100.864 
2541 243 82.084 
2542 25 69.374 
2543 143 106.152 
2544 75 91.4131 
2545 175 100.904 
2546 11 94.0593 
2547 117 115.43 
2548 39 97.1067 
2549 15 99.782 
2550 25 95.9977 
2551 21 84.4683 
2552 91 149.732 
2553 225 96.954 
2554 136 95.2426 
2555 52 117.599 
2556 6 106.983 
2557 6 68.1506 
2558 27 68.0155 
2559 142 86.7082 
2560 67 97.5645 
2561 1 64.8158 
2562 162 80.7045 
2563 174 96.856 
2564 40 71.5567 
2565 258 128.216 
2566 174 94.4214 
2567 19 114.43 
2568 3 104.244 
2569 4 63.9227 
2570 169 82.4154 
2571 174 125.613 
2572 125 108.917 
2573 25 127.546 
2574 68 80.9207 
2575 264 118.507 
2576 167 117.659 
2577 101 103.976 
2578 19 84.6561 
2579 168 83.0921 
2580 247 95.7044 
2581 64 94.1094 
2582 35 95.3972 
2583 27 103.283 
2584 180 106.239 
2585 207 82.2884 
2586 177 105.779 
2587 122 97.1116 
2588 64 104.95 
2589 16 70.8139 
2590 141 80.0134 
2591 16 41.1533 
2592 127 92.2496 
2593 55 70.2508 
2594 41 91.681 
2595 19 89.7316 
2596 91 89.0082 
2597 26 84.9143 
2598 17 102.539 
2599 112 91.0305 
2600 19 120.801 
2601 136 85.3066 
2602 14 102.106 
2603 32 90.4705 
2604 77 83.2744 
2605 45 94.8263 
2606 14 109.342 
2607 35 89.646 
2608 201 89.2713 
2609 104 75.3138 
2610 292 92.7511 
2611 7 85.341 
2612 34 83.5367 
2613 451 108.579 
2614 17 79.7743 
2615 43 92.5719 
2616 10 84.039 
2617 25 91.2586 
2618 140 101.127 
2619 6 106.14 
2620 107 77.2005 
2621 5 78.0833 
2622 91 91.1895 
2623 88 116.188 
2624 80 118.972 
2625 37 97.5154 
2626 51 119.43 
2627 2 90.1731 
2628 102 82.4203 
2629 9 103.472 
2630 162 91.7634 
2631 227 116.463 
2632 32 100.659 
2633 93 88.2157 
2634 314 101.709 
2635 42 107.537 
2636 39 101.887 
2637 64 92.8313 
2638 145 89.2089 
2639 43 104.079 
2640 15 103.825 
2641 315 99.4487 
2642 46 82.7525 
2643 8 114.981 
2644 65 90.7554 
2645 66 101.266 
2646 89 71.3643 
2647 83 108.572 
2648 48 73.4031 
2649 9 61.9707 
2650 357 105.55 
2651 114 88.5587 
2652 37 75.9158 
2653 33 102.369 
2654 17 64.8158 
2655 80 94.6352 
2656 26 103.797 
2657 45 102.31 
2658 40 91.0386 
2659 131 71.6484 
2660 59 98.8691 
2661 151 82.4231 
2662 44 94.7208 
2663 22 105.984 
2664 20 107.411 
2665 71 96.2121 
2666 49 94.5619 
2667 256 101.617 
2668 117 97.1073 
2669 11 63.9389 
2670 67 65.0899 
2671 125 101.358 
2672 77 103.577 
2673 8 95.9083 
2674 6 114.393 
2675 240 108.113 
2676 57 102.24 
2677 31 84.5883 
2678 34 74.1519 
2679 9 92.7139 
2680 120 89.2938 
2681 109 73.4374 
2682 28 121.115 
2683 34 82.4475 
2684 15 100.028 
2685 58 81.1092 
2686 39 83.8483 
2687 48 81.6309 
2688 122 83.4641 
2689 85 108.061 
2690 16 92.4328 
2691 78 105.873 
2692 153 103.976 
2693 2 110.583 
2694 28 92.9473 
2695 0 60.5166 
2696 15 97.5202 
2697 59 104.421 
2698 9 93.0017 
2699 11 74.8594 
2700 43 100.265 
2701 0 107.745 
2702 5 55.5001 
2703 88 73.6671 
2704 57 95.9895 
2705 15 87.5202 
2706 304 90.4096 
2707 51 89.5339 
2708 405 109.333 
2709 686 98.7648 
2710 185 103.601 
2711 69 103.191 
2712 299 95.8377 
2713 127 127.681 
2714 16 88.2928 
2715 12 82.1263 
2716 265 106.698 
2717 36 72.1745 
2718 18 63.2696 
2719 101 62.1277 
2720 307 105.974 
2721 54 108.432 
2722 17 104.234 
2723 120 117.904 
2724 23 71.711 
2725 34 95.364 
2726 16 104.79 
2727 8 76.039 
2728 248 102.861 
2729 62 88.3346 
2730 247 96.9382 
2731 49 56.6047 
2732 55 104.658 
2733 6 87.8687 
2734 132 90.4885 
2735 335 82.4498 
2736 174 84.2788 
2737 20 94.5419 
2738 9 112.7 
2739 321 109.491 
2740 1 60.2458 
2741 160 105.233 
2742 177 78.3936 
2743 398 112.935 
2744 45 90.9949 
2745 137 102.726 
2746 21 112.132 
2747 16 102.805 
2748 5 114.878 
2749 40 106.71 
2750 139 90.4705 
2751 118 96.3677 
2752 153 70.3317 
2753 78 107.654 
2754 46 86.3459 
2755 39 105.782 
2756 46 126.265 
2757 4 118.634 
2758 55 114.735 
2759 11 90.8513 
2760 20 81.0916 
2761 9 106.076 
2762 34 117.527 
2763 71 46.8966 
2764 135 98.1204 
2765 18 90.5 
2766 2 72.1463 
2767 16 71.499 
2768 165 115.615 
2769 60 50.6683 
2770 34 93.6366 
2771 19 96.2758 
2772 54 108.463 
2773 113 96.0023 
2774 174 110.086 
2775 187 86.5517 
2776 11 113.724 
2777 7 85.8143 
2778 165 102.328 
2779 25 90.9708 
2780 126 96.4099 
2781 199 111.696 
2782 158 112.034 
2783 48 107.465 
2784 40 94.7438 
2785 42 101.153 
2786 51 77.8526 
2787 84 74.3539 
2788 43 102.321 
2789 124 85.5125 
2790 135 100.313 
2791 41 85.518 
2792 60 97.2597 
2793 166 85.0182 
2794 12 91.2094 
2795 29 111.126 
2796 9 110.975 
2797 231 87.0097 
2798 240 93.3102 
2799 8 80.4593 
2800 11 76.9662 
2801 20 76.129 
2802 7 97.5942 
2803 15 103.349 
2804 109 94.8965 
2805 21 132.247 
2806 25 93.8022 
2807 192 107.01 
2808 61 125.369 
2809 96 93.8612 
2810 101 118.959 
2811 88 80.6042 
2812 187 35.4071 
2813 146 91.5623 
2814 109 73.3114 
2815 1 78.647 
2816 81 103.541 
2817 249 96.2656 
2818 60 116.964 
2819 80 89.6727 
2820 82 108.901 
2821 263 94.2289 
2822 196 79.5167 
2823 76 105.817 
2824 71 98.2599 
2825 206 90.2491 
2826 185 105.612 
2827 25 79.7158 
2828 133 93.4809 
2829 24 87.8492 
2830 104 106.507 
2831 115 106.217 
2832 115 93.9156 
2833 89 71.2564 
2834 16 59.0547 
2835 39 89.7436 
2836 6 76.8037 
2837 113 74.4581 
2838 39 105.872 
2839 255 109.342 
2840 2 118.666 
2841 3 84.6476 
2842 70 98.551 
2843 141 95.9143 
2844 12 122.175 
2845 4 107.13 
2846 28 104.207 
2847 6 71.8951 
2848 36 76.6736 
2849 139 111.184 
2850 63 91.2477 
2851 4 102.394 
2852 93 104.857 
2853 140 78.3635 
2854 0 74.1782 
2855 32 97.5645 
2856 93 125.253 
2857 124 135.65 
2858 55 82.7207 
2859 123 109.315 
2860 62 106.342 
2861 7 93.6593 
2862 96 71.9245 
2863 15 76.4194 
2864 42 75.201 
2865 51 118.507 
2866 49 97.1119 
2867 31 77.2645 
2868 7 118.943 
2869 148 80.0043 
2870 13 65.6153 
2871 7 91.2558 
2872 11 82.7073 
2873 15 106.334 
2874 23 82.1248 
2875 101 95.8209 
2876 62 87.0501 
2877 4 79.5167 
2878 166 112.984 
2879 302 91.9322 
2880 107 114.933 
2881 118 75.7552 
2882 16 90.9327 
2883 4 81.5723 
2884 188 95.938 
2885 30 115.534 
2886 21 106.98 
2887 4 73.6671 
2888 14 109.403 
2889 11 90.4901 
2890 235 102.241 
2891 131 155.839 
2892 72 88.4726 
2893 85 91.6058 
2894 18 92.704 
2895 124 101 
2896 325 93.0019 
2897 58 87.587 
2898 72 105.588 
2899 119 95.1596 
2900 3 95.3384 
2901 11 77.0701 
2902 52 102.803 
2903 37 94.3196 
2904 51 65.7068 
2905 28 87.9635 
2906 52 103.992 
2907 157 84.2179 
2908 100 87.3319 
2909 4 75.2308 
2910 8 105.574 
2911 6 82.7467 
2912 104 124.133 
2913 33 110.577 
2914 46 93.1147 
2915 6 62.4052 
2916 9 111.382 
2917 14 93.5852 
2918 37 63.5883 
2919 29 86.5267 
2920 105 101.924 
2921 97 102.552 
2922 15 78.4886 
2923 34 113.112 
2924 102 100.065 
2925 102 105.277 
2926 143 76.7122 
2927 77 111.349 
2928 10 94.6616 
2929 181 100.953 
2930 14 90.9598 
2931 414 118.604 
2932 26 107.533 
2933 58 103.795 
2934 32 104.68 
2935 114 91.5964 
2936 127 97.9604 
2937 31 100.22 
2938 222 89.7963 
2939 5 106.957 
2940 48 99.1945 
2941 54 84.4318 
2942 11 106.661 
2943 256 97.6263 
2944 78 97.445 
2945 5 86.7082 
2946 44 106.506 
2947 412 92.7186 
2948 53 84.3418 
2949 138 93.8554 
2950 9 74.8756 
2951 180 102.552 
2952 255 91.5169 
2953 54 87.9659 
2954 22 72.2435 
2955 48 133.987 
2956 81 87.7572 
2957 53 42.6571 
2958 6 84.7098 
2959 11 81.7642 
2960 71 89.9502 
2961 78 106.074 
2962 45 92.8185 
2963 48 77.5624 
2964 143 -8.36546 
2965 24 115.671 
2966 34 109.753 
2967 72 92.2146 
2968 10 90.7852 
2969 61 109.523 
2970 75 93.7978 
2971 28 111.844 
2972 135 100.914 
2973 124 101.393 
2974 22 102.988 
2975 54 93.3015 
2976 511 84.9927 
2977 186 93.5903 
2978 13 98.4391 
2979 74 107.706 
2980 62 75.129 
2981 128 101.804 
2982 8 98.9715 
2983 110 107.294 
2984 4 81.0958 
2985 155 105.478 
2986 92 86.9138 
2987 116 100.897 
2988 96 70.2992 
2989 20 99.8648 
2990 322 102.7 
2991 21 99.7086 
2992 123 64.6438 
2993 71 102.263 
2994 270 115.24 
2995 133 90.7797 
2996 52 110.534 
2997 49 96.7114 
2998 86 91.157 
2999 12 50.0995 
3000 8 107.375 
3001 24 100.436 
3002 32 107.496 
3003 18 123.619 
3004 20 102.533 
3005 12 105.348 
3006 99 126.272 
3007 125 102.729 
3008 48 85.4657 
3009 40 75.5576 
3010 19 92.4626 
3011 44 79.458 
3012 52 87.321 
3013 60 104.544 
3014 74 84.5883 
3015 113 105.356 
3016 41 69.776 
3017 21 82.8371 
3018 9 71.2492 
3019 15 88.5356 
3020 54 84.4811 
3021 152 116.333 
3022 68 108.103 
3023 227 89.0205 
3024 57 96.0416 
3025 22 115.944 
3026 32 89.731 
3027 158 106.237 
3028 26 94.9915 
3029 218 93.8382 
3030 65 90.2531 
3031 21 99.4179 
3032 80 103.931 
3033 38 104.009 
3034 71 126.405 
3035 139 89.6249 
3036 57 94.0206 
3037 66 101.521 
3038 17 107.477 
3039 268 83.9787 
3040 49 115.43 
3041 94 79.2063 
3042 4 110.461 
3043 13 66.0531 
3044 53 104.967 
3045 20 106.707 
3046 100 112.329 
3047 46 113.977 
3048 59 93.6403 
3049 126 90.5768 
3050 163 78.9969 
3051 239 109.237 
3052 16 91.6058 
3053 27 76.0815 
3054 13 87.483 
3055 19 112.376 
3056 3 64.8158 
3057 107 101.393 
3058 68 73.6671 
3059 37 86.2684 
3060 11 59.2972 
3061 188 87.3939 
3062 221 114.686 
3063 74 111.175 
3064 79 81.7738 
3065 40 106.724 
3066 11 77.7158 
3067 18 84.2066 
3068 7 92.9421 
3069 100 105.872 
3070 45 78.9372 
3071 17 74.0768 
3072 53 98.1151 
3073 277 89.8329 
3074 26 104.495 
3075 109 105.066 
3076 19 93.0017 
3077 89 109.146 
3078 27 88.8718 
3079 16 112.119 
3080 1 106.335 
3081 63 76.792 
3082 225 107.77 
3083 3 97.0376 
3084 45 75.7552 
3085 23 96.0493 
3086 55 105.661 
3087 94 134.052 
3088 8 101.989 
3089 122 107.884 
3090 114 100.057 
3091 140 133.646 
3092 104 105.415 
3093 117 115.092 
3094 203 116.892 
3095 189 98.5216 
3096 65 77.1985 
3097 57 82.6918 
3098 56 98.2662 
3099 13 104.169 
3100 52 94.2619 
3101 482 77.118 
3102 208 95.3577 
3103 7 85.8489 
3104 79 94.0084 
3105 80 91.9589 
3106 224 94.1552 
3107 290 104.545 
3108 52 97.1723 
3109 23 105.02 
3110 53 82.2122 
3111 37 99.1049 
3112 39 84.2846 
3113 16 107.035 
3114 199 109.626 
3115 42 100.93 
3116 204 86.2365 
3117 14 96.5061 
3118 7 112.186 
3119 86 90.4705 
3120 15 99.9068 
3121 3 98.0941 
3122 63 98.4897 
3123 105 96.5481 
3124 28 89.1113 
3125 44 92.5343 
3126 76 80.0134 
3127 0 99.4416 
3128 13 64.9907 
3129 157 97.2568 
3130 32 109.832 
3131 16 102.206 
3132 159 99.478 
3133 107 89.0002 
3134 11 100.05 
3135 58 94.4978 
3136 14 74.3422 
3137 23 88.6503 
3138 50 136.143 
3139 217 98.4749 
3140 53 117.863 
3141 260 111.34 
3142 14 82.1263 
3143 126 109.085 
3144 157 135.502 
3145 46 81.7642 
3146 284 97.5744 
3147 101 77.2457 
3148 95 141.156 
3149 11 104.275 
3150 0 77.1485 
3151 21 97.1264 
3152 53 84.1413 
3153 11 100.9 
3154 7 86.5701 
3155 85 73.6715 
3156 96 76.1865 
3157 124 94.1169 
3158 10 103.405 
3159 198 107.088 
3160 58 104.597 
3161 88 72.6145 
3162 28 75.8087 
3163 14 89.3967 
3164 44 94.7946 
3165 32 72.7902 
3166 59 84.8002 
3167 0 64.8158 
3168 10 102.888 
3169 98 113.721 
3170 56 118.54 
3171 104 88.1726 
3172 19 90.0836 
3173 55 81.9753 
3174 97 85.6889 
3175 261 109.726 
3176 42 96.8587 
3177 168 103.992 
3178 91 71.3643 
3179 102 114.849 
3180 68 94.9007 
3181 51 101.314 
3182 63 93.2071 
3183 6 89.3612 
3184 17 85.7859 
3185 169 53.8685 
3186 268 109.444 
3187 58 101.653 
3188 136 101.173 
3189 162 97.2574 
3190 72 79.6812 
3191 54 75.712 
3192 169 92.9517 
3193 117 95.8001 
3194 72 101.843 
3195 86 95.7358 
3196 136 99.1571 
3197 411 70.8829 
3198 74 52.5328 
3199 110 102.417 
3200 9 97.4463 
3201 47 84.0411 
3202 135 124.761 
3203 20 69.4882 
3204 181 98.5139 
3205 14 79.4449 
3206 151 107.31 
3207 159 100.888 
3208 49 64.9235 
3209 169 138.93 
3210 79 82.9336 
3211 195 66.6364 
3212 38 82.5219 
3213 15 88.4726 
3214 137 97.0357 
3215 10 75.0363 
3216 177 92.3235 
3217 123 97.4172 
3218 218 102.417 
3219 64 88.2995 
3220 69 76.8767 
3221 122 125.646 
3222 62 111.035 
3223 105 108.442 
3224 149 111.948 
3225 31 80.0758 
3226 34 103.411 
3227 18 56.543 
3228 22 85.6764 
3229 70 100.914 
3230 319 106.529 
3231 19 102.907 
3232 29 73.7792 
3233 51 125.017 
3234 66 92.8111 
3235 94 106.112 
3236 237 122.454 
3237 222 101.011 
3238 412 116.395 
3239 176 97.2382 
3240 73 102.78 
3241 45 74.5994 
3242 139 87.197 
3243 559 84.6153 
3244 131 101.998 
3245 32 109.128 
3246 66 107.627 
3247 345 109.343 
3248 12 91.0053 
3249 93 99.1404 
3250 14 99.8738 
3251 184 115.596 
3252 43 92.3566 
3253 83 112.363 
3254 56 110.815 
3255 14 59.3859 
3256 284 109.242 
3257 46 118.553 
3258 249 95.8627 
3259 60 81.2332 
3260 60 114.082 
3261 48 95.778 
3262 319 111.173 
3263 23 93.7794 
3264 163 95.4939 
3265 23 100.88 
3266 13 77.0701 
3267 35 107.401 
3268 11 89.224 
3269 39 79.601 
3270 74 65.057 
3271 28 97.1432 
3272 105 110.811 
3273 15 103.528 
3274 31 77.4431 
3275 171 108.312 
3276 83 90.1685 
3277 115 101.123 
3278 85 69.5715 
3279 42 86.9999 
3280 13 111.905 
3281 15 101.671 
3282 75 112.038 
3283 9 79.4401 
3284 54 102.626 
3285 16 102.394 
3286 231 153.928 
3287 179 107.81 
3288 46 62.3548 
3289 138 106.914 
3290 6 71.6671 
3291 73 96.9266 
3292 5 68.9295 
3293 242 116.829 
3294 8 93.7203 
3295 81 90.5124 
3296 2 84.1357 
3297 256 107.378 
3298 22 94.6251 
3299 70 78.6398 
3300 172 88.3069 
3301 5 106.675 
3302 18 71.5228 
3303 55 114.258 
3304 88 86.671 
3305 107 95.868 
3306 9 104.021 
3307 38 92.2334 
3308 5 107.854 
3309 22 74.5119 
3310 125 78.1768 
3311 6 78.3386 
3312 103 108.386 
3313 15 59.7751 
3314 70 105.138 
3315 199 107.612 
3316 88 102.638 
3317 8 91.1895 
3318 114 104.078 
3319 46 86.5643 
3320 381 88.4271 
3321 231 108.378 
3322 207 111.941 
3323 34 106.921 
3324 167 97.4744 
3325 7 94.1763 
3326 12 73.6341 
3327 90 84.1141 
3328 150 109.588 
3329 32 110.815 
3330 126 84.1141 
3331 24 105.732 
3332 37 97.4811 
3333 62 85.7709 
3334 27 71.3643 
3335 23 77.0229 
3336 18 102.595 
3337 25 123.724 
3338 23 64.6188 
3339 23 76.9885 
3340 106 88.6822 
3341 100 100.434 
3342 223 84.4928 
3343 30 122.346 
3344 94 83.0591 
3345 19 100.051 
3346 2 98.7684 
3347 5 90.3508 
3348 12 85.8927 
3349 13 104.304 
3350 7 97.5232 
3351 83 89.6072 
3352 52 87.7572 
3353 79 106.956 
3354 31 94.7775 
3355 231 117.175 
3356 89 72.3615 
3357 139 96.123 
3358 126 74.495 
3359 25 108.761 
3360 28 107.13 
3361 24 104.857 
3362 48 104.189 
3363 23 85.6886 
3364 166 135.796 
3365 237 119.051 
3366 29 73.9201 
3367 144 102.753 
3368 7 101.657 
3369 26 100.75 
3370 85 111.714 
3371 112 88.6503 
3372 163 114.205 
3373 31 62.3853 
3374 14 98.812 
3375 53 101.942 
3376 77 89.5936 
3377 26 82.8114 
3378 51 122.727 
3379 28 97.2861 
3380 192 92.3583 
3381 24 108.195 
3382 56 112.017 
3383 37 95.8786 
3384 5 60.8495 
3385 57 105.984 
3386 196 90.4049 
3387 6 83.0272 
3388 84 91.8079 
3389 290 112.884 
3390 58 101.904 
3391 16 79.975 
3392 34 43.0274 
3393 36 82.1026 
3394 8 98.6351 
3395 69 88.7693 
3396 207 100.806 
3397 234 119.414 
3398 3 73.6671 
3399 322 89.0508 
3400 49 124.905 
3401 25 82.1541 
3402 125 71.817 
3403 94 114.887 
3404 2 105.998 
3405 69 95.8497 
3406 96 141.757 
3407 4 91.5263 
3408 144 107.004 
3409 97 69.338 
3410 16 68.0463 
3411 14 105.73 
3412 45 97.8129 
3413 120 87.9057 
3414 45 106.244 
3415 117 90.8859 
3416 84 96.4196 
3417 21 81.1517 
3418 82 79.3489 
3419 27 82.2446 
3420 148 104.014 
3421 293 103.583 
3422 9 106.035 
3423 37 25.666 
3424 79 95.9571 
3425 1 64.8158 
3426 148 74.1233 
3427 276 91.7931 
3428 401 91.1783 
3429 160 89.5765 
3430 108 101.314 
3431 96 109.938 
3432 28 78.8567 
3433 190 107.762 
3434 16 114.32 
3435 322 92.6078 
3436 63 101.949 
3437 15 97.1887 
3438 70 99.2392 
3439 265 97.4966 
3440 156 91.5539 
3441 33 70.7186 
3442 108 114.421 
3443 93 111.65 
3444 55 105.478 
3445 21 86.0935 
3446 14 117.675 
3447 25 61.9895 
3448 7 88.3376 
3449 53 87.5607 
3450 74 101.037 
3451 6 94.167 
3452 310 99.9453 
3453 95 51.1335 
3454 37 94.4214 
3455 128 151.744 
3456 256 88.5887 
3457 3 110.366 
3458 74 83.8117 
3459 31 98.7466 
3460 3 78.6246 
3461 340 102.799 
3462 37 88.3688 
3463 254 89.5645 
3464 7 91.0912 
3465 296 105.122 
3466 123 112.542 
3467 60 115.343 
3468 3 115.71 
3469 12 76.1647 
3470 7 79.1603 
3471 122 93.487 
3472 288 99.83 
3473 7 56.4902 
3474 250 98.3736 
3475 7 108.033 
3476 417 102.471 
3477 60 101.163 
3478 154 28.5569 
3479 98 90.875 
3480 200 101.077 
3481 3 113.717 
3482 53 75.405 
3483 9 90.0074 
3484 51 115.509 
3485 79 89.8996 
3486 192 83.0591 
3487 24 63.9389 
3488 87 97.0192 
3489 106 90.2817 
3490 14 116.63 
3491 196 86.9214 
3492 37 63.1026 
3493 169 116.76 
3494 108 97.7459 
3495 118 115.731 
3496 33 110.284 
3497 164 120.154 
3498 30 83.6809 
3499 150 121.553 
3500 165 88.0599 
3501 6 95.261 
3502 23 84.8205 
3503 42 107.876 
3504 28 106.175 
3505 103 70.1163 
3506 49 95.3603 
3507 39 124.598 
3508 11 88.1021 
3509 87 102.762 
3510 147 97.066 
3511 181 81.3794 
3512 139 119.801 
3513 106 108.033 
3514 43 106.415 
3515 27 83.0855 
3516 194 79.048 
3517 12 81.2074 
3518 195 85.8291 
3519 22 95.0109 
3520 4 69.7238 
3521 188 120.709 
3522 36 98.5976 
3523 297 106.521 
3524 28 112.845 
3525 34 86.1103 
3526 96 102.241 
3527 95 77.0701 
3528 206 85.9047 
3529 0 65.3402 
3530 228 103.077 
3531 28 77.3806 
3532 156 102.597 
3533 123 102.037 
3534 162 93.5903 
3535 96 89.9584 
3536 13 86.1079 
3537 355 105.194 
3538 107 100.204 
3539 7 76.772 
3540 193 92.0739 
3541 185 94.3069 
3542 70 94.3575 
3543 8 75.8249 
3544 9 102.538 
3545 14 90.2786 
3546 432 99.954 
3547 329 99.9232 
3548 217 109.234 
3549 13 109.686 
3550 44 107.305 
3551 129 91.5623 
3552 104 85.5426 
3553 77 97.9604 
3554 90 101.614 
3555 16 80.0813 
3556 40 78.6106 
3557 84 109.679 
3558 3 102.241 
3559 321 106.434 
3560 144 97.1427 
3561 39 100.413 
3562 153 88.0663 
3563 63 98.5216 
3564 236 95.8158 
3565 140 105.074 
3566 129 118.55 
3567 9 85.1871 
3568 76 112.956 
3569 63 90.3685 
3570 184 103.863 
3571 7 107.038 
3572 3 106.125 
3573 43 101.574 
3574 3 94.1094 
3575 36 82.6479 
3576 148 106.137 
3577 34 97.1067 
3578 42 106.689 
3579 27 77.803 
3580 24 112.594 
3581 81 118.625 
3582 43 108.901 
3583 4 69.776 
3584 86 104.958 
3585 81 84.5407 
3586 25 97.1308 
3587 10 70.8719 
3588 128 108.179 
3589 5 99.2461 
3590 78 109.668 
3591 14 71.7351 
3592 2 87.5497 
3593 185 123.533 
3594 65 89.0116 
3595 12 75.7552 
3596 12 110.416 
3597 36 98.3514 
3598 103 153.07 
3599 136 80.787 
3600 30 118.669 
3601 12 81.2532 
3602 206 85.5657 
3603 539 111.716 
3604 42 91.6058 
3605 42 103.351 
3606 11 107.411 
3607 46 92.9556 
3608 15 65.3214 
3609 79 93.5852 
3610 11 97.7698 
3611 194 80.0206 
3612 9 103.119 
3613 203 92.2207 
3614 19 73.1069 
3615 115 99.4416 
3616 71 73.0486 
3617 10 106.729 
3618 39 108.858 
3619 8 79.4033 
3620 47 88.5597 
3621 70 82.7526 
3622 257 83.2151 
3623 28 99.6332 
3624 29 79.8449 
3625 130 97.5018 
3626 9 118.678 
3627 217 110.355 
3628 19 93.8718 
3629 31 131.378 
3630 346 106.405 
3631 21 108.353 
3632 48 99.0392 
3633 52 96.7239 
3634 33 95.4641 
3635 0 71.3648 
3636 15 102.943 
3637 68 97.5549 
3638 8 74.495 
3639 14 110.462 
3640 58 107.448 
3641 54 100.644 
3642 35 77.2645 
3643 212 86.2345 
3644 151 95.9471 
3645 5 105.629 
3646 20 78.6278 
3647 121 78.0833 
3648 110 108.57 
3649 60 85.782 
3650 141 75.712 
3651 16 99.3603 
3652 55 105.483 
3653 95 99.0137 
3654 21 101.123 
3655 185 115.175 
3656 293 102.367 
3657 13 98.4647 
3658 11 97.8829 
3659 2 99.3583 
3660 53 61.5514 
3661 42 117.857 
3662 28 93.6761 
3663 30 99.2225 
3664 14 109.734 
3665 68 103.058 
3666 201 112.081 
3667 6 100.923 
3668 20 81.6541 
3669 70 53.0561 
3670 35 84.908 
3671 83 113.713 
3672 30 103.527 
3673 20 85.6051 
3674 63 104.89 
3675 32 81.445 
3676 97 132.57 
3677 78 104.45 
3678 10 89.8049 
3679 296 106.713 
3680 16 120.135 
3681 17 80.6609 
3682 74 95.5004 
3683 150 109.142 
3684 20 98.7466 
3685 13 87.0213 
3686 47 53.6614 
3687 225 86.8411 
3688 172 100.337 
3689 99 70.7978 
3690 210 104.821 
3691 156 96.2699 
3692 15 99.2371 
3693 326 91.2273 
3694 198 88.7875 
3695 14 103.206 
3696 27 74.4929 
3697 80 89.0933 
3698 222 118.883 
3699 297 96.3073 
3700 112 98.9156 
3701 117 103.276 
3702 2 68.0155 
3703 13 84.427 
3704 8 72.4073 
3705 67 43.6912 
3706 27 104.503 
3707 10 88.1392 
3708 157 145.444 
3709 40 87.0535 
3710 194 -12.1446 
3711 67 116.726 
3712 122 47.3641 
3713 2 97.8934 
3714 309 88.4568 
3715 64 108.103 
3716 89 68.7234 
3717 108 97.0397 
3718 193 104.355 
3719 46 96.9225 
3720 38 75.1896 
3721 35 105.665 
3722 3 85.3911 
3723 18 79.4422 
3724 301 99.7197 
3725 42 102.611 
3726 11 103.29 
3727 3 68.4616 
3728 239 85.1284 
3729 67 106.169 
3730 97 108.378 
3731 248 98.1204 
3732 72 99.0927 
3733 124 95.8076 
3734 6 93.7514 
3735 30 87.8105 
3736 3 66.6856 
3737 119 116.377 
3738 49 50.4204 
3739 99 101.591 
3740 144 82.6008 
3741 39 30.3121 
3742 97 89.5676 
3743 7 100.716 
3744 241 108.653 
3745 152 104.438 
3746 10 102.651 
3747 116 108.409 
3748 41 129.687 
3749 0 100.347 
3750 46 73.842 
3751 41 75.8087 
3752 9 79.7069 
3753 100 92.7781 
3754 139 96.4003 
3755 2 81.7538 
3756 15 72.8201 
3757 125 80.8024 
3758 130 89.0845 
3759 93 104.443 
3760 99 102.3 
3761 67 105.769 
3762 23 77.3885 
3763 67 111.478 
3764 174 143.244 
3765 93 87.389 
3766 195 121.512 
3767 7 88.242 
3768 18 63.9227 
3769 0 63.9389 
3770 13 113.612 
3771 12 91.7905 
3772 123 118.773 
3773 73 95.7375 
3774 4 108.619 
3775 87 108.08 
3776 183 92.5829 
3777 11 101.391 
3778 84 126.374 
3779 222 130.566 
3780 43 116.401 
3781 105 104.549 
3782 182 104.854 
3783 153 107.201 
3784 12 90.9258 
3785 211 99.9899 
3786 54 122.787 
3787 11 89.809 
3788 16 102.402 
3789 248 97.6912 
3790 255 100.045 
3791 54 92.8329 
3792 135 122.964 
3793 4 86.7745 
3794 41 24.6079 
3795 22 95.1173 
3796 8 110.145 
3797 179 98.2065 
3798 75 103.123 
3799 36 96.868 
3800 82 109.956 
3801 56 71.3218 
3802 6 97.066 
3803 0 69.5138 
3804 43 79.1017 
3805 110 107.745 
3806 225 103.615 
3807 129 82.8114 
3808 21 105.979 
3809 175 105.291 
3810 185 98.3736 
3811 11 70.1861 
3812 118 70.1947 
3813 56 108.877 
3814 0 83.2569 
3815 6 70.9643 
3816 384 103.505 
3817 210 104.606 
3818 246 106.127 
3819 70 82.7526 
3820 215 93.9633 
3821 45 121.792 
3822 121 102.947 
3823 30 56.2988 
3824 6 108.442 
3825 25 88.9499 
3826 21 88.1491 
3827 272 137.385 
3828 18 104.014 
3829 33 67.8987 
3830 78 132.07 
3831 7 95.7329 
3832 145 83.615 
3833 85 79.8619 
3834 54 72.7917 
3835 79 100.061 
3836 99 88.0552 
3837 5 109.401 
3838 97 107.794 
3839 69 104.11 
3840 9 98.1748 
3841 166 95.9365 
3842 42 99.2467 
3843 84 81.8421 
3844 25 84.7257 
3845 66 57.9878 
3846 38 91.6135 
3847 43 100.398 
3848 100 105.286 
3849 81 95.853 
3850 11 101.827 
3851 208 79.048 
3852 329 91.8701 
3853 47 117.266 
3854 223 105.452 
3855 134 104.362 
3856 125 97.6912 
3857 260 132.999 
3858 24 80.4987 
3859 10 114.445 
3860 17 76.7233 
3861 192 77.0324 
3862 103 85.8293 
3863 211 104.934 
3864 31 127.034 
3865 16 101.182 
3866 131 104.923 
3867 108 65.3603 
3868 9 85.7803 
3869 16 74.4744 
3870 14 97.2252 
3871 72 101.137 
3872 30 106.512 
3873 110 98.812 
3874 36 85.5119 
3875 101 102.156 
3876 210 88.242 
3877 0 63.0725 
3878 98 106.772 
3879 18 95.0824 
3880 157 106.914 
3881 109 94.2061 
3882 78 90.9148 
3883 232 101.78 
3884 63 111.574 
3885 127 112.903 
3886 33 83.2569 
3887 27 116.1 
3888 61 60.5067 
3889 204 123.089 
3890 63 100.75 
3891 0 71.3648 
3892 148 106.284 
3893 20 90.2545 
3894 108 107.418 
3895 32 75.0117 
3896 80 83.0272 
3897 29 126.546 
3898 24 101.972 
3899 34 98.4289 
3900 137 101.547 
3901 47 117.433 
3902 8 72.1499 
3903 18 119.7 
3904 41 107.477 
3905 90 101.574 
3906 175 90.5347 
3907 20 87.5073 
3908 110 106.299 
3909 159 102.725 
3910 27 93.4047 
3911 131 91.0912 
3912 13 94.7397 
3913 109 95.1964 
3914 13 104.637 
3915 585 96.263 
3916 57 96.868 
3917 33 134.909 
3918 181 102.241 
3919 124 96.5943 
3920 24 111.905 
3921 69 94.8692 
3922 56 101.567 
3923 10 79.1982 
3924 79 92.751 
3925 29 86.0904 
3926 102 109.962 
3927 36 61.6687 
3928 7 94.4407 
3929 19 104.774 
3930 126 106.139 
3931 360 105.279 
3932 7 105.13 
3933 5 103.883 
3934 276 83.3816 
3935 131 145.287 
3936 4 102.156 
3937 37 88.402 
3938 439 108.243 
3939 275 120.252 
3940 75 83.6457 
3941 75 123.748 
3942 371 110.057 
3943 236 108.167 
3944 50 105.956 
3945 97 110.409 
3946 57 111.884 
3947 198 93.2263 
3948 186 107.428 
3949 174 116.421 
3950 177 101.037 
3951 135 91.6825 
3952 31 71.9564 
3953 9 74.7935 
3954 156 102.723 
3955 67 80.3103 
3956 123 73.001 
3957 0 53.7956 
3958 159 107.745 
3959 0 78.1226 
3960 19 71.2564 
3961 293 107.136 
3962 25 87.114 
3963 14 88.1266 
3964 24 88.0685 
3965 69 90.6338 
3966 224 100.122 
3967 181 95.9555 
3968 10 124.498 
3969 180 108.2 
3970 52 76.4835 
3971 35 103.421 
3972 148 67.4908 
3973 34 60.9898 
3974 9 86.257 
3975 134 97.4581 
3976 10 94.7369 
3977 18 124.143 
3978 153 106.595 
3979 113 127.768 
3980 48 99.3937 
3981 79 93.1685 
3982 9 104.078 
3983 75 82.4475 
3984 150 106.737 
3985 0 63.2951 
3986 200 109.068 
3987 92 95.9313 
3988 194 106.542 
3989 5 95.2567 
3990 4 106.39 
3991 174 102.702 
3992 71 87.1351 
3993 75 87.197 
3994 115 90.4705 
3995 94 69.9449 
3996 85 110.282 
3997 96 102.539 
3998 2 93.0969 
3999 30 108.097 
4000 101 89.6011 
4001 22 69.0863 
4002 227 89.0508 
4003 184 85.9608 
4004 25 110.104 
4005 121 102.428 
4006 98 114.099 
4007 179 84.481 
4008 213 98.6212 
4009 17 92.8949 
4010 109 81.4389 
4011 17 85.5818 
4012 504 80.9592 
4013 6 100.204 
4014 33 104.563 
4015 6 110.55 
4016 46 96.8452 
4017 37 86.8641 
4018 49 104.575 
4019 147 106.634 
4020 11 88.2629 
4021 93 104.922 
4022 138 107.413 
4023 95 111.134 
4024 97 103.565 
4025 81 125.984 
4026 0 123.369 
4027 8 77.6444 
4028 7 106.759 
4029 69 103.733 
4030 89 110.205 
4031 29 87.6472 
4032 139 40.8026 
4033 59 87.7896 
4034 22 68.9228 
4035 13 74.4404 
4036 174 111.816 
4037 14 86.5615 
4038 30 51.6327 
4039 85 107.411 
4040 1 94.6165 
4041 51 104.099 
4042 9 87.2106 
4043 58 110.662 
4044 145 83.9656 
4045 5 96.2005 
4046 68 107.552 
4047 98 70.8719 
4048 24 32.9863 
4049 223 98.3336 
4050 4 81.8945 
4051 26 62.9755 
4052 15 124.644 
4053 19 107.02 
4054 53 86.2449 
4055 58 82.7688 
4056 15 73.03 
4057 30 89.2432 
4058 33 92.9977 
4059 57 108.993 
4060 154 93.7127 
4061 105 92.2336 
4062 6 81.7648 
4063 197 103.825 
4064 125 106.694 
4065 60 100.419 
4066 38 117.293 
4067 16 93.7107 
4068 64 76.4699 
4069 41 70.2573 
4070 84 102.444 
4071 65 102.765 
4072 2 93.0176 
4073 145 95.5805 
4074 10 63.9277 
4075 85 92.0739 
4076 2 90.6175 
4077 19 106.959 
4078 62 145.92 
4079 84 103.003 
4080 85 81.7538 
4081 180 110.692 
4082 14 70.0679 
4083 173 106.386 
4084 92 96.9205 
4085 98 68.3696 
4086 266 108.574 
4087 307 81.235 
4088 12 106.652 
4089 140 102.685 
4090 168 97.7476 
4091 10 98.1995 
4092 9 92.7335 
4093 19 78.8733 
4094 97 121.521 
4095 95 129.648 
4096 65 73.1249 
4097 330 91.9024 
4098 9 93.0604 
4099 22 95.2205 
4100 0 64.9907 
4101 132 95.261 
4102 6 89.0082 
4103 54 100.531 
4104 100 96.2656 
4105 121 111.921 
4106 95 92.7507 
4107 210 71.1985 
4108 56 71.1848 
4109 112 99.5536 
4110 102 91.2589 
4111 34 93.6676 
4112 15 88.7889 
4113 25 102.101 
4114 126 93.9978 
4115 9 118.801 
4116 3 62.3926 
4117 25 82.4522 
4118 45 81.1871 
4119 42 81.22 
4120 34 98.7874 
4121 174 106.946 
4122 266 97.0081 
4123 510 90.3516 
4124 36 80.2234 
4125 6 105.294 
4126 157 67.9429 
4127 33 80.7518 
4128 26 83.0631 
4129 89 74.8582 
4130 43 57.9854 
4131 56 102.839 
4132 246 125.676 
4133 306 84.8353 
4134 222 103.782 
4135 2 64.8158 
4136 158 104.032 
4137 283 116.539 
4138 251 98.3295 
4139 65 80.0411 
4140 10 120.639 
4141 18 85.1044 
4142 95 101.37 
4143 69 96.289 
4144 54 90.7159 
4145 188 103.913 
4146 90 111.05 
4147 179 87.52 
4148 25 86.66 
4149 26 89.8653 
4150 44 108.656 
4151 116 104.724 
4152 118 113.157 
4153 217 102.074 
4154 42 89.2892 
4155 3 101.999 
4156 106 114.34 
4157 39 66.2443 
4158 64 68.7234 
4159 111 111.349 
4160 78 91.0912 
4161 30 99.5316 
4162 71 108.061 
4163 17 99.478 
4164 215 92.9449 
4165 115 98.1643 
4166 62 112.356 
4167 0 63.9889 
4168 40 74.5011 
4169 52 114.041 
4170 23 107.897 
4171 165 116.637 
4172 7 93.8954 
4173 147 109.73 
4174 278 112.593 
4175 51 115.799 
4176 10 83.0313 
4177 78 71.0314 
4178 288 105.194 
4179 199 110.905 
4180 36 114.384 
4181 128 102.723 
4182 138 119.621 
4183 74 89.3722 
4184 38 79.9694 
4185 69 105.725 
4186 26 100.395 
4187 16 95.183 
4188 5 97.6364 
4189 68 114.927 
4190 41 97.9511 
4191 84 106.962 
4192 23 64.1974 
4193 54 107.274 
4194 228 118.023 
4195 3 70.302 
4196 70 103.771 
4197 8 71.1949 
4198 42 79.0652 
4199 32 72.8926 
4200 371 94.8691 
4201 36 101.455 
4202 29 75.3003 
4203 19 87.5114 
4204 16 100.736 
4205 23 83.0923 
4206 153 109.876 
4207 181 97.0625 
4208 139 100.768 
4209 84 98.3584 
4210 278 95.6187 
4211 139 96.9081 
4212 123 109.727 
4213 55 65.2587 
4214 47 87.3559 
4215 124 103.779 
4216 0 84.1465 
4217 169 109.411 
4218 40 137.498 
4219 14 107.158 
4220 29 100.048 
4221 23 83.9787 
4222 150 113.552 
4223 13 80.4889 
4224 94 95.3998 
4225 163 97.8197 
4226 17 58.729 
4227 153 163.523 
4228 157 90.5007 
4229 223 100.531 
4230 73 119.675 
4231 49 95.0318 
4232 4 76.4347 
4233 13 100.805 
4234 22 113.4 
4235 267 83.8206 
4236 2 60.4018 
4237 58 111.28 
4238 18 90.7648 
4239 0 75.8249 
4240 19 95.071 
4241 20 98.57 
4242 101 87.1388 
4243 216 128.052 
4244 18 93.1 
4245 159 85.1336 
4246 24 100.488 
4247 128 84.2301 
4248 76 98.6482 
4249 93 102.043 
4250 54 95.7044 
4251 143 54.0418 
4252 12 76.6019 
4253 18 61.3101 
4254 18 72.6538 
4255 110 137.506 
4256 84 89.0845 
4257 20 109.782 
4258 208 119.5 
4259 31 86.8191 
4260 78 91.939 
4261 101 84.3818 
4262 110 94.1763 
4263 29 94.6548 
4264 0 81.688 
4265 119 103.733 
4266 24 89.5936 
4267 0 92.9766 
4268 4 110.031 
4269 29 12.0868 
4270 71 117.72 
4271 3 103.365 
4272 16 113.828 
4273 43 105.062 
4274 95 75.2308 
4275 106 101.442 
4276 80 97.3898 
4277 251 84.1465 
4278 127 51.7066 
4279 50 77.2262 
4280 89 62.624 
4281 153 107.545 
4282 208 118.244 
4283 10 102.597 
4284 223 99.7999 
4285 151 104.768 
4286 67 77.388 
4287 105 78.647 
4288 23 113.559 
4289 23 95.7844 
4290 4 105.03 
4291 13 74.0888 
4292 23 73.1991 
4293 11 113.922 
4294 9 91.4732 
4295 10 107.844 
4296 397 68.9401 
4297 82 109.829 
4298 322 105.492 
4299 125 105.832 
4300 55 84.7667 
4301 22 91.6058 
4302 229 73.8325 
4303 14 109.768 
4304 32 109.668 
4305 16 103.869 
4306 65 60.9068 
4307 3 105.986 
4308 15 99.8408 
4309 32 78.7872 
4310 96 105.841 
4311 63 108.047 
4312 139 99.7546 
4313 15 97.9189 
4314 48 101.104 
4315 86 144.279 
4316 64 87.197 
4317 88 98.3163 
4318 72 76.4835 
4319 17 85.8528 
4320 223 103.09 
4321 63 66.3632 
4322 1 56.5337 
4323 7 100.347 
4324 77 101.473 
4325 123 107.099 
4326 23 80.0995 
4327 229 130.675 
4328 128 112.933 
4329 4 68.7223 
4330 38 105.292 
4331 33 103.789 
4332 121 111.443 
4333 37 106.527 
4334 35 115.244 
4335 65 100.3 
4336 26 96.7728 
4337 152 117.355 
4338 95 99.9899 
4339 146 116.533 
4340 62 96.4194 
4341 45 85.4657 
4342 54 103.816 
4343 15 83.8048 
4344 35 95.1964 
4345 42 116.646 
4346 68 89.8137 
4347 260 91.397 
4348 90 109.839 
4349 0 88.1268 
4350 6 86.5326 
4351 394 99.4019 
4352 24 85.0182 
4353 169 91.9557 
4354 71 104.89 
4355 5 93.0464 
4356 270 101.054 
4357 457 114.961 
4358 22 105.03 
4359 37 78.392 
4360 71 106.68 
4361 43 91.2812 
4362 95 105.058 
4363 140 103.747 
4364 206 92.7505 
4365 20 104.831 
4366 199 100.057 
4367 2 55.0831 
4368 270 95.3096 
4369 309 117.764 
4370 44 95.364 
4371 68 104.776 
4372 42 75.9474 
4373 33 102.263 
4374 27 101.711 
4375 21 86.7998 
4376 54 99.8524 
4377 49 103.724 
4378 37 77.3743 
4379 205 100.251 
4380 48 113.649 
4381 111 79.6615 
4382 0 97.4584 
4383 91 103.607 
4384 19 98.1748 
4385 102 98.9949 
4386 93 100.908 
4387 202 82.0998 
4388 276 101.963 
4389 179 69.0434 
4390 268 105.086 
4391 279 106.617 
4392 359 97.5645 
4393 36 108.113 
4394 123 98.3158 
4395 73 103.855 
4396 13 100.888 
4397 70 92.0318 
4398 136 102.725 
4399 30 105.086 
4400 19 106.521 
4401 72 111.126 
4402 171 111.568 
4403 29 68.1938 
4404 12 73.1069 
4405 100 91.9829 
4406 87 84.1826 
4407 188 118.703 
4408 2 91.8801 
4409 24 110.368 
4410 185 81.688 
4411 89 101.379 
4412 57 96.4196 
4413 19 89.2272 
4414 168 69.0552 
4415 256 103.241 
4416 58 84.4108 
4417 38 99.9962 
4418 43 84.908 
4419 31 112.487 
4420 27 76.9882 
4421 39 99.6697 
4422 13 96.5193 
4423 31 106.106 
4424 424 91.0474 
4425 22 85.6356 
4426 35 72.0994 
4427 162 104.901 
4428 38 7.00608 
4429 186 104.243 
4430 7 99.0976 
4431 121 97.5341 
4432 161 106.306 
4433 187 90.4827 
4434 470 94.8101 
4435 94 73.03 
4436 72 116.2 
4437 10 99.1465 
4438 23 64.8158 
4439 18 96.3228 
4440 180 96.7768 
4441 480 113.113 
4442 177 86.3662 
4443 146 104.551 
4444 32 100.471 
4445 26 119.303 
4446 6 91.8264 
4447 176 107.404 
4448 256 89.4252 
4449 96 88.2637 
4450 98 80.0206 
4451 189 84.1133 
4452 1 70.3317 
4453 35 97.1085 
4454 153 72.6145 
4455 23 87.7086 
4456 134 124.912 
4457 93 71.5811 
4458 3 75.2308 
4459 212 74.495 
4460 123 73.3286 
4461 30 91.9467 
4462 36 103.367 
4463 2 103.629 
4464 151 85.4657 
4465 88 102.375 
4466 18 74.2047 
4467 40 93.6509 
4468 105 87.8416 
4469 42 82.4337 
4470 25 95.8393 
4471 97 85.7219 
4472 7 105.666 
4473 5 100.626 
4474 423 100.885 
4475 14 90.7663 
4476 78 139.923 
4477 97 108.378 
4478 554 105.62 
4479 19 109.002 
4480 63 76.2731 
4481 131 71.3441 
4482 46 119.176 
4483 74 28.9982 
4484 13 109.004 
4485 71 87.5981 
4486 118 85.5986 
4487 57 91.4141 
4488 62 107.03 
4489 90 105.074 
4490 48 83.478 
4491 7 92.5577 
4492 173 87.3939 
4493 298 92.4143 
4494 219 103.781 
4495 71 104.934 
4496 289 83.7262 
4497 213 96.8109 
4498 31 73.9654 
4499 254 99.1126 
4500 178 86.5042 
4501 223 101.918 
4502 7 96.8049 
4503 22 91.1251 
4504 368 100.105 
4505 219 85.5505 
4506 11 97.3187 
4507 76 75.2308 
4508 0 74.2911 
4509 48 100.547 
4510 69 109.78 
4511 16 106.463 
4512 63 49.6965 
4513 20 92.2335 
4514 134 137.392 
4515 155 101.858 
4516 46 83.7995 
4517 32 109.01 
4518 138 102.426 
4519 134 90.5347 
4520 272 115.786 
4521 1 86.8641 
4522 22 91.8627 
4523 110 105.69 
4524 233 104.36 
terror=6298.85
l1pen=33.2696
l2pen=231.986
4.91777 -8.21046 -9.99998 -1.36775 4.26122 -4.51243 
F= 4.91777* ( ( ( (DL)^(1/2)  -  Sin[ (1/(DL - (-25.1862))) ] ) ) ) -8.21046* ( (1/(HH - (-19.217))) )^(1/2) -9.99998* ( Cos[ (DL * (-25.1862)) ] )^2 -1.36775* Sin[ (HH - (-19.217)) ] +4.26122* (HH - (-19.217)) -4.51243* (HH +  Cos[ (DL * (-25.1862)) ] ) 
2 1 2 9 0 0 10 6 0 -25.1862 9 6 1 -19.217 0 0 0 0 0 0 8 11 7 0 -25.1862 0 0 0 0 0 10 5 1 -19.217 0 0 0 0 0 0 5 1 -19.217 0 0 0 0 0 0 0 1 0 1 11 7 0 -25.1862 0 0 0 
0 0 0 0 0 2 0 0 2 1 0 0 2 1 0 0 0 0 0 0 0 0 0 2 1 0 0 0 0 0 0 0 2 1 0 0 0 0 0 0 0 2 1 0 0 0 0 0 0 0 0 0 2 0 0 2 1 0 0 0 
